[2021-09-09T21:43:33.917-0300][gc,heap] Heap region size: 1M
[2021-09-09T21:43:33.927-0300][gc     ] Using G1
[2021-09-09T21:43:33.927-0300][gc,heap,coops] Heap address: 0x00000007c0000000, size: 1024 MB, Compressed Oops mode: Zero based, Oop shift amount: 3
[2021-09-09T21:43:33.927-0300][gc,cds       ] Mark closed archive regions in map: [0x00000007fff00000, 0x00000007fff76ff8]
[2021-09-09T21:43:33.927-0300][gc,cds       ] Mark open archive regions in map: [0x00000007ffe00000, 0x00000007ffe46ff8]
[2021-09-09T21:43:33.946-0300][gc           ] Periodic GC disabled
[2021-09-09T21:43:35.248-0300][gc,start     ] GC(0) Pause Young (Normal) (G1 Evacuation Pause)
[2021-09-09T21:43:35.248-0300][gc,task      ] GC(0) Using 4 workers of 4 for evacuation
[2021-09-09T21:43:35.272-0300][gc,mmu       ] GC(0) MMU target violated: 21.0ms (20.0ms/21.0ms)
[2021-09-09T21:43:35.273-0300][gc,phases    ] GC(0)   Pre Evacuate Collection Set: 0.0ms
[2021-09-09T21:43:35.273-0300][gc,phases    ] GC(0)   Evacuate Collection Set: 23.4ms
[2021-09-09T21:43:35.273-0300][gc,phases    ] GC(0)   Post Evacuate Collection Set: 0.6ms
[2021-09-09T21:43:35.273-0300][gc,phases    ] GC(0)   Other: 0.7ms
[2021-09-09T21:43:35.273-0300][gc,heap      ] GC(0) Eden regions: 51->0(44)
[2021-09-09T21:43:35.273-0300][gc,heap      ] GC(0) Survivor regions: 0->7(7)
[2021-09-09T21:43:35.273-0300][gc,heap      ] GC(0) Old regions: 0->19
[2021-09-09T21:43:35.273-0300][gc,heap      ] GC(0) Archive regions: 2->2
[2021-09-09T21:43:35.273-0300][gc,heap      ] GC(0) Humongous regions: 5->4
[2021-09-09T21:43:35.273-0300][gc,metaspace ] GC(0) Metaspace: 6012K->6012K(1056768K)
[2021-09-09T21:43:35.273-0300][gc           ] GC(0) Pause Young (Normal) (G1 Evacuation Pause) 56M->30M(1024M) 24.937ms
[2021-09-09T21:43:35.273-0300][gc,cpu       ] GC(0) User=0.07s Sys=0.02s Real=0.03s
[2021-09-09T21:43:35.984-0300][gc,start     ] GC(1) Pause Young (Normal) (G1 Evacuation Pause)
[2021-09-09T21:43:35.984-0300][gc,task      ] GC(1) Using 4 workers of 4 for evacuation
[2021-09-09T21:43:35.998-0300][gc,phases    ] GC(1)   Pre Evacuate Collection Set: 0.0ms
[2021-09-09T21:43:35.998-0300][gc,phases    ] GC(1)   Evacuate Collection Set: 14.1ms
[2021-09-09T21:43:35.998-0300][gc,phases    ] GC(1)   Post Evacuate Collection Set: 0.3ms
[2021-09-09T21:43:35.998-0300][gc,phases    ] GC(1)   Other: 0.2ms
[2021-09-09T21:43:35.998-0300][gc,heap      ] GC(1) Eden regions: 44->0(49)
[2021-09-09T21:43:35.998-0300][gc,heap      ] GC(1) Survivor regions: 7->2(7)
[2021-09-09T21:43:35.998-0300][gc,heap      ] GC(1) Old regions: 19->26
[2021-09-09T21:43:35.998-0300][gc,heap      ] GC(1) Archive regions: 2->2
[2021-09-09T21:43:35.998-0300][gc,heap      ] GC(1) Humongous regions: 4->4
[2021-09-09T21:43:35.998-0300][gc,metaspace ] GC(1) Metaspace: 14650K->14650K(1062912K)
[2021-09-09T21:43:35.998-0300][gc           ] GC(1) Pause Young (Normal) (G1 Evacuation Pause) 74M->31M(1024M) 14.836ms
[2021-09-09T21:43:35.998-0300][gc,cpu       ] GC(1) User=0.05s Sys=0.00s Real=0.01s
[2021-09-09T21:43:36.494-0300][gc,start     ] GC(2) Pause Young (Concurrent Start) (Metadata GC Threshold)
[2021-09-09T21:43:36.494-0300][gc,task      ] GC(2) Using 4 workers of 4 for evacuation
[2021-09-09T21:43:36.498-0300][gc,phases    ] GC(2)   Pre Evacuate Collection Set: 0.1ms
[2021-09-09T21:43:36.498-0300][gc,phases    ] GC(2)   Evacuate Collection Set: 3.0ms
[2021-09-09T21:43:36.498-0300][gc,phases    ] GC(2)   Post Evacuate Collection Set: 0.2ms
[2021-09-09T21:43:36.498-0300][gc,phases    ] GC(2)   Other: 0.3ms
[2021-09-09T21:43:36.498-0300][gc,heap      ] GC(2) Eden regions: 36->0(48)
[2021-09-09T21:43:36.498-0300][gc,heap      ] GC(2) Survivor regions: 2->3(7)
[2021-09-09T21:43:36.498-0300][gc,heap      ] GC(2) Old regions: 26->26
[2021-09-09T21:43:36.498-0300][gc,heap      ] GC(2) Archive regions: 2->2
[2021-09-09T21:43:36.498-0300][gc,heap      ] GC(2) Humongous regions: 4->4
[2021-09-09T21:43:36.498-0300][gc,metaspace ] GC(2) Metaspace: 20520K->20520K(1069056K)
[2021-09-09T21:43:36.498-0300][gc           ] GC(2) Pause Young (Concurrent Start) (Metadata GC Threshold) 67M->32M(1024M) 3.767ms
[2021-09-09T21:43:36.498-0300][gc,cpu       ] GC(2) User=0.01s Sys=0.01s Real=0.00s
[2021-09-09T21:43:36.498-0300][gc           ] GC(3) Concurrent Cycle
[2021-09-09T21:43:36.498-0300][gc,marking   ] GC(3) Concurrent Clear Claimed Marks
[2021-09-09T21:43:36.498-0300][gc,marking   ] GC(3) Concurrent Clear Claimed Marks 0.030ms
[2021-09-09T21:43:36.498-0300][gc,marking   ] GC(3) Concurrent Scan Root Regions
[2021-09-09T21:43:36.501-0300][gc,marking   ] GC(3) Concurrent Scan Root Regions 2.281ms
[2021-09-09T21:43:36.501-0300][gc,marking   ] GC(3) Concurrent Mark (2.594s)
[2021-09-09T21:43:36.501-0300][gc,marking   ] GC(3) Concurrent Mark From Roots
[2021-09-09T21:43:36.501-0300][gc,task      ] GC(3) Using 1 workers of 1 for marking
[2021-09-09T21:43:36.513-0300][gc,marking   ] GC(3) Concurrent Mark From Roots 11.950ms
[2021-09-09T21:43:36.513-0300][gc,marking   ] GC(3) Concurrent Preclean
[2021-09-09T21:43:36.513-0300][gc,marking   ] GC(3) Concurrent Preclean 0.095ms
[2021-09-09T21:43:36.513-0300][gc,marking   ] GC(3) Concurrent Mark (2.594s, 2.606s) 12.124ms
[2021-09-09T21:43:36.513-0300][gc,start     ] GC(3) Pause Remark
[2021-09-09T21:43:36.514-0300][gc           ] GC(3) Pause Remark 32M->32M(1024M) 1.247ms
[2021-09-09T21:43:36.514-0300][gc,cpu       ] GC(3) User=0.00s Sys=0.00s Real=0.00s
[2021-09-09T21:43:36.514-0300][gc,marking   ] GC(3) Concurrent Rebuild Remembered Sets
[2021-09-09T21:43:36.521-0300][gc,marking   ] GC(3) Concurrent Rebuild Remembered Sets 6.905ms
[2021-09-09T21:43:36.522-0300][gc,start     ] GC(3) Pause Cleanup
[2021-09-09T21:43:36.522-0300][gc           ] GC(3) Pause Cleanup 33M->33M(1024M) 0.161ms
[2021-09-09T21:43:36.522-0300][gc,cpu       ] GC(3) User=0.00s Sys=0.00s Real=0.00s
[2021-09-09T21:43:36.522-0300][gc,marking   ] GC(3) Concurrent Cleanup for Next Mark
[2021-09-09T21:43:36.532-0300][gc,marking   ] GC(3) Concurrent Cleanup for Next Mark 9.784ms
[2021-09-09T21:43:36.532-0300][gc           ] GC(3) Concurrent Cycle 33.759ms
[2021-09-09T21:43:37.629-0300][gc,start     ] GC(4) Pause Young (Normal) (G1 Evacuation Pause)
[2021-09-09T21:43:37.629-0300][gc,task      ] GC(4) Using 4 workers of 4 for evacuation
[2021-09-09T21:43:37.636-0300][gc,phases    ] GC(4)   Pre Evacuate Collection Set: 0.1ms
[2021-09-09T21:43:37.636-0300][gc,phases    ] GC(4)   Evacuate Collection Set: 6.3ms
[2021-09-09T21:43:37.636-0300][gc,phases    ] GC(4)   Post Evacuate Collection Set: 0.6ms
[2021-09-09T21:43:37.636-0300][gc,phases    ] GC(4)   Other: 0.2ms
[2021-09-09T21:43:37.636-0300][gc,heap      ] GC(4) Eden regions: 48->0(46)
[2021-09-09T21:43:37.636-0300][gc,heap      ] GC(4) Survivor regions: 3->5(7)
[2021-09-09T21:43:37.636-0300][gc,heap      ] GC(4) Old regions: 26->26
[2021-09-09T21:43:37.636-0300][gc,heap      ] GC(4) Archive regions: 2->2
[2021-09-09T21:43:37.636-0300][gc,heap      ] GC(4) Humongous regions: 4->4
[2021-09-09T21:43:37.636-0300][gc,metaspace ] GC(4) Metaspace: 28875K->28875K(1075200K)
[2021-09-09T21:43:37.636-0300][gc           ] GC(4) Pause Young (Normal) (G1 Evacuation Pause) 80M->34M(1024M) 7.397ms
[2021-09-09T21:43:37.636-0300][gc,cpu       ] GC(4) User=0.02s Sys=0.00s Real=0.01s
[2021-09-09T21:43:39.106-0300][gc,start     ] GC(5) Pause Young (Normal) (G1 Evacuation Pause)
[2021-09-09T21:43:39.107-0300][gc,task      ] GC(5) Using 4 workers of 4 for evacuation
[2021-09-09T21:43:39.116-0300][gc,phases    ] GC(5)   Pre Evacuate Collection Set: 0.0ms
[2021-09-09T21:43:39.116-0300][gc,phases    ] GC(5)   Evacuate Collection Set: 8.3ms
[2021-09-09T21:43:39.116-0300][gc,phases    ] GC(5)   Post Evacuate Collection Set: 0.6ms
[2021-09-09T21:43:39.116-0300][gc,phases    ] GC(5)   Other: 0.2ms
[2021-09-09T21:43:39.116-0300][gc,heap      ] GC(5) Eden regions: 46->0(46)
[2021-09-09T21:43:39.116-0300][gc,heap      ] GC(5) Survivor regions: 5->5(7)
[2021-09-09T21:43:39.116-0300][gc,heap      ] GC(5) Old regions: 26->27
[2021-09-09T21:43:39.116-0300][gc,heap      ] GC(5) Archive regions: 2->2
[2021-09-09T21:43:39.116-0300][gc,heap      ] GC(5) Humongous regions: 4->4
[2021-09-09T21:43:39.116-0300][gc,metaspace ] GC(5) Metaspace: 29867K->29867K(1077248K)
[2021-09-09T21:43:39.116-0300][gc           ] GC(5) Pause Young (Normal) (G1 Evacuation Pause) 80M->36M(1024M) 9.372ms
[2021-09-09T21:43:39.116-0300][gc,cpu       ] GC(5) User=0.03s Sys=0.00s Real=0.01s
[2021-09-09T21:43:40.164-0300][gc,start     ] GC(6) Pause Young (Normal) (G1 Evacuation Pause)
[2021-09-09T21:43:40.164-0300][gc,task      ] GC(6) Using 4 workers of 4 for evacuation
[2021-09-09T21:43:40.176-0300][gc,phases    ] GC(6)   Pre Evacuate Collection Set: 0.1ms
[2021-09-09T21:43:40.176-0300][gc,phases    ] GC(6)   Evacuate Collection Set: 10.6ms
[2021-09-09T21:43:40.176-0300][gc,phases    ] GC(6)   Post Evacuate Collection Set: 0.8ms
[2021-09-09T21:43:40.176-0300][gc,phases    ] GC(6)   Other: 0.3ms
[2021-09-09T21:43:40.176-0300][gc,heap      ] GC(6) Eden regions: 46->0(45)
[2021-09-09T21:43:40.176-0300][gc,heap      ] GC(6) Survivor regions: 5->6(7)
[2021-09-09T21:43:40.176-0300][gc,heap      ] GC(6) Old regions: 27->30
[2021-09-09T21:43:40.176-0300][gc,heap      ] GC(6) Archive regions: 2->2
[2021-09-09T21:43:40.176-0300][gc,heap      ] GC(6) Humongous regions: 133->133
[2021-09-09T21:43:40.176-0300][gc,metaspace ] GC(6) Metaspace: 33237K->33237K(1079296K)
[2021-09-09T21:43:40.176-0300][gc           ] GC(6) Pause Young (Normal) (G1 Evacuation Pause) 211M->168M(1024M) 11.919ms
[2021-09-09T21:43:40.176-0300][gc,cpu       ] GC(6) User=0.03s Sys=0.00s Real=0.01s
[2021-09-09T21:43:40.311-0300][gc,start     ] GC(7) Pause Young (Concurrent Start) (Metadata GC Threshold)
[2021-09-09T21:43:40.312-0300][gc,task      ] GC(7) Using 4 workers of 4 for evacuation
[2021-09-09T21:43:40.323-0300][gc,phases    ] GC(7)   Pre Evacuate Collection Set: 0.2ms
[2021-09-09T21:43:40.323-0300][gc,phases    ] GC(7)   Evacuate Collection Set: 10.3ms
[2021-09-09T21:43:40.323-0300][gc,phases    ] GC(7)   Post Evacuate Collection Set: 0.3ms
[2021-09-09T21:43:40.323-0300][gc,phases    ] GC(7)   Other: 0.5ms
[2021-09-09T21:43:40.323-0300][gc,heap      ] GC(7) Eden regions: 11->0(46)
[2021-09-09T21:43:40.323-0300][gc,heap      ] GC(7) Survivor regions: 6->5(7)
[2021-09-09T21:43:40.323-0300][gc,heap      ] GC(7) Old regions: 30->32
[2021-09-09T21:43:40.323-0300][gc,heap      ] GC(7) Archive regions: 2->2
[2021-09-09T21:43:40.323-0300][gc,heap      ] GC(7) Humongous regions: 133->133
[2021-09-09T21:43:40.323-0300][gc,metaspace ] GC(7) Metaspace: 34461K->34461K(1081344K)
[2021-09-09T21:43:40.323-0300][gc           ] GC(7) Pause Young (Concurrent Start) (Metadata GC Threshold) 179M->169M(1024M) 11.659ms
[2021-09-09T21:43:40.323-0300][gc,cpu       ] GC(7) User=0.03s Sys=0.01s Real=0.01s
[2021-09-09T21:43:40.323-0300][gc           ] GC(8) Concurrent Cycle
[2021-09-09T21:43:40.323-0300][gc,marking   ] GC(8) Concurrent Clear Claimed Marks
[2021-09-09T21:43:40.323-0300][gc,marking   ] GC(8) Concurrent Clear Claimed Marks 0.086ms
[2021-09-09T21:43:40.323-0300][gc,marking   ] GC(8) Concurrent Scan Root Regions
[2021-09-09T21:43:40.332-0300][gc,marking   ] GC(8) Concurrent Scan Root Regions 8.434ms
[2021-09-09T21:43:40.332-0300][gc,marking   ] GC(8) Concurrent Mark (6.425s)
[2021-09-09T21:43:40.332-0300][gc,marking   ] GC(8) Concurrent Mark From Roots
[2021-09-09T21:43:40.332-0300][gc,task      ] GC(8) Using 1 workers of 1 for marking
[2021-09-09T21:43:40.357-0300][gc,marking   ] GC(8) Concurrent Mark From Roots 24.989ms
[2021-09-09T21:43:40.357-0300][gc,marking   ] GC(8) Concurrent Preclean
[2021-09-09T21:43:40.357-0300][gc,marking   ] GC(8) Concurrent Preclean 0.099ms
[2021-09-09T21:43:40.357-0300][gc,marking   ] GC(8) Concurrent Mark (6.425s, 6.450s) 25.198ms
[2021-09-09T21:43:40.357-0300][gc,start     ] GC(8) Pause Remark
[2021-09-09T21:43:40.359-0300][gc           ] GC(8) Pause Remark 172M->172M(1024M) 2.415ms
[2021-09-09T21:43:40.359-0300][gc,cpu       ] GC(8) User=0.01s Sys=0.00s Real=0.00s
[2021-09-09T21:43:40.360-0300][gc,marking   ] GC(8) Concurrent Rebuild Remembered Sets
[2021-09-09T21:43:40.379-0300][gc,marking   ] GC(8) Concurrent Rebuild Remembered Sets 19.044ms
[2021-09-09T21:43:40.379-0300][gc,start     ] GC(8) Pause Cleanup
[2021-09-09T21:43:40.379-0300][gc           ] GC(8) Pause Cleanup 173M->173M(1024M) 0.219ms
[2021-09-09T21:43:40.379-0300][gc,cpu       ] GC(8) User=0.00s Sys=0.00s Real=0.00s
[2021-09-09T21:43:40.383-0300][gc,marking   ] GC(8) Concurrent Cleanup for Next Mark
[2021-09-09T21:43:40.394-0300][gc,marking   ] GC(8) Concurrent Cleanup for Next Mark 10.310ms
[2021-09-09T21:43:40.394-0300][gc           ] GC(8) Concurrent Cycle 70.787ms
[2021-09-09T21:43:40.987-0300][gc,start     ] GC(9) Pause Young (Concurrent Start) (G1 Evacuation Pause)
[2021-09-09T21:43:40.987-0300][gc,task      ] GC(9) Using 4 workers of 4 for evacuation
[2021-09-09T21:43:41.003-0300][gc,phases    ] GC(9)   Pre Evacuate Collection Set: 0.2ms
[2021-09-09T21:43:41.003-0300][gc,phases    ] GC(9)   Evacuate Collection Set: 15.0ms
[2021-09-09T21:43:41.003-0300][gc,phases    ] GC(9)   Post Evacuate Collection Set: 0.4ms
[2021-09-09T21:43:41.003-0300][gc,phases    ] GC(9)   Other: 0.3ms
[2021-09-09T21:43:41.003-0300][gc,heap      ] GC(9) Eden regions: 46->0(48)
[2021-09-09T21:43:41.003-0300][gc,heap      ] GC(9) Survivor regions: 5->3(7)
[2021-09-09T21:43:41.003-0300][gc,heap      ] GC(9) Old regions: 32->35
[2021-09-09T21:43:41.003-0300][gc,heap      ] GC(9) Archive regions: 2->2
[2021-09-09T21:43:41.003-0300][gc,heap      ] GC(9) Humongous regions: 134->133
[2021-09-09T21:43:41.003-0300][gc,metaspace ] GC(9) Metaspace: 40924K->40924K(1087488K)
[2021-09-09T21:43:41.003-0300][gc           ] GC(9) Pause Young (Concurrent Start) (G1 Evacuation Pause) 216M->171M(1024M) 16.040ms
[2021-09-09T21:43:41.003-0300][gc,cpu       ] GC(9) User=0.04s Sys=0.00s Real=0.02s
[2021-09-09T21:43:41.003-0300][gc           ] GC(10) Concurrent Cycle
[2021-09-09T21:43:41.003-0300][gc,marking   ] GC(10) Concurrent Clear Claimed Marks
[2021-09-09T21:43:41.003-0300][gc,marking   ] GC(10) Concurrent Clear Claimed Marks 0.100ms
[2021-09-09T21:43:41.003-0300][gc,marking   ] GC(10) Concurrent Scan Root Regions
[2021-09-09T21:43:41.012-0300][gc,marking   ] GC(10) Concurrent Scan Root Regions 9.448ms
[2021-09-09T21:43:41.012-0300][gc,marking   ] GC(10) Concurrent Mark (7.106s)
[2021-09-09T21:43:41.012-0300][gc,marking   ] GC(10) Concurrent Mark From Roots
[2021-09-09T21:43:41.012-0300][gc,task      ] GC(10) Using 1 workers of 1 for marking
[2021-09-09T21:43:41.066-0300][gc,marking   ] GC(10) Concurrent Mark From Roots 53.180ms
[2021-09-09T21:43:41.066-0300][gc,marking   ] GC(10) Concurrent Preclean
[2021-09-09T21:43:41.066-0300][gc,marking   ] GC(10) Concurrent Preclean 0.215ms
[2021-09-09T21:43:41.066-0300][gc,marking   ] GC(10) Concurrent Mark (7.106s, 7.159s) 53.499ms
[2021-09-09T21:43:41.066-0300][gc,start     ] GC(10) Pause Remark
[2021-09-09T21:43:41.070-0300][gc           ] GC(10) Pause Remark 182M->182M(1024M) 3.601ms
[2021-09-09T21:43:41.070-0300][gc,cpu       ] GC(10) User=0.01s Sys=0.00s Real=0.01s
[2021-09-09T21:43:41.080-0300][gc,marking   ] GC(10) Concurrent Rebuild Remembered Sets
[2021-09-09T21:43:41.116-0300][gc,marking   ] GC(10) Concurrent Rebuild Remembered Sets 35.440ms
[2021-09-09T21:43:41.116-0300][gc,start     ] GC(10) Pause Cleanup
[2021-09-09T21:43:41.116-0300][gc           ] GC(10) Pause Cleanup 187M->187M(1024M) 0.219ms
[2021-09-09T21:43:41.116-0300][gc,cpu       ] GC(10) User=0.00s Sys=0.00s Real=0.00s
[2021-09-09T21:43:41.126-0300][gc,marking   ] GC(10) Concurrent Cleanup for Next Mark
[2021-09-09T21:43:41.129-0300][gc,marking   ] GC(10) Concurrent Cleanup for Next Mark 2.656ms
[2021-09-09T21:43:41.129-0300][gc           ] GC(10) Concurrent Cycle 126.309ms
[2021-09-09T21:43:41.298-0300][gc,start     ] GC(11) Pause Young (Normal) (G1 Evacuation Pause)
[2021-09-09T21:43:41.298-0300][gc,task      ] GC(11) Using 4 workers of 4 for evacuation
[2021-09-09T21:43:41.306-0300][gc,phases    ] GC(11)   Pre Evacuate Collection Set: 0.1ms
[2021-09-09T21:43:41.306-0300][gc,phases    ] GC(11)   Evacuate Collection Set: 6.8ms
[2021-09-09T21:43:41.306-0300][gc,phases    ] GC(11)   Post Evacuate Collection Set: 0.4ms
[2021-09-09T21:43:41.306-0300][gc,phases    ] GC(11)   Other: 0.3ms
[2021-09-09T21:43:41.306-0300][gc,heap      ] GC(11) Eden regions: 48->0(47)
[2021-09-09T21:43:41.306-0300][gc,heap      ] GC(11) Survivor regions: 3->4(7)
[2021-09-09T21:43:41.306-0300][gc,heap      ] GC(11) Old regions: 35->35
[2021-09-09T21:43:41.306-0300][gc,heap      ] GC(11) Archive regions: 2->2
[2021-09-09T21:43:41.306-0300][gc,heap      ] GC(11) Humongous regions: 133->133
[2021-09-09T21:43:41.306-0300][gc,metaspace ] GC(11) Metaspace: 43806K->43806K(1089536K)
[2021-09-09T21:43:41.306-0300][gc           ] GC(11) Pause Young (Normal) (G1 Evacuation Pause) 219M->172M(1024M) 7.792ms
[2021-09-09T21:43:41.306-0300][gc,cpu       ] GC(11) User=0.02s Sys=0.00s Real=0.01s
[2021-09-09T21:43:41.591-0300][gc,start     ] GC(12) Pause Young (Normal) (G1 Evacuation Pause)
[2021-09-09T21:43:41.592-0300][gc,task      ] GC(12) Using 4 workers of 4 for evacuation
[2021-09-09T21:43:41.599-0300][gc,phases    ] GC(12)   Pre Evacuate Collection Set: 0.1ms
[2021-09-09T21:43:41.599-0300][gc,phases    ] GC(12)   Evacuate Collection Set: 6.3ms
[2021-09-09T21:43:41.599-0300][gc,phases    ] GC(12)   Post Evacuate Collection Set: 0.4ms
[2021-09-09T21:43:41.599-0300][gc,phases    ] GC(12)   Other: 0.3ms
[2021-09-09T21:43:41.599-0300][gc,heap      ] GC(12) Eden regions: 47->0(46)
[2021-09-09T21:43:41.599-0300][gc,heap      ] GC(12) Survivor regions: 4->5(7)
[2021-09-09T21:43:41.599-0300][gc,heap      ] GC(12) Old regions: 35->35
[2021-09-09T21:43:41.599-0300][gc,heap      ] GC(12) Archive regions: 2->2
[2021-09-09T21:43:41.599-0300][gc,heap      ] GC(12) Humongous regions: 133->133
[2021-09-09T21:43:41.599-0300][gc,metaspace ] GC(12) Metaspace: 45813K->45813K(1091584K)
[2021-09-09T21:43:41.599-0300][gc           ] GC(12) Pause Young (Normal) (G1 Evacuation Pause) 219M->172M(1024M) 7.277ms
[2021-09-09T21:43:41.599-0300][gc,cpu       ] GC(12) User=0.02s Sys=0.00s Real=0.00s
[2021-09-09T21:43:42.048-0300][gc,start     ] GC(13) Pause Young (Normal) (G1 Evacuation Pause)
[2021-09-09T21:43:42.048-0300][gc,task      ] GC(13) Using 4 workers of 4 for evacuation
[2021-09-09T21:43:42.058-0300][gc,phases    ] GC(13)   Pre Evacuate Collection Set: 0.1ms
[2021-09-09T21:43:42.058-0300][gc,phases    ] GC(13)   Evacuate Collection Set: 9.0ms
[2021-09-09T21:43:42.058-0300][gc,phases    ] GC(13)   Post Evacuate Collection Set: 0.4ms
[2021-09-09T21:43:42.058-0300][gc,phases    ] GC(13)   Other: 0.3ms
[2021-09-09T21:43:42.058-0300][gc,heap      ] GC(13) Eden regions: 46->0(45)
[2021-09-09T21:43:42.058-0300][gc,heap      ] GC(13) Survivor regions: 5->6(7)
[2021-09-09T21:43:42.058-0300][gc,heap      ] GC(13) Old regions: 35->36
[2021-09-09T21:43:42.058-0300][gc,heap      ] GC(13) Archive regions: 2->2
[2021-09-09T21:43:42.058-0300][gc,heap      ] GC(13) Humongous regions: 133->133
[2021-09-09T21:43:42.058-0300][gc,metaspace ] GC(13) Metaspace: 49076K->49076K(1093632K)
[2021-09-09T21:43:42.058-0300][gc           ] GC(13) Pause Young (Normal) (G1 Evacuation Pause) 218M->175M(1024M) 9.872ms
[2021-09-09T21:43:42.058-0300][gc,cpu       ] GC(13) User=0.03s Sys=0.00s Real=0.01s
[2021-09-09T21:43:42.308-0300][gc,start     ] GC(14) Pause Young (Normal) (G1 Evacuation Pause)
[2021-09-09T21:43:42.308-0300][gc,task      ] GC(14) Using 4 workers of 4 for evacuation
[2021-09-09T21:43:42.321-0300][gc,phases    ] GC(14)   Pre Evacuate Collection Set: 0.1ms
[2021-09-09T21:43:42.321-0300][gc,phases    ] GC(14)   Evacuate Collection Set: 12.1ms
[2021-09-09T21:43:42.321-0300][gc,phases    ] GC(14)   Post Evacuate Collection Set: 0.7ms
[2021-09-09T21:43:42.321-0300][gc,phases    ] GC(14)   Other: 0.3ms
[2021-09-09T21:43:42.321-0300][gc,heap      ] GC(14) Eden regions: 45->0(45)
[2021-09-09T21:43:42.321-0300][gc,heap      ] GC(14) Survivor regions: 6->6(7)
[2021-09-09T21:43:42.321-0300][gc,heap      ] GC(14) Old regions: 36->39
[2021-09-09T21:43:42.321-0300][gc,heap      ] GC(14) Archive regions: 2->2
[2021-09-09T21:43:42.321-0300][gc,heap      ] GC(14) Humongous regions: 133->133
[2021-09-09T21:43:42.321-0300][gc,metaspace ] GC(14) Metaspace: 50716K->50716K(1095680K)
[2021-09-09T21:43:42.321-0300][gc           ] GC(14) Pause Young (Normal) (G1 Evacuation Pause) 220M->178M(1024M) 13.289ms
[2021-09-09T21:43:42.321-0300][gc,cpu       ] GC(14) User=0.04s Sys=0.01s Real=0.02s
[2021-09-09T21:43:42.715-0300][gc,start     ] GC(15) Pause Young (Normal) (G1 Evacuation Pause)
[2021-09-09T21:43:42.715-0300][gc,task      ] GC(15) Using 4 workers of 4 for evacuation
[2021-09-09T21:43:42.727-0300][gc,phases    ] GC(15)   Pre Evacuate Collection Set: 0.1ms
[2021-09-09T21:43:42.727-0300][gc,phases    ] GC(15)   Evacuate Collection Set: 11.5ms
[2021-09-09T21:43:42.727-0300][gc,phases    ] GC(15)   Post Evacuate Collection Set: 0.6ms
[2021-09-09T21:43:42.727-0300][gc,phases    ] GC(15)   Other: 0.3ms
[2021-09-09T21:43:42.727-0300][gc,heap      ] GC(15) Eden regions: 45->0(45)
[2021-09-09T21:43:42.727-0300][gc,heap      ] GC(15) Survivor regions: 6->6(7)
[2021-09-09T21:43:42.727-0300][gc,heap      ] GC(15) Old regions: 39->42
[2021-09-09T21:43:42.727-0300][gc,heap      ] GC(15) Archive regions: 2->2
[2021-09-09T21:43:42.727-0300][gc,heap      ] GC(15) Humongous regions: 133->133
[2021-09-09T21:43:42.727-0300][gc,metaspace ] GC(15) Metaspace: 52847K->52847K(1097728K)
[2021-09-09T21:43:42.727-0300][gc           ] GC(15) Pause Young (Normal) (G1 Evacuation Pause) 223M->180M(1024M) 12.604ms
[2021-09-09T21:43:42.727-0300][gc,cpu       ] GC(15) User=0.04s Sys=0.01s Real=0.01s
[2021-09-09T21:43:43.244-0300][gc,start     ] GC(16) Pause Young (Normal) (G1 Evacuation Pause)
[2021-09-09T21:43:43.244-0300][gc,task      ] GC(16) Using 4 workers of 4 for evacuation
[2021-09-09T21:43:43.255-0300][gc,phases    ] GC(16)   Pre Evacuate Collection Set: 0.1ms
[2021-09-09T21:43:43.255-0300][gc,phases    ] GC(16)   Evacuate Collection Set: 10.6ms
[2021-09-09T21:43:43.255-0300][gc,phases    ] GC(16)   Post Evacuate Collection Set: 0.7ms
[2021-09-09T21:43:43.255-0300][gc,phases    ] GC(16)   Other: 0.3ms
[2021-09-09T21:43:43.255-0300][gc,heap      ] GC(16) Eden regions: 45->0(47)
[2021-09-09T21:43:43.255-0300][gc,heap      ] GC(16) Survivor regions: 6->4(7)
[2021-09-09T21:43:43.255-0300][gc,heap      ] GC(16) Old regions: 42->45
[2021-09-09T21:43:43.255-0300][gc,heap      ] GC(16) Archive regions: 2->2
[2021-09-09T21:43:43.255-0300][gc,heap      ] GC(16) Humongous regions: 175->145
[2021-09-09T21:43:43.256-0300][gc,metaspace ] GC(16) Metaspace: 55334K->55334K(1099776K)
[2021-09-09T21:43:43.256-0300][gc           ] GC(16) Pause Young (Normal) (G1 Evacuation Pause) 267M->193M(1024M) 11.930ms
[2021-09-09T21:43:43.256-0300][gc,cpu       ] GC(16) User=0.04s Sys=0.00s Real=0.01s
[2021-09-09T21:43:43.523-0300][gc,start     ] GC(17) Pause Young (Concurrent Start) (G1 Humongous Allocation)
[2021-09-09T21:43:43.523-0300][gc,task      ] GC(17) Using 4 workers of 4 for evacuation
[2021-09-09T21:43:43.536-0300][gc,phases    ] GC(17)   Pre Evacuate Collection Set: 0.3ms
[2021-09-09T21:43:43.536-0300][gc,phases    ] GC(17)   Evacuate Collection Set: 11.2ms
[2021-09-09T21:43:43.536-0300][gc,phases    ] GC(17)   Post Evacuate Collection Set: 0.9ms
[2021-09-09T21:43:43.536-0300][gc,phases    ] GC(17)   Other: 0.3ms
[2021-09-09T21:43:43.536-0300][gc,heap      ] GC(17) Eden regions: 24->0(52)
[2021-09-09T21:43:43.536-0300][gc,heap      ] GC(17) Survivor regions: 4->5(7)
[2021-09-09T21:43:43.536-0300][gc,heap      ] GC(17) Old regions: 45->45
[2021-09-09T21:43:43.536-0300][gc,heap      ] GC(17) Archive regions: 2->2
[2021-09-09T21:43:43.536-0300][gc,heap      ] GC(17) Humongous regions: 307->133
[2021-09-09T21:43:43.536-0300][gc,metaspace ] GC(17) Metaspace: 56591K->56591K(1099776K)
[2021-09-09T21:43:43.536-0300][gc           ] GC(17) Pause Young (Concurrent Start) (G1 Humongous Allocation) 378M->182M(1024M) 12.949ms
[2021-09-09T21:43:43.536-0300][gc,cpu       ] GC(17) User=0.03s Sys=0.00s Real=0.01s
[2021-09-09T21:43:43.536-0300][gc           ] GC(18) Concurrent Cycle
[2021-09-09T21:43:43.536-0300][gc,marking   ] GC(18) Concurrent Clear Claimed Marks
[2021-09-09T21:43:43.536-0300][gc,marking   ] GC(18) Concurrent Clear Claimed Marks 0.208ms
[2021-09-09T21:43:43.536-0300][gc,marking   ] GC(18) Concurrent Scan Root Regions
[2021-09-09T21:43:43.543-0300][gc,marking   ] GC(18) Concurrent Scan Root Regions 6.585ms
[2021-09-09T21:43:43.543-0300][gc,marking   ] GC(18) Concurrent Mark (9.636s)
[2021-09-09T21:43:43.543-0300][gc,marking   ] GC(18) Concurrent Mark From Roots
[2021-09-09T21:43:43.543-0300][gc,task      ] GC(18) Using 1 workers of 1 for marking
[2021-09-09T21:43:43.744-0300][gc,marking   ] GC(18) Concurrent Mark From Roots 201.522ms
[2021-09-09T21:43:43.744-0300][gc,marking   ] GC(18) Concurrent Preclean
[2021-09-09T21:43:43.745-0300][gc,marking   ] GC(18) Concurrent Preclean 0.176ms
[2021-09-09T21:43:43.745-0300][gc,marking   ] GC(18) Concurrent Mark (9.636s, 9.838s) 201.796ms
[2021-09-09T21:43:43.745-0300][gc,start     ] GC(18) Pause Remark
[2021-09-09T21:43:43.756-0300][gc           ] GC(18) Pause Remark 242M->242M(1024M) 11.263ms
[2021-09-09T21:43:43.756-0300][gc,cpu       ] GC(18) User=0.04s Sys=0.00s Real=0.01s
[2021-09-09T21:43:43.767-0300][gc,marking   ] GC(18) Concurrent Rebuild Remembered Sets
[2021-09-09T21:43:43.865-0300][gc,marking   ] GC(18) Concurrent Rebuild Remembered Sets 98.178ms
[2021-09-09T21:43:43.865-0300][gc,start     ] GC(18) Pause Cleanup
[2021-09-09T21:43:43.865-0300][gc           ] GC(18) Pause Cleanup 247M->247M(1024M) 0.252ms
[2021-09-09T21:43:43.865-0300][gc,cpu       ] GC(18) User=0.00s Sys=0.00s Real=0.00s
[2021-09-09T21:43:43.876-0300][gc,marking   ] GC(18) Concurrent Cleanup for Next Mark
[2021-09-09T21:43:43.878-0300][gc,marking   ] GC(18) Concurrent Cleanup for Next Mark 2.602ms
[2021-09-09T21:43:43.879-0300][gc           ] GC(18) Concurrent Cycle 343.526ms
[2021-09-09T21:43:44.200-0300][gc,start     ] GC(19) Pause Young (Normal) (G1 Evacuation Pause)
[2021-09-09T21:43:44.200-0300][gc,task      ] GC(19) Using 4 workers of 4 for evacuation
[2021-09-09T21:43:44.213-0300][gc,phases    ] GC(19)   Pre Evacuate Collection Set: 0.1ms
[2021-09-09T21:43:44.213-0300][gc,phases    ] GC(19)   Evacuate Collection Set: 11.2ms
[2021-09-09T21:43:44.213-0300][gc,phases    ] GC(19)   Post Evacuate Collection Set: 0.6ms
[2021-09-09T21:43:44.213-0300][gc,phases    ] GC(19)   Other: 0.5ms
[2021-09-09T21:43:44.213-0300][gc,heap      ] GC(19) Eden regions: 46->0(60)
[2021-09-09T21:43:44.213-0300][gc,heap      ] GC(19) Survivor regions: 5->4(7)
[2021-09-09T21:43:44.213-0300][gc,heap      ] GC(19) Old regions: 45->47
[2021-09-09T21:43:44.213-0300][gc,heap      ] GC(19) Archive regions: 2->2
[2021-09-09T21:43:44.213-0300][gc,heap      ] GC(19) Humongous regions: 181->133
[2021-09-09T21:43:44.213-0300][gc,metaspace ] GC(19) Metaspace: 60807K->60807K(1103872K)
[2021-09-09T21:43:44.213-0300][gc           ] GC(19) Pause Young (Normal) (G1 Evacuation Pause) 276M->183M(1024M) 12.677ms
[2021-09-09T21:43:44.213-0300][gc,cpu       ] GC(19) User=0.04s Sys=0.00s Real=0.01s
[2021-09-09T21:43:45.017-0300][gc,start     ] GC(20) Pause Young (Normal) (G1 Evacuation Pause)
[2021-09-09T21:43:45.017-0300][gc,task      ] GC(20) Using 4 workers of 4 for evacuation
[2021-09-09T21:43:45.031-0300][gc,phases    ] GC(20)   Pre Evacuate Collection Set: 0.1ms
[2021-09-09T21:43:45.031-0300][gc,phases    ] GC(20)   Evacuate Collection Set: 13.3ms
[2021-09-09T21:43:45.031-0300][gc,phases    ] GC(20)   Post Evacuate Collection Set: 0.8ms
[2021-09-09T21:43:45.031-0300][gc,phases    ] GC(20)   Other: 0.4ms
[2021-09-09T21:43:45.031-0300][gc,heap      ] GC(20) Eden regions: 60->0(61)
[2021-09-09T21:43:45.031-0300][gc,heap      ] GC(20) Survivor regions: 4->6(8)
[2021-09-09T21:43:45.031-0300][gc,heap      ] GC(20) Old regions: 47->47
[2021-09-09T21:43:45.031-0300][gc,heap      ] GC(20) Archive regions: 2->2
[2021-09-09T21:43:45.032-0300][gc,heap      ] GC(20) Humongous regions: 133->133
[2021-09-09T21:43:45.032-0300][gc,metaspace ] GC(20) Metaspace: 64443K->64443K(1107968K)
[2021-09-09T21:43:45.032-0300][gc           ] GC(20) Pause Young (Normal) (G1 Evacuation Pause) 243M->186M(1024M) 14.719ms
[2021-09-09T21:43:45.032-0300][gc,cpu       ] GC(20) User=0.04s Sys=0.00s Real=0.02s
[2021-09-09T21:43:45.528-0300][gc,start     ] GC(21) Pause Young (Normal) (G1 Evacuation Pause)
[2021-09-09T21:43:45.528-0300][gc,task      ] GC(21) Using 4 workers of 4 for evacuation
[2021-09-09T21:43:45.541-0300][gc,phases    ] GC(21)   Pre Evacuate Collection Set: 0.1ms
[2021-09-09T21:43:45.541-0300][gc,phases    ] GC(21)   Evacuate Collection Set: 12.7ms
[2021-09-09T21:43:45.541-0300][gc,phases    ] GC(21)   Post Evacuate Collection Set: 0.6ms
[2021-09-09T21:43:45.541-0300][gc,phases    ] GC(21)   Other: 0.3ms
[2021-09-09T21:43:45.541-0300][gc,heap      ] GC(21) Eden regions: 61->0(62)
[2021-09-09T21:43:45.541-0300][gc,heap      ] GC(21) Survivor regions: 6->6(9)
[2021-09-09T21:43:45.541-0300][gc,heap      ] GC(21) Old regions: 47->49
[2021-09-09T21:43:45.541-0300][gc,heap      ] GC(21) Archive regions: 2->2
[2021-09-09T21:43:45.542-0300][gc,heap      ] GC(21) Humongous regions: 133->133
[2021-09-09T21:43:45.542-0300][gc,metaspace ] GC(21) Metaspace: 65856K->65856K(1107968K)
[2021-09-09T21:43:45.542-0300][gc           ] GC(21) Pause Young (Normal) (G1 Evacuation Pause) 247M->187M(1024M) 13.913ms
[2021-09-09T21:43:45.542-0300][gc,cpu       ] GC(21) User=0.04s Sys=0.00s Real=0.02s
[2021-09-09T21:43:46.114-0300][gc,start     ] GC(22) Pause Young (Normal) (G1 Evacuation Pause)
[2021-09-09T21:43:46.114-0300][gc,task      ] GC(22) Using 4 workers of 4 for evacuation
[2021-09-09T21:43:46.124-0300][gc,phases    ] GC(22)   Pre Evacuate Collection Set: 0.1ms
[2021-09-09T21:43:46.124-0300][gc,phases    ] GC(22)   Evacuate Collection Set: 9.2ms
[2021-09-09T21:43:46.124-0300][gc,phases    ] GC(22)   Post Evacuate Collection Set: 0.6ms
[2021-09-09T21:43:46.124-0300][gc,phases    ] GC(22)   Other: 0.5ms
[2021-09-09T21:43:46.124-0300][gc,heap      ] GC(22) Eden regions: 62->0(72)
[2021-09-09T21:43:46.124-0300][gc,heap      ] GC(22) Survivor regions: 6->6(9)
[2021-09-09T21:43:46.124-0300][gc,heap      ] GC(22) Old regions: 49->50
[2021-09-09T21:43:46.124-0300][gc,heap      ] GC(22) Archive regions: 2->2
[2021-09-09T21:43:46.124-0300][gc,heap      ] GC(22) Humongous regions: 133->133
[2021-09-09T21:43:46.124-0300][gc,metaspace ] GC(22) Metaspace: 67857K->67857K(1110016K)
[2021-09-09T21:43:46.124-0300][gc           ] GC(22) Pause Young (Normal) (G1 Evacuation Pause) 249M->189M(1024M) 10.580ms
[2021-09-09T21:43:46.124-0300][gc,cpu       ] GC(22) User=0.03s Sys=0.01s Real=0.01s
[2021-09-09T21:44:19.822-0300][gc,start     ] GC(23) Pause Young (Normal) (G1 Evacuation Pause)
[2021-09-09T21:44:19.824-0300][gc,task      ] GC(23) Using 4 workers of 4 for evacuation
[2021-09-09T21:44:19.847-0300][gc,mmu       ] GC(23) MMU target violated: 21.0ms (20.0ms/21.0ms)
[2021-09-09T21:44:19.847-0300][gc,phases    ] GC(23)   Pre Evacuate Collection Set: 0.0ms
[2021-09-09T21:44:19.847-0300][gc,phases    ] GC(23)   Evacuate Collection Set: 21.9ms
[2021-09-09T21:44:19.847-0300][gc,phases    ] GC(23)   Post Evacuate Collection Set: 0.8ms
[2021-09-09T21:44:19.847-0300][gc,phases    ] GC(23)   Other: 2.2ms
[2021-09-09T21:44:19.847-0300][gc,heap      ] GC(23) Eden regions: 72->0(71)
[2021-09-09T21:44:19.847-0300][gc,heap      ] GC(23) Survivor regions: 6->8(10)
[2021-09-09T21:44:19.847-0300][gc,heap      ] GC(23) Old regions: 50->53
[2021-09-09T21:44:19.847-0300][gc,heap      ] GC(23) Archive regions: 2->2
[2021-09-09T21:44:19.847-0300][gc,heap      ] GC(23) Humongous regions: 133->133
[2021-09-09T21:44:19.847-0300][gc,metaspace ] GC(23) Metaspace: 73085K->73085K(1114112K)
[2021-09-09T21:44:19.847-0300][gc           ] GC(23) Pause Young (Normal) (G1 Evacuation Pause) 261M->193M(1024M) 25.082ms
[2021-09-09T21:44:19.847-0300][gc,cpu       ] GC(23) User=0.06s Sys=0.01s Real=0.02s
[2021-09-09T21:44:43.106-0300][gc,start     ] GC(24) Pause Young (Normal) (G1 Evacuation Pause)
[2021-09-09T21:44:43.106-0300][gc,task      ] GC(24) Using 4 workers of 4 for evacuation
[2021-09-09T21:44:43.121-0300][gc,phases    ] GC(24)   Pre Evacuate Collection Set: 0.0ms
[2021-09-09T21:44:43.121-0300][gc,phases    ] GC(24)   Evacuate Collection Set: 13.4ms
[2021-09-09T21:44:43.121-0300][gc,phases    ] GC(24)   Post Evacuate Collection Set: 1.6ms
[2021-09-09T21:44:43.121-0300][gc,phases    ] GC(24)   Other: 0.3ms
[2021-09-09T21:44:43.121-0300][gc,heap      ] GC(24) Eden regions: 71->0(62)
[2021-09-09T21:44:43.121-0300][gc,heap      ] GC(24) Survivor regions: 8->7(10)
[2021-09-09T21:44:43.121-0300][gc,heap      ] GC(24) Old regions: 53->56
[2021-09-09T21:44:43.121-0300][gc,heap      ] GC(24) Archive regions: 2->2
[2021-09-09T21:44:43.121-0300][gc,heap      ] GC(24) Humongous regions: 133->133
[2021-09-09T21:44:43.121-0300][gc,metaspace ] GC(24) Metaspace: 75593K->75593K(1118208K)
[2021-09-09T21:44:43.121-0300][gc           ] GC(24) Pause Young (Normal) (G1 Evacuation Pause) 264M->195M(1024M) 15.543ms
[2021-09-09T21:44:43.121-0300][gc,cpu       ] GC(24) User=0.06s Sys=0.00s Real=0.02s
[2021-09-09T21:45:41.811-0300][gc,start     ] GC(25) Pause Young (Normal) (G1 Evacuation Pause)
[2021-09-09T21:45:41.811-0300][gc,task      ] GC(25) Using 4 workers of 4 for evacuation
[2021-09-09T21:45:41.824-0300][gc,phases    ] GC(25)   Pre Evacuate Collection Set: 0.0ms
[2021-09-09T21:45:41.824-0300][gc,phases    ] GC(25)   Evacuate Collection Set: 12.2ms
[2021-09-09T21:45:41.824-0300][gc,phases    ] GC(25)   Post Evacuate Collection Set: 0.6ms
[2021-09-09T21:45:41.824-0300][gc,phases    ] GC(25)   Other: 0.6ms
[2021-09-09T21:45:41.824-0300][gc,heap      ] GC(25) Eden regions: 44->0(75)
[2021-09-09T21:45:41.824-0300][gc,heap      ] GC(25) Survivor regions: 7->3(7)
[2021-09-09T21:45:41.824-0300][gc,heap      ] GC(25) Old regions: 56->60
[2021-09-09T21:45:41.824-0300][gc,heap      ] GC(25) Archive regions: 2->2
[2021-09-09T21:45:41.824-0300][gc,heap      ] GC(25) Humongous regions: 133->133
[2021-09-09T21:45:41.824-0300][gc,metaspace ] GC(25) Metaspace: 76147K->76147K(1118208K)
[2021-09-09T21:45:41.825-0300][gc           ] GC(25) Pause Young (Normal) (G1 Evacuation Pause) 239M->196M(1024M) 13.553ms
[2021-09-09T21:45:41.825-0300][gc,cpu       ] GC(25) User=0.04s Sys=0.00s Real=0.01s
[2021-09-09T21:46:06.668-0300][gc,start     ] GC(26) Pause Young (Normal) (G1 Evacuation Pause)
[2021-09-09T21:46:06.668-0300][gc,task      ] GC(26) Using 4 workers of 4 for evacuation
[2021-09-09T21:46:06.680-0300][gc,phases    ] GC(26)   Pre Evacuate Collection Set: 0.1ms
[2021-09-09T21:46:06.680-0300][gc,phases    ] GC(26)   Evacuate Collection Set: 10.5ms
[2021-09-09T21:46:06.680-0300][gc,phases    ] GC(26)   Post Evacuate Collection Set: 0.6ms
[2021-09-09T21:46:06.680-0300][gc,phases    ] GC(26)   Other: 0.3ms
[2021-09-09T21:46:06.680-0300][gc,heap      ] GC(26) Eden regions: 54->0(78)
[2021-09-09T21:46:06.680-0300][gc,heap      ] GC(26) Survivor regions: 3->3(8)
[2021-09-09T21:46:06.680-0300][gc,heap      ] GC(26) Old regions: 60->60
[2021-09-09T21:46:06.680-0300][gc,heap      ] GC(26) Archive regions: 2->2
[2021-09-09T21:46:06.680-0300][gc,heap      ] GC(26) Humongous regions: 133->133
[2021-09-09T21:46:06.680-0300][gc,metaspace ] GC(26) Metaspace: 77389K->77389K(1118208K)
[2021-09-09T21:46:06.680-0300][gc           ] GC(26) Pause Young (Normal) (G1 Evacuation Pause) 250M->196M(1024M) 11.652ms
[2021-09-09T21:46:06.680-0300][gc,cpu       ] GC(26) User=0.04s Sys=0.00s Real=0.02s
[2021-09-09T21:46:06.743-0300][gc,heap,exit ] Heap
[2021-09-09T21:46:06.743-0300][gc,heap,exit ]  garbage-first heap   total 1048576K, used 208086K [0x00000007c0000000, 0x0000000800000000)
[2021-09-09T21:46:06.743-0300][gc,heap,exit ]   region size 1024K, 11 young (11264K), 3 survivors (3072K)
[2021-09-09T21:46:06.743-0300][gc,heap,exit ]  Metaspace       used 77425K, capacity 81752K, committed 81868K, reserved 1118208K
[2021-09-09T21:46:06.743-0300][gc,heap,exit ]   class space    used 10222K, capacity 12233K, committed 12288K, reserved 1048576K
