[2021-08-26T20:32:10.743-0300][gc,heap] Heap region size: 1M
[2021-08-26T20:32:10.756-0300][gc     ] Using G1
[2021-08-26T20:32:10.756-0300][gc,heap,coops] Heap address: 0x00000007c0000000, size: 1024 MB, Compressed Oops mode: Zero based, Oop shift amount: 3
[2021-08-26T20:32:10.756-0300][gc,cds       ] Mark closed archive regions in map: [0x00000007fff00000, 0x00000007fff76ff8]
[2021-08-26T20:32:10.756-0300][gc,cds       ] Mark open archive regions in map: [0x00000007ffe00000, 0x00000007ffe46ff8]
[2021-08-26T20:32:10.782-0300][gc           ] Periodic GC disabled
[2021-08-26T20:32:15.348-0300][gc,start     ] GC(0) Pause Young (Normal) (G1 Evacuation Pause)
[2021-08-26T20:32:15.349-0300][gc,task      ] GC(0) Using 4 workers of 4 for evacuation
[2021-08-26T20:32:15.372-0300][gc,mmu       ] GC(0) MMU target violated: 21.0ms (20.0ms/21.0ms)
[2021-08-26T20:32:15.372-0300][gc,phases    ] GC(0)   Pre Evacuate Collection Set: 0.0ms
[2021-08-26T20:32:15.372-0300][gc,phases    ] GC(0)   Evacuate Collection Set: 22.1ms
[2021-08-26T20:32:15.372-0300][gc,phases    ] GC(0)   Post Evacuate Collection Set: 0.8ms
[2021-08-26T20:32:15.372-0300][gc,phases    ] GC(0)   Other: 0.5ms
[2021-08-26T20:32:15.372-0300][gc,heap      ] GC(0) Eden regions: 51->0(44)
[2021-08-26T20:32:15.372-0300][gc,heap      ] GC(0) Survivor regions: 0->7(7)
[2021-08-26T20:32:15.372-0300][gc,heap      ] GC(0) Old regions: 0->19
[2021-08-26T20:32:15.372-0300][gc,heap      ] GC(0) Archive regions: 2->2
[2021-08-26T20:32:15.372-0300][gc,heap      ] GC(0) Humongous regions: 5->4
[2021-08-26T20:32:15.372-0300][gc,metaspace ] GC(0) Metaspace: 6032K->6032K(1056768K)
[2021-08-26T20:32:15.372-0300][gc           ] GC(0) Pause Young (Normal) (G1 Evacuation Pause) 56M->30M(1024M) 23.637ms
[2021-08-26T20:32:15.372-0300][gc,cpu       ] GC(0) User=0.04s Sys=0.02s Real=0.03s
[2021-08-26T20:32:16.491-0300][gc,start     ] GC(1) Pause Young (Normal) (G1 Evacuation Pause)
[2021-08-26T20:32:16.491-0300][gc,task      ] GC(1) Using 4 workers of 4 for evacuation
[2021-08-26T20:32:16.504-0300][gc,phases    ] GC(1)   Pre Evacuate Collection Set: 0.1ms
[2021-08-26T20:32:16.504-0300][gc,phases    ] GC(1)   Evacuate Collection Set: 12.4ms
[2021-08-26T20:32:16.504-0300][gc,phases    ] GC(1)   Post Evacuate Collection Set: 0.4ms
[2021-08-26T20:32:16.505-0300][gc,phases    ] GC(1)   Other: 0.4ms
[2021-08-26T20:32:16.505-0300][gc,heap      ] GC(1) Eden regions: 44->0(49)
[2021-08-26T20:32:16.505-0300][gc,heap      ] GC(1) Survivor regions: 7->2(7)
[2021-08-26T20:32:16.505-0300][gc,heap      ] GC(1) Old regions: 19->26
[2021-08-26T20:32:16.505-0300][gc,heap      ] GC(1) Archive regions: 2->2
[2021-08-26T20:32:16.505-0300][gc,heap      ] GC(1) Humongous regions: 4->4
[2021-08-26T20:32:16.505-0300][gc,metaspace ] GC(1) Metaspace: 14789K->14789K(1062912K)
[2021-08-26T20:32:16.505-0300][gc           ] GC(1) Pause Young (Normal) (G1 Evacuation Pause) 74M->31M(1024M) 13.513ms
[2021-08-26T20:32:16.505-0300][gc,cpu       ] GC(1) User=0.04s Sys=0.00s Real=0.01s
[2021-08-26T20:32:17.438-0300][gc,start     ] GC(2) Pause Young (Concurrent Start) (Metadata GC Threshold)
[2021-08-26T20:32:17.438-0300][gc,task      ] GC(2) Using 4 workers of 4 for evacuation
[2021-08-26T20:32:17.444-0300][gc,phases    ] GC(2)   Pre Evacuate Collection Set: 0.1ms
[2021-08-26T20:32:17.444-0300][gc,phases    ] GC(2)   Evacuate Collection Set: 4.5ms
[2021-08-26T20:32:17.444-0300][gc,phases    ] GC(2)   Post Evacuate Collection Set: 0.3ms
[2021-08-26T20:32:17.444-0300][gc,phases    ] GC(2)   Other: 0.4ms
[2021-08-26T20:32:17.444-0300][gc,heap      ] GC(2) Eden regions: 35->0(48)
[2021-08-26T20:32:17.444-0300][gc,heap      ] GC(2) Survivor regions: 2->3(7)
[2021-08-26T20:32:17.444-0300][gc,heap      ] GC(2) Old regions: 26->26
[2021-08-26T20:32:17.444-0300][gc,heap      ] GC(2) Archive regions: 2->2
[2021-08-26T20:32:17.444-0300][gc,heap      ] GC(2) Humongous regions: 4->4
[2021-08-26T20:32:17.444-0300][gc,metaspace ] GC(2) Metaspace: 20531K->20531K(1069056K)
[2021-08-26T20:32:17.444-0300][gc           ] GC(2) Pause Young (Concurrent Start) (Metadata GC Threshold) 65M->32M(1024M) 5.733ms
[2021-08-26T20:32:17.444-0300][gc,cpu       ] GC(2) User=0.01s Sys=0.00s Real=0.01s
[2021-08-26T20:32:17.444-0300][gc           ] GC(3) Concurrent Cycle
[2021-08-26T20:32:17.444-0300][gc,marking   ] GC(3) Concurrent Clear Claimed Marks
[2021-08-26T20:32:17.444-0300][gc,marking   ] GC(3) Concurrent Clear Claimed Marks 0.059ms
[2021-08-26T20:32:17.444-0300][gc,marking   ] GC(3) Concurrent Scan Root Regions
[2021-08-26T20:32:17.448-0300][gc,marking   ] GC(3) Concurrent Scan Root Regions 3.658ms
[2021-08-26T20:32:17.448-0300][gc,marking   ] GC(3) Concurrent Mark (6.720s)
[2021-08-26T20:32:17.448-0300][gc,marking   ] GC(3) Concurrent Mark From Roots
[2021-08-26T20:32:17.448-0300][gc,task      ] GC(3) Using 1 workers of 1 for marking
[2021-08-26T20:32:17.465-0300][gc,marking   ] GC(3) Concurrent Mark From Roots 16.375ms
[2021-08-26T20:32:17.465-0300][gc,marking   ] GC(3) Concurrent Preclean
[2021-08-26T20:32:17.465-0300][gc,marking   ] GC(3) Concurrent Preclean 0.155ms
[2021-08-26T20:32:17.465-0300][gc,marking   ] GC(3) Concurrent Mark (6.720s, 6.737s) 16.714ms
[2021-08-26T20:32:17.465-0300][gc,start     ] GC(3) Pause Remark
[2021-08-26T20:32:17.466-0300][gc           ] GC(3) Pause Remark 32M->32M(1024M) 1.379ms
[2021-08-26T20:32:17.466-0300][gc,cpu       ] GC(3) User=0.00s Sys=0.00s Real=0.00s
[2021-08-26T20:32:17.466-0300][gc,marking   ] GC(3) Concurrent Rebuild Remembered Sets
[2021-08-26T20:32:17.477-0300][gc,marking   ] GC(3) Concurrent Rebuild Remembered Sets 10.356ms
[2021-08-26T20:32:17.478-0300][gc,start     ] GC(3) Pause Cleanup
[2021-08-26T20:32:17.478-0300][gc           ] GC(3) Pause Cleanup 32M->32M(1024M) 0.191ms
[2021-08-26T20:32:17.478-0300][gc,cpu       ] GC(3) User=0.00s Sys=0.00s Real=0.00s
[2021-08-26T20:32:17.478-0300][gc,marking   ] GC(3) Concurrent Cleanup for Next Mark
[2021-08-26T20:32:17.491-0300][gc,marking   ] GC(3) Concurrent Cleanup for Next Mark 12.958ms
[2021-08-26T20:32:17.491-0300][gc           ] GC(3) Concurrent Cycle 46.606ms
[2021-08-26T20:32:19.509-0300][gc,start     ] GC(4) Pause Young (Normal) (G1 Evacuation Pause)
[2021-08-26T20:32:19.509-0300][gc,task      ] GC(4) Using 4 workers of 4 for evacuation
[2021-08-26T20:32:19.518-0300][gc,phases    ] GC(4)   Pre Evacuate Collection Set: 0.1ms
[2021-08-26T20:32:19.518-0300][gc,phases    ] GC(4)   Evacuate Collection Set: 5.5ms
[2021-08-26T20:32:19.518-0300][gc,phases    ] GC(4)   Post Evacuate Collection Set: 3.1ms
[2021-08-26T20:32:19.518-0300][gc,phases    ] GC(4)   Other: 0.3ms
[2021-08-26T20:32:19.518-0300][gc,heap      ] GC(4) Eden regions: 48->0(47)
[2021-08-26T20:32:19.518-0300][gc,heap      ] GC(4) Survivor regions: 3->4(7)
[2021-08-26T20:32:19.518-0300][gc,heap      ] GC(4) Old regions: 26->26
[2021-08-26T20:32:19.518-0300][gc,heap      ] GC(4) Archive regions: 2->2
[2021-08-26T20:32:19.518-0300][gc,heap      ] GC(4) Humongous regions: 4->4
[2021-08-26T20:32:19.519-0300][gc,metaspace ] GC(4) Metaspace: 28881K->28881K(1075200K)
[2021-08-26T20:32:19.519-0300][gc           ] GC(4) Pause Young (Normal) (G1 Evacuation Pause) 80M->34M(1024M) 9.802ms
[2021-08-26T20:32:19.519-0300][gc,cpu       ] GC(4) User=0.03s Sys=0.00s Real=0.01s
[2021-08-26T20:32:22.196-0300][gc,start     ] GC(5) Pause Young (Normal) (G1 Evacuation Pause)
[2021-08-26T20:32:22.196-0300][gc,task      ] GC(5) Using 4 workers of 4 for evacuation
[2021-08-26T20:32:22.205-0300][gc,phases    ] GC(5)   Pre Evacuate Collection Set: 0.1ms
[2021-08-26T20:32:22.205-0300][gc,phases    ] GC(5)   Evacuate Collection Set: 7.7ms
[2021-08-26T20:32:22.205-0300][gc,phases    ] GC(5)   Post Evacuate Collection Set: 0.8ms
[2021-08-26T20:32:22.205-0300][gc,phases    ] GC(5)   Other: 0.5ms
[2021-08-26T20:32:22.205-0300][gc,heap      ] GC(5) Eden regions: 47->0(46)
[2021-08-26T20:32:22.205-0300][gc,heap      ] GC(5) Survivor regions: 4->5(7)
[2021-08-26T20:32:22.205-0300][gc,heap      ] GC(5) Old regions: 26->27
[2021-08-26T20:32:22.206-0300][gc,heap      ] GC(5) Archive regions: 2->2
[2021-08-26T20:32:22.206-0300][gc,heap      ] GC(5) Humongous regions: 4->4
[2021-08-26T20:32:22.206-0300][gc,metaspace ] GC(5) Metaspace: 29882K->29882K(1077248K)
[2021-08-26T20:32:22.206-0300][gc           ] GC(5) Pause Young (Normal) (G1 Evacuation Pause) 81M->36M(1024M) 9.719ms
[2021-08-26T20:32:22.206-0300][gc,cpu       ] GC(5) User=0.03s Sys=0.01s Real=0.01s
[2021-08-26T20:32:23.729-0300][gc,start     ] GC(6) Pause Young (Normal) (G1 Evacuation Pause)
[2021-08-26T20:32:23.730-0300][gc,task      ] GC(6) Using 4 workers of 4 for evacuation
[2021-08-26T20:32:23.740-0300][gc,phases    ] GC(6)   Pre Evacuate Collection Set: 0.1ms
[2021-08-26T20:32:23.740-0300][gc,phases    ] GC(6)   Evacuate Collection Set: 9.5ms
[2021-08-26T20:32:23.740-0300][gc,phases    ] GC(6)   Post Evacuate Collection Set: 0.5ms
[2021-08-26T20:32:23.740-0300][gc,phases    ] GC(6)   Other: 0.4ms
[2021-08-26T20:32:23.740-0300][gc,heap      ] GC(6) Eden regions: 46->0(45)
[2021-08-26T20:32:23.740-0300][gc,heap      ] GC(6) Survivor regions: 5->6(7)
[2021-08-26T20:32:23.740-0300][gc,heap      ] GC(6) Old regions: 27->30
[2021-08-26T20:32:23.740-0300][gc,heap      ] GC(6) Archive regions: 2->2
[2021-08-26T20:32:23.740-0300][gc,heap      ] GC(6) Humongous regions: 133->133
[2021-08-26T20:32:23.740-0300][gc,metaspace ] GC(6) Metaspace: 33218K->33218K(1079296K)
[2021-08-26T20:32:23.740-0300][gc           ] GC(6) Pause Young (Normal) (G1 Evacuation Pause) 211M->168M(1024M) 10.772ms
[2021-08-26T20:32:23.740-0300][gc,cpu       ] GC(6) User=0.03s Sys=0.00s Real=0.02s
[2021-08-26T20:32:23.923-0300][gc,start     ] GC(7) Pause Young (Concurrent Start) (Metadata GC Threshold)
[2021-08-26T20:32:23.923-0300][gc,task      ] GC(7) Using 4 workers of 4 for evacuation
[2021-08-26T20:32:23.932-0300][gc,phases    ] GC(7)   Pre Evacuate Collection Set: 0.2ms
[2021-08-26T20:32:23.932-0300][gc,phases    ] GC(7)   Evacuate Collection Set: 8.2ms
[2021-08-26T20:32:23.932-0300][gc,phases    ] GC(7)   Post Evacuate Collection Set: 0.3ms
[2021-08-26T20:32:23.932-0300][gc,phases    ] GC(7)   Other: 0.3ms
[2021-08-26T20:32:23.932-0300][gc,heap      ] GC(7) Eden regions: 11->0(46)
[2021-08-26T20:32:23.932-0300][gc,heap      ] GC(7) Survivor regions: 6->5(7)
[2021-08-26T20:32:23.932-0300][gc,heap      ] GC(7) Old regions: 30->32
[2021-08-26T20:32:23.932-0300][gc,heap      ] GC(7) Archive regions: 2->2
[2021-08-26T20:32:23.932-0300][gc,heap      ] GC(7) Humongous regions: 133->133
[2021-08-26T20:32:23.932-0300][gc,metaspace ] GC(7) Metaspace: 34463K->34463K(1081344K)
[2021-08-26T20:32:23.932-0300][gc           ] GC(7) Pause Young (Concurrent Start) (Metadata GC Threshold) 179M->169M(1024M) 9.153ms
[2021-08-26T20:32:23.932-0300][gc,cpu       ] GC(7) User=0.03s Sys=0.00s Real=0.01s
[2021-08-26T20:32:23.932-0300][gc           ] GC(8) Concurrent Cycle
[2021-08-26T20:32:23.932-0300][gc,marking   ] GC(8) Concurrent Clear Claimed Marks
[2021-08-26T20:32:23.932-0300][gc,marking   ] GC(8) Concurrent Clear Claimed Marks 0.084ms
[2021-08-26T20:32:23.932-0300][gc,marking   ] GC(8) Concurrent Scan Root Regions
[2021-08-26T20:32:23.941-0300][gc,marking   ] GC(8) Concurrent Scan Root Regions 8.439ms
[2021-08-26T20:32:23.941-0300][gc,marking   ] GC(8) Concurrent Mark (13.213s)
[2021-08-26T20:32:23.941-0300][gc,marking   ] GC(8) Concurrent Mark From Roots
[2021-08-26T20:32:23.941-0300][gc,task      ] GC(8) Using 1 workers of 1 for marking
[2021-08-26T20:32:23.973-0300][gc,marking   ] GC(8) Concurrent Mark From Roots 31.963ms
[2021-08-26T20:32:23.973-0300][gc,marking   ] GC(8) Concurrent Preclean
[2021-08-26T20:32:23.973-0300][gc,marking   ] GC(8) Concurrent Preclean 0.131ms
[2021-08-26T20:32:23.973-0300][gc,marking   ] GC(8) Concurrent Mark (13.213s, 13.245s) 32.196ms
[2021-08-26T20:32:23.973-0300][gc,start     ] GC(8) Pause Remark
[2021-08-26T20:32:23.976-0300][gc           ] GC(8) Pause Remark 171M->171M(1024M) 2.901ms
[2021-08-26T20:32:23.976-0300][gc,cpu       ] GC(8) User=0.01s Sys=0.00s Real=0.00s
[2021-08-26T20:32:23.976-0300][gc,marking   ] GC(8) Concurrent Rebuild Remembered Sets
[2021-08-26T20:32:23.999-0300][gc,marking   ] GC(8) Concurrent Rebuild Remembered Sets 22.701ms
[2021-08-26T20:32:23.999-0300][gc,start     ] GC(8) Pause Cleanup
[2021-08-26T20:32:24.000-0300][gc           ] GC(8) Pause Cleanup 171M->171M(1024M) 0.271ms
[2021-08-26T20:32:24.000-0300][gc,cpu       ] GC(8) User=0.00s Sys=0.00s Real=0.01s
[2021-08-26T20:32:24.003-0300][gc,marking   ] GC(8) Concurrent Cleanup for Next Mark
[2021-08-26T20:32:24.015-0300][gc,marking   ] GC(8) Concurrent Cleanup for Next Mark 11.646ms
[2021-08-26T20:32:24.015-0300][gc           ] GC(8) Concurrent Cycle 82.502ms
[2021-08-26T20:32:27.946-0300][gc,heap,exit ] Heap
[2021-08-26T20:32:27.947-0300][gc,heap,exit ]  garbage-first heap   total 1048576K, used 194333K [0x00000007c0000000, 0x0000000800000000)
[2021-08-26T20:32:27.947-0300][gc,heap,exit ]   region size 1024K, 26 young (26624K), 5 survivors (5120K)
[2021-08-26T20:32:27.947-0300][gc,heap,exit ]  Metaspace       used 36338K, capacity 37750K, committed 37888K, reserved 1081344K
[2021-08-26T20:32:27.947-0300][gc,heap,exit ]   class space    used 4396K, capacity 5051K, committed 5120K, reserved 1048576K
