[2021-08-26T20:59:15.335-0300][gc,heap] Heap region size: 1M
[2021-08-26T20:59:15.346-0300][gc     ] Using G1
[2021-08-26T20:59:15.346-0300][gc,heap,coops] Heap address: 0x00000007c0000000, size: 1024 MB, Compressed Oops mode: Zero based, Oop shift amount: 3
[2021-08-26T20:59:15.346-0300][gc,cds       ] Mark closed archive regions in map: [0x00000007fff00000, 0x00000007fff76ff8]
[2021-08-26T20:59:15.346-0300][gc,cds       ] Mark open archive regions in map: [0x00000007ffe00000, 0x00000007ffe46ff8]
[2021-08-26T20:59:15.367-0300][gc           ] Periodic GC disabled
[2021-08-26T20:59:16.694-0300][gc,start     ] GC(0) Pause Young (Normal) (G1 Evacuation Pause)
[2021-08-26T20:59:16.695-0300][gc,task      ] GC(0) Using 4 workers of 4 for evacuation
[2021-08-26T20:59:16.719-0300][gc,mmu       ] GC(0) MMU target violated: 21.0ms (20.0ms/21.0ms)
[2021-08-26T20:59:16.719-0300][gc,phases    ] GC(0)   Pre Evacuate Collection Set: 0.1ms
[2021-08-26T20:59:16.719-0300][gc,phases    ] GC(0)   Evacuate Collection Set: 22.8ms
[2021-08-26T20:59:16.719-0300][gc,phases    ] GC(0)   Post Evacuate Collection Set: 0.7ms
[2021-08-26T20:59:16.719-0300][gc,phases    ] GC(0)   Other: 0.6ms
[2021-08-26T20:59:16.719-0300][gc,heap      ] GC(0) Eden regions: 51->0(44)
[2021-08-26T20:59:16.719-0300][gc,heap      ] GC(0) Survivor regions: 0->7(7)
[2021-08-26T20:59:16.719-0300][gc,heap      ] GC(0) Old regions: 0->19
[2021-08-26T20:59:16.719-0300][gc,heap      ] GC(0) Archive regions: 2->2
[2021-08-26T20:59:16.719-0300][gc,heap      ] GC(0) Humongous regions: 5->4
[2021-08-26T20:59:16.719-0300][gc,metaspace ] GC(0) Metaspace: 6017K->6017K(1056768K)
[2021-08-26T20:59:16.719-0300][gc           ] GC(0) Pause Young (Normal) (G1 Evacuation Pause) 56M->30M(1024M) 24.416ms
[2021-08-26T20:59:16.719-0300][gc,cpu       ] GC(0) User=0.05s Sys=0.02s Real=0.02s
[2021-08-26T20:59:17.425-0300][gc,start     ] GC(1) Pause Young (Normal) (G1 Evacuation Pause)
[2021-08-26T20:59:17.425-0300][gc,task      ] GC(1) Using 4 workers of 4 for evacuation
[2021-08-26T20:59:17.439-0300][gc,phases    ] GC(1)   Pre Evacuate Collection Set: 0.1ms
[2021-08-26T20:59:17.439-0300][gc,phases    ] GC(1)   Evacuate Collection Set: 13.8ms
[2021-08-26T20:59:17.439-0300][gc,phases    ] GC(1)   Post Evacuate Collection Set: 0.4ms
[2021-08-26T20:59:17.439-0300][gc,phases    ] GC(1)   Other: 0.3ms
[2021-08-26T20:59:17.439-0300][gc,heap      ] GC(1) Eden regions: 44->0(49)
[2021-08-26T20:59:17.439-0300][gc,heap      ] GC(1) Survivor regions: 7->2(7)
[2021-08-26T20:59:17.439-0300][gc,heap      ] GC(1) Old regions: 19->26
[2021-08-26T20:59:17.439-0300][gc,heap      ] GC(1) Archive regions: 2->2
[2021-08-26T20:59:17.439-0300][gc,heap      ] GC(1) Humongous regions: 4->4
[2021-08-26T20:59:17.439-0300][gc,metaspace ] GC(1) Metaspace: 14899K->14899K(1062912K)
[2021-08-26T20:59:17.439-0300][gc           ] GC(1) Pause Young (Normal) (G1 Evacuation Pause) 74M->31M(1024M) 14.674ms
[2021-08-26T20:59:17.439-0300][gc,cpu       ] GC(1) User=0.04s Sys=0.01s Real=0.01s
[2021-08-26T20:59:17.776-0300][gc,start     ] GC(2) Pause Young (Concurrent Start) (Metadata GC Threshold)
[2021-08-26T20:59:17.776-0300][gc,task      ] GC(2) Using 4 workers of 4 for evacuation
[2021-08-26T20:59:17.779-0300][gc,phases    ] GC(2)   Pre Evacuate Collection Set: 0.1ms
[2021-08-26T20:59:17.779-0300][gc,phases    ] GC(2)   Evacuate Collection Set: 2.8ms
[2021-08-26T20:59:17.779-0300][gc,phases    ] GC(2)   Post Evacuate Collection Set: 0.2ms
[2021-08-26T20:59:17.779-0300][gc,phases    ] GC(2)   Other: 0.3ms
[2021-08-26T20:59:17.779-0300][gc,heap      ] GC(2) Eden regions: 32->0(48)
[2021-08-26T20:59:17.779-0300][gc,heap      ] GC(2) Survivor regions: 2->3(7)
[2021-08-26T20:59:17.779-0300][gc,heap      ] GC(2) Old regions: 26->26
[2021-08-26T20:59:17.779-0300][gc,heap      ] GC(2) Archive regions: 2->2
[2021-08-26T20:59:17.779-0300][gc,heap      ] GC(2) Humongous regions: 4->4
[2021-08-26T20:59:17.779-0300][gc,metaspace ] GC(2) Metaspace: 20528K->20528K(1069056K)
[2021-08-26T20:59:17.779-0300][gc           ] GC(2) Pause Young (Concurrent Start) (Metadata GC Threshold) 63M->32M(1024M) 3.601ms
[2021-08-26T20:59:17.779-0300][gc,cpu       ] GC(2) User=0.01s Sys=0.00s Real=0.00s
[2021-08-26T20:59:17.780-0300][gc           ] GC(3) Concurrent Cycle
[2021-08-26T20:59:17.780-0300][gc,marking   ] GC(3) Concurrent Clear Claimed Marks
[2021-08-26T20:59:17.780-0300][gc,marking   ] GC(3) Concurrent Clear Claimed Marks 0.040ms
[2021-08-26T20:59:17.780-0300][gc,marking   ] GC(3) Concurrent Scan Root Regions
[2021-08-26T20:59:17.782-0300][gc,marking   ] GC(3) Concurrent Scan Root Regions 2.740ms
[2021-08-26T20:59:17.782-0300][gc,marking   ] GC(3) Concurrent Mark (2.458s)
[2021-08-26T20:59:17.782-0300][gc,marking   ] GC(3) Concurrent Mark From Roots
[2021-08-26T20:59:17.782-0300][gc,task      ] GC(3) Using 1 workers of 1 for marking
[2021-08-26T20:59:17.798-0300][gc,marking   ] GC(3) Concurrent Mark From Roots 15.299ms
[2021-08-26T20:59:17.798-0300][gc,marking   ] GC(3) Concurrent Preclean
[2021-08-26T20:59:17.798-0300][gc,marking   ] GC(3) Concurrent Preclean 0.132ms
[2021-08-26T20:59:17.798-0300][gc,marking   ] GC(3) Concurrent Mark (2.458s, 2.473s) 15.528ms
[2021-08-26T20:59:17.798-0300][gc,start     ] GC(3) Pause Remark
[2021-08-26T20:59:17.800-0300][gc           ] GC(3) Pause Remark 33M->33M(1024M) 1.651ms
[2021-08-26T20:59:17.800-0300][gc,cpu       ] GC(3) User=0.01s Sys=0.00s Real=0.01s
[2021-08-26T20:59:17.800-0300][gc,marking   ] GC(3) Concurrent Rebuild Remembered Sets
[2021-08-26T20:59:17.808-0300][gc,marking   ] GC(3) Concurrent Rebuild Remembered Sets 7.914ms
[2021-08-26T20:59:17.808-0300][gc,start     ] GC(3) Pause Cleanup
[2021-08-26T20:59:17.809-0300][gc           ] GC(3) Pause Cleanup 33M->33M(1024M) 0.180ms
[2021-08-26T20:59:17.809-0300][gc,cpu       ] GC(3) User=0.00s Sys=0.00s Real=0.00s
[2021-08-26T20:59:17.809-0300][gc,marking   ] GC(3) Concurrent Cleanup for Next Mark
[2021-08-26T20:59:17.818-0300][gc,marking   ] GC(3) Concurrent Cleanup for Next Mark 9.145ms
[2021-08-26T20:59:17.818-0300][gc           ] GC(3) Concurrent Cycle 38.364ms
[2021-08-26T20:59:18.144-0300][gc,heap,exit ] Heap
[2021-08-26T20:59:18.144-0300][gc,heap,exit ]  garbage-first heap   total 1048576K, used 48646K [0x00000007c0000000, 0x0000000800000000)
[2021-08-26T20:59:18.144-0300][gc,heap,exit ]   region size 1024K, 20 young (20480K), 3 survivors (3072K)
[2021-08-26T20:59:18.144-0300][gc,heap,exit ]  Metaspace       used 23448K, capacity 23963K, committed 24188K, reserved 1071104K
[2021-08-26T20:59:18.144-0300][gc,heap,exit ]   class space    used 2625K, capacity 2823K, committed 2940K, reserved 1048576K
