[2021-08-26T20:33:50.348-0300][gc,heap] Heap region size: 1M
[2021-08-26T20:33:50.357-0300][gc     ] Using G1
[2021-08-26T20:33:50.357-0300][gc,heap,coops] Heap address: 0x00000007c0000000, size: 1024 MB, Compressed Oops mode: Zero based, Oop shift amount: 3
[2021-08-26T20:33:50.358-0300][gc,cds       ] Mark closed archive regions in map: [0x00000007fff00000, 0x00000007fff76ff8]
[2021-08-26T20:33:50.358-0300][gc,cds       ] Mark open archive regions in map: [0x00000007ffe00000, 0x00000007ffe46ff8]
[2021-08-26T20:33:50.375-0300][gc           ] Periodic GC disabled
[2021-08-26T20:33:51.563-0300][gc,start     ] GC(0) Pause Young (Normal) (G1 Evacuation Pause)
[2021-08-26T20:33:51.564-0300][gc,task      ] GC(0) Using 4 workers of 4 for evacuation
[2021-08-26T20:33:51.578-0300][gc,phases    ] GC(0)   Pre Evacuate Collection Set: 0.1ms
[2021-08-26T20:33:51.578-0300][gc,phases    ] GC(0)   Evacuate Collection Set: 13.4ms
[2021-08-26T20:33:51.578-0300][gc,phases    ] GC(0)   Post Evacuate Collection Set: 0.6ms
[2021-08-26T20:33:51.578-0300][gc,phases    ] GC(0)   Other: 0.6ms
[2021-08-26T20:33:51.578-0300][gc,heap      ] GC(0) Eden regions: 51->0(44)
[2021-08-26T20:33:51.578-0300][gc,heap      ] GC(0) Survivor regions: 0->7(7)
[2021-08-26T20:33:51.578-0300][gc,heap      ] GC(0) Old regions: 0->19
[2021-08-26T20:33:51.578-0300][gc,heap      ] GC(0) Archive regions: 2->2
[2021-08-26T20:33:51.578-0300][gc,heap      ] GC(0) Humongous regions: 5->4
[2021-08-26T20:33:51.578-0300][gc,metaspace ] GC(0) Metaspace: 6005K->6005K(1056768K)
[2021-08-26T20:33:51.578-0300][gc           ] GC(0) Pause Young (Normal) (G1 Evacuation Pause) 56M->29M(1024M) 14.893ms
[2021-08-26T20:33:51.578-0300][gc,cpu       ] GC(0) User=0.04s Sys=0.02s Real=0.01s
[2021-08-26T20:33:52.219-0300][gc,start     ] GC(1) Pause Young (Normal) (G1 Evacuation Pause)
[2021-08-26T20:33:52.220-0300][gc,task      ] GC(1) Using 4 workers of 4 for evacuation
[2021-08-26T20:33:52.233-0300][gc,phases    ] GC(1)   Pre Evacuate Collection Set: 0.0ms
[2021-08-26T20:33:52.233-0300][gc,phases    ] GC(1)   Evacuate Collection Set: 13.4ms
[2021-08-26T20:33:52.234-0300][gc,phases    ] GC(1)   Post Evacuate Collection Set: 0.3ms
[2021-08-26T20:33:52.234-0300][gc,phases    ] GC(1)   Other: 0.2ms
[2021-08-26T20:33:52.234-0300][gc,heap      ] GC(1) Eden regions: 44->0(49)
[2021-08-26T20:33:52.234-0300][gc,heap      ] GC(1) Survivor regions: 7->2(7)
[2021-08-26T20:33:52.234-0300][gc,heap      ] GC(1) Old regions: 19->26
[2021-08-26T20:33:52.234-0300][gc,heap      ] GC(1) Archive regions: 2->2
[2021-08-26T20:33:52.234-0300][gc,heap      ] GC(1) Humongous regions: 4->4
[2021-08-26T20:33:52.234-0300][gc,metaspace ] GC(1) Metaspace: 14724K->14724K(1062912K)
[2021-08-26T20:33:52.234-0300][gc           ] GC(1) Pause Young (Normal) (G1 Evacuation Pause) 73M->31M(1024M) 14.254ms
[2021-08-26T20:33:52.234-0300][gc,cpu       ] GC(1) User=0.06s Sys=0.01s Real=0.02s
[2021-08-26T20:33:52.643-0300][gc,start     ] GC(2) Pause Young (Concurrent Start) (Metadata GC Threshold)
[2021-08-26T20:33:52.643-0300][gc,task      ] GC(2) Using 4 workers of 4 for evacuation
[2021-08-26T20:33:52.647-0300][gc,phases    ] GC(2)   Pre Evacuate Collection Set: 0.1ms
[2021-08-26T20:33:52.647-0300][gc,phases    ] GC(2)   Evacuate Collection Set: 3.5ms
[2021-08-26T20:33:52.647-0300][gc,phases    ] GC(2)   Post Evacuate Collection Set: 0.2ms
[2021-08-26T20:33:52.648-0300][gc,phases    ] GC(2)   Other: 0.3ms
[2021-08-26T20:33:52.648-0300][gc,heap      ] GC(2) Eden regions: 35->0(49)
[2021-08-26T20:33:52.648-0300][gc,heap      ] GC(2) Survivor regions: 2->2(7)
[2021-08-26T20:33:52.648-0300][gc,heap      ] GC(2) Old regions: 26->26
[2021-08-26T20:33:52.648-0300][gc,heap      ] GC(2) Archive regions: 2->2
[2021-08-26T20:33:52.648-0300][gc,heap      ] GC(2) Humongous regions: 4->4
[2021-08-26T20:33:52.648-0300][gc,metaspace ] GC(2) Metaspace: 20473K->20473K(1069056K)
[2021-08-26T20:33:52.648-0300][gc           ] GC(2) Pause Young (Concurrent Start) (Metadata GC Threshold) 65M->31M(1024M) 4.169ms
[2021-08-26T20:33:52.648-0300][gc,cpu       ] GC(2) User=0.01s Sys=0.00s Real=0.00s
[2021-08-26T20:33:52.648-0300][gc           ] GC(3) Concurrent Cycle
[2021-08-26T20:33:52.648-0300][gc,marking   ] GC(3) Concurrent Clear Claimed Marks
[2021-08-26T20:33:52.648-0300][gc,marking   ] GC(3) Concurrent Clear Claimed Marks 0.030ms
[2021-08-26T20:33:52.648-0300][gc,marking   ] GC(3) Concurrent Scan Root Regions
[2021-08-26T20:33:52.651-0300][gc,marking   ] GC(3) Concurrent Scan Root Regions 3.510ms
[2021-08-26T20:33:52.651-0300][gc,marking   ] GC(3) Concurrent Mark (2.314s)
[2021-08-26T20:33:52.651-0300][gc,marking   ] GC(3) Concurrent Mark From Roots
[2021-08-26T20:33:52.651-0300][gc,task      ] GC(3) Using 1 workers of 1 for marking
[2021-08-26T20:33:52.662-0300][gc,marking   ] GC(3) Concurrent Mark From Roots 10.426ms
[2021-08-26T20:33:52.662-0300][gc,marking   ] GC(3) Concurrent Preclean
[2021-08-26T20:33:52.662-0300][gc,marking   ] GC(3) Concurrent Preclean 0.101ms
[2021-08-26T20:33:52.662-0300][gc,marking   ] GC(3) Concurrent Mark (2.314s, 2.325s) 10.619ms
[2021-08-26T20:33:52.662-0300][gc,start     ] GC(3) Pause Remark
[2021-08-26T20:33:52.664-0300][gc           ] GC(3) Pause Remark 32M->32M(1024M) 1.162ms
[2021-08-26T20:33:52.664-0300][gc,cpu       ] GC(3) User=0.00s Sys=0.00s Real=0.00s
[2021-08-26T20:33:52.664-0300][gc,marking   ] GC(3) Concurrent Rebuild Remembered Sets
[2021-08-26T20:33:52.673-0300][gc,marking   ] GC(3) Concurrent Rebuild Remembered Sets 9.201ms
[2021-08-26T20:33:52.673-0300][gc,start     ] GC(3) Pause Cleanup
[2021-08-26T20:33:52.673-0300][gc           ] GC(3) Pause Cleanup 32M->32M(1024M) 0.162ms
[2021-08-26T20:33:52.674-0300][gc,cpu       ] GC(3) User=0.01s Sys=0.00s Real=0.00s
[2021-08-26T20:33:52.674-0300][gc,marking   ] GC(3) Concurrent Cleanup for Next Mark
[2021-08-26T20:33:52.683-0300][gc,marking   ] GC(3) Concurrent Cleanup for Next Mark 9.519ms
[2021-08-26T20:33:52.683-0300][gc           ] GC(3) Concurrent Cycle 35.612ms
[2021-08-26T20:33:53.739-0300][gc,start     ] GC(4) Pause Young (Normal) (G1 Evacuation Pause)
[2021-08-26T20:33:53.739-0300][gc,task      ] GC(4) Using 4 workers of 4 for evacuation
[2021-08-26T20:33:53.747-0300][gc,phases    ] GC(4)   Pre Evacuate Collection Set: 0.1ms
[2021-08-26T20:33:53.748-0300][gc,phases    ] GC(4)   Evacuate Collection Set: 7.8ms
[2021-08-26T20:33:53.748-0300][gc,phases    ] GC(4)   Post Evacuate Collection Set: 0.8ms
[2021-08-26T20:33:53.748-0300][gc,phases    ] GC(4)   Other: 0.3ms
[2021-08-26T20:33:53.748-0300][gc,heap      ] GC(4) Eden regions: 49->0(46)
[2021-08-26T20:33:53.748-0300][gc,heap      ] GC(4) Survivor regions: 2->5(7)
[2021-08-26T20:33:53.748-0300][gc,heap      ] GC(4) Old regions: 26->26
[2021-08-26T20:33:53.748-0300][gc,heap      ] GC(4) Archive regions: 2->2
[2021-08-26T20:33:53.748-0300][gc,heap      ] GC(4) Humongous regions: 4->4
[2021-08-26T20:33:53.748-0300][gc,metaspace ] GC(4) Metaspace: 28952K->28952K(1075200K)
[2021-08-26T20:33:53.748-0300][gc           ] GC(4) Pause Young (Normal) (G1 Evacuation Pause) 80M->33M(1024M) 9.202ms
[2021-08-26T20:33:53.748-0300][gc,cpu       ] GC(4) User=0.03s Sys=0.00s Real=0.01s
[2021-08-26T20:33:55.478-0300][gc,start     ] GC(5) Pause Young (Normal) (G1 Evacuation Pause)
[2021-08-26T20:33:55.478-0300][gc,task      ] GC(5) Using 4 workers of 4 for evacuation
[2021-08-26T20:33:55.487-0300][gc,phases    ] GC(5)   Pre Evacuate Collection Set: 0.1ms
[2021-08-26T20:33:55.487-0300][gc,phases    ] GC(5)   Evacuate Collection Set: 8.3ms
[2021-08-26T20:33:55.487-0300][gc,phases    ] GC(5)   Post Evacuate Collection Set: 0.6ms
[2021-08-26T20:33:55.488-0300][gc,phases    ] GC(5)   Other: 0.3ms
[2021-08-26T20:33:55.488-0300][gc,heap      ] GC(5) Eden regions: 46->0(45)
[2021-08-26T20:33:55.488-0300][gc,heap      ] GC(5) Survivor regions: 5->6(7)
[2021-08-26T20:33:55.488-0300][gc,heap      ] GC(5) Old regions: 26->27
[2021-08-26T20:33:55.488-0300][gc,heap      ] GC(5) Archive regions: 2->2
[2021-08-26T20:33:55.488-0300][gc,heap      ] GC(5) Humongous regions: 4->4
[2021-08-26T20:33:55.488-0300][gc,metaspace ] GC(5) Metaspace: 29831K->29831K(1077248K)
[2021-08-26T20:33:55.488-0300][gc           ] GC(5) Pause Young (Normal) (G1 Evacuation Pause) 79M->36M(1024M) 9.542ms
[2021-08-26T20:33:55.488-0300][gc,cpu       ] GC(5) User=0.03s Sys=0.00s Real=0.01s
[2021-08-26T20:33:56.293-0300][gc,start     ] GC(6) Pause Young (Normal) (G1 Evacuation Pause)
[2021-08-26T20:33:56.294-0300][gc,task      ] GC(6) Using 4 workers of 4 for evacuation
[2021-08-26T20:33:56.303-0300][gc,phases    ] GC(6)   Pre Evacuate Collection Set: 0.1ms
[2021-08-26T20:33:56.303-0300][gc,phases    ] GC(6)   Evacuate Collection Set: 8.8ms
[2021-08-26T20:33:56.303-0300][gc,phases    ] GC(6)   Post Evacuate Collection Set: 0.5ms
[2021-08-26T20:33:56.303-0300][gc,phases    ] GC(6)   Other: 0.3ms
[2021-08-26T20:33:56.303-0300][gc,heap      ] GC(6) Eden regions: 45->0(45)
[2021-08-26T20:33:56.303-0300][gc,heap      ] GC(6) Survivor regions: 6->6(7)
[2021-08-26T20:33:56.303-0300][gc,heap      ] GC(6) Old regions: 27->30
[2021-08-26T20:33:56.303-0300][gc,heap      ] GC(6) Archive regions: 2->2
[2021-08-26T20:33:56.303-0300][gc,heap      ] GC(6) Humongous regions: 133->133
[2021-08-26T20:33:56.303-0300][gc,metaspace ] GC(6) Metaspace: 33581K->33581K(1079296K)
[2021-08-26T20:33:56.303-0300][gc           ] GC(6) Pause Young (Normal) (G1 Evacuation Pause) 210M->168M(1024M) 9.922ms
[2021-08-26T20:33:56.303-0300][gc,cpu       ] GC(6) User=0.04s Sys=0.00s Real=0.01s
[2021-08-26T20:33:56.384-0300][gc,start     ] GC(7) Pause Young (Concurrent Start) (Metadata GC Threshold)
[2021-08-26T20:33:56.384-0300][gc,task      ] GC(7) Using 4 workers of 4 for evacuation
[2021-08-26T20:33:56.392-0300][gc,phases    ] GC(7)   Pre Evacuate Collection Set: 0.2ms
[2021-08-26T20:33:56.392-0300][gc,phases    ] GC(7)   Evacuate Collection Set: 7.3ms
[2021-08-26T20:33:56.392-0300][gc,phases    ] GC(7)   Post Evacuate Collection Set: 0.4ms
[2021-08-26T20:33:56.392-0300][gc,phases    ] GC(7)   Other: 0.5ms
[2021-08-26T20:33:56.392-0300][gc,heap      ] GC(7) Eden regions: 7->0(47)
[2021-08-26T20:33:56.392-0300][gc,heap      ] GC(7) Survivor regions: 6->4(7)
[2021-08-26T20:33:56.392-0300][gc,heap      ] GC(7) Old regions: 30->32
[2021-08-26T20:33:56.392-0300][gc,heap      ] GC(7) Archive regions: 2->2
[2021-08-26T20:33:56.392-0300][gc,heap      ] GC(7) Humongous regions: 133->133
[2021-08-26T20:33:56.392-0300][gc,metaspace ] GC(7) Metaspace: 34388K->34388K(1081344K)
[2021-08-26T20:33:56.392-0300][gc           ] GC(7) Pause Young (Concurrent Start) (Metadata GC Threshold) 175M->168M(1024M) 8.555ms
[2021-08-26T20:33:56.392-0300][gc,cpu       ] GC(7) User=0.02s Sys=0.00s Real=0.01s
[2021-08-26T20:33:56.392-0300][gc           ] GC(8) Concurrent Cycle
[2021-08-26T20:33:56.392-0300][gc,marking   ] GC(8) Concurrent Clear Claimed Marks
[2021-08-26T20:33:56.392-0300][gc,marking   ] GC(8) Concurrent Clear Claimed Marks 0.079ms
[2021-08-26T20:33:56.392-0300][gc,marking   ] GC(8) Concurrent Scan Root Regions
[2021-08-26T20:33:56.401-0300][gc,marking   ] GC(8) Concurrent Scan Root Regions 8.236ms
[2021-08-26T20:33:56.401-0300][gc,marking   ] GC(8) Concurrent Mark (6.063s)
[2021-08-26T20:33:56.401-0300][gc,marking   ] GC(8) Concurrent Mark From Roots
[2021-08-26T20:33:56.401-0300][gc,task      ] GC(8) Using 1 workers of 1 for marking
[2021-08-26T20:33:56.432-0300][gc,marking   ] GC(8) Concurrent Mark From Roots 31.437ms
[2021-08-26T20:33:56.432-0300][gc,marking   ] GC(8) Concurrent Preclean
[2021-08-26T20:33:56.432-0300][gc,marking   ] GC(8) Concurrent Preclean 0.121ms
[2021-08-26T20:33:56.432-0300][gc,marking   ] GC(8) Concurrent Mark (6.063s, 6.095s) 31.715ms
[2021-08-26T20:33:56.433-0300][gc,start     ] GC(8) Pause Remark
[2021-08-26T20:33:56.446-0300][gc           ] GC(8) Pause Remark 171M->171M(1024M) 13.536ms
[2021-08-26T20:33:56.446-0300][gc,cpu       ] GC(8) User=0.02s Sys=0.00s Real=0.01s
[2021-08-26T20:33:56.457-0300][gc,marking   ] GC(8) Concurrent Rebuild Remembered Sets
[2021-08-26T20:33:56.477-0300][gc,marking   ] GC(8) Concurrent Rebuild Remembered Sets 20.085ms
[2021-08-26T20:33:56.477-0300][gc,start     ] GC(8) Pause Cleanup
[2021-08-26T20:33:56.478-0300][gc           ] GC(8) Pause Cleanup 173M->173M(1024M) 0.261ms
[2021-08-26T20:33:56.478-0300][gc,cpu       ] GC(8) User=0.00s Sys=0.00s Real=0.00s
[2021-08-26T20:33:56.488-0300][gc,marking   ] GC(8) Concurrent Cleanup for Next Mark
[2021-08-26T20:33:56.498-0300][gc,marking   ] GC(8) Concurrent Cleanup for Next Mark 10.280ms
[2021-08-26T20:33:56.498-0300][gc           ] GC(8) Concurrent Cycle 106.162ms
[2021-08-26T20:33:57.158-0300][gc,start     ] GC(9) Pause Young (Normal) (G1 Evacuation Pause)
[2021-08-26T20:33:57.159-0300][gc,task      ] GC(9) Using 4 workers of 4 for evacuation
[2021-08-26T20:33:57.169-0300][gc,phases    ] GC(9)   Pre Evacuate Collection Set: 0.1ms
[2021-08-26T20:33:57.169-0300][gc,phases    ] GC(9)   Evacuate Collection Set: 9.2ms
[2021-08-26T20:33:57.169-0300][gc,phases    ] GC(9)   Post Evacuate Collection Set: 0.4ms
[2021-08-26T20:33:57.169-0300][gc,phases    ] GC(9)   Other: 0.6ms
[2021-08-26T20:33:57.169-0300][gc,heap      ] GC(9) Eden regions: 47->0(48)
[2021-08-26T20:33:57.169-0300][gc,heap      ] GC(9) Survivor regions: 4->3(7)
[2021-08-26T20:33:57.169-0300][gc,heap      ] GC(9) Old regions: 32->35
[2021-08-26T20:33:57.169-0300][gc,heap      ] GC(9) Archive regions: 2->2
[2021-08-26T20:33:57.169-0300][gc,heap      ] GC(9) Humongous regions: 134->133
[2021-08-26T20:33:57.169-0300][gc,metaspace ] GC(9) Metaspace: 40784K->40784K(1087488K)
[2021-08-26T20:33:57.169-0300][gc           ] GC(9) Pause Young (Normal) (G1 Evacuation Pause) 216M->171M(1024M) 10.539ms
[2021-08-26T20:33:57.169-0300][gc,cpu       ] GC(9) User=0.04s Sys=0.00s Real=0.01s
[2021-08-26T20:33:57.497-0300][gc,start     ] GC(10) Pause Young (Normal) (G1 Evacuation Pause)
[2021-08-26T20:33:57.497-0300][gc,task      ] GC(10) Using 4 workers of 4 for evacuation
[2021-08-26T20:33:57.503-0300][gc,phases    ] GC(10)   Pre Evacuate Collection Set: 0.1ms
[2021-08-26T20:33:57.503-0300][gc,phases    ] GC(10)   Evacuate Collection Set: 5.4ms
[2021-08-26T20:33:57.503-0300][gc,phases    ] GC(10)   Post Evacuate Collection Set: 0.3ms
[2021-08-26T20:33:57.504-0300][gc,phases    ] GC(10)   Other: 0.3ms
[2021-08-26T20:33:57.504-0300][gc,heap      ] GC(10) Eden regions: 48->0(47)
[2021-08-26T20:33:57.504-0300][gc,heap      ] GC(10) Survivor regions: 3->4(7)
[2021-08-26T20:33:57.504-0300][gc,heap      ] GC(10) Old regions: 35->35
[2021-08-26T20:33:57.504-0300][gc,heap      ] GC(10) Archive regions: 2->2
[2021-08-26T20:33:57.504-0300][gc,heap      ] GC(10) Humongous regions: 133->133
[2021-08-26T20:33:57.504-0300][gc,metaspace ] GC(10) Metaspace: 43793K->43793K(1089536K)
[2021-08-26T20:33:57.504-0300][gc           ] GC(10) Pause Young (Normal) (G1 Evacuation Pause) 219M->171M(1024M) 6.373ms
[2021-08-26T20:33:57.504-0300][gc,cpu       ] GC(10) User=0.02s Sys=0.00s Real=0.01s
[2021-08-26T20:33:57.797-0300][gc,start     ] GC(11) Pause Young (Normal) (G1 Evacuation Pause)
[2021-08-26T20:33:57.797-0300][gc,task      ] GC(11) Using 4 workers of 4 for evacuation
[2021-08-26T20:33:57.804-0300][gc,phases    ] GC(11)   Pre Evacuate Collection Set: 0.1ms
[2021-08-26T20:33:57.805-0300][gc,phases    ] GC(11)   Evacuate Collection Set: 7.0ms
[2021-08-26T20:33:57.805-0300][gc,phases    ] GC(11)   Post Evacuate Collection Set: 0.5ms
[2021-08-26T20:33:57.805-0300][gc,phases    ] GC(11)   Other: 0.3ms
[2021-08-26T20:33:57.805-0300][gc,heap      ] GC(11) Eden regions: 47->0(46)
[2021-08-26T20:33:57.805-0300][gc,heap      ] GC(11) Survivor regions: 4->5(7)
[2021-08-26T20:33:57.805-0300][gc,heap      ] GC(11) Old regions: 35->35
[2021-08-26T20:33:57.805-0300][gc,heap      ] GC(11) Archive regions: 2->2
[2021-08-26T20:33:57.805-0300][gc,heap      ] GC(11) Humongous regions: 133->133
[2021-08-26T20:33:57.805-0300][gc,metaspace ] GC(11) Metaspace: 45816K->45816K(1091584K)
[2021-08-26T20:33:57.805-0300][gc           ] GC(11) Pause Young (Normal) (G1 Evacuation Pause) 218M->172M(1024M) 8.120ms
[2021-08-26T20:33:57.805-0300][gc,cpu       ] GC(11) User=0.03s Sys=0.00s Real=0.01s
[2021-08-26T20:33:58.314-0300][gc,start     ] GC(12) Pause Young (Normal) (G1 Evacuation Pause)
[2021-08-26T20:33:58.314-0300][gc,task      ] GC(12) Using 4 workers of 4 for evacuation
[2021-08-26T20:33:58.324-0300][gc,phases    ] GC(12)   Pre Evacuate Collection Set: 0.1ms
[2021-08-26T20:33:58.324-0300][gc,phases    ] GC(12)   Evacuate Collection Set: 8.9ms
[2021-08-26T20:33:58.324-0300][gc,phases    ] GC(12)   Post Evacuate Collection Set: 0.5ms
[2021-08-26T20:33:58.324-0300][gc,phases    ] GC(12)   Other: 0.4ms
[2021-08-26T20:33:58.324-0300][gc,heap      ] GC(12) Eden regions: 46->0(45)
[2021-08-26T20:33:58.324-0300][gc,heap      ] GC(12) Survivor regions: 5->6(7)
[2021-08-26T20:33:58.324-0300][gc,heap      ] GC(12) Old regions: 35->36
[2021-08-26T20:33:58.324-0300][gc,heap      ] GC(12) Archive regions: 2->2
[2021-08-26T20:33:58.324-0300][gc,heap      ] GC(12) Humongous regions: 133->133
[2021-08-26T20:33:58.324-0300][gc,metaspace ] GC(12) Metaspace: 49107K->49107K(1093632K)
[2021-08-26T20:33:58.324-0300][gc           ] GC(12) Pause Young (Normal) (G1 Evacuation Pause) 218M->174M(1024M) 10.020ms
[2021-08-26T20:33:58.324-0300][gc,cpu       ] GC(12) User=0.04s Sys=0.01s Real=0.01s
[2021-08-26T20:33:58.648-0300][gc,start     ] GC(13) Pause Young (Normal) (G1 Evacuation Pause)
[2021-08-26T20:33:58.648-0300][gc,task      ] GC(13) Using 4 workers of 4 for evacuation
[2021-08-26T20:33:58.661-0300][gc,phases    ] GC(13)   Pre Evacuate Collection Set: 0.1ms
[2021-08-26T20:33:58.661-0300][gc,phases    ] GC(13)   Evacuate Collection Set: 11.0ms
[2021-08-26T20:33:58.661-0300][gc,phases    ] GC(13)   Post Evacuate Collection Set: 0.9ms
[2021-08-26T20:33:58.661-0300][gc,phases    ] GC(13)   Other: 0.7ms
[2021-08-26T20:33:58.661-0300][gc,heap      ] GC(13) Eden regions: 45->0(44)
[2021-08-26T20:33:58.661-0300][gc,heap      ] GC(13) Survivor regions: 6->7(7)
[2021-08-26T20:33:58.661-0300][gc,heap      ] GC(13) Old regions: 36->38
[2021-08-26T20:33:58.661-0300][gc,heap      ] GC(13) Archive regions: 2->2
[2021-08-26T20:33:58.661-0300][gc,heap      ] GC(13) Humongous regions: 133->133
[2021-08-26T20:33:58.661-0300][gc,metaspace ] GC(13) Metaspace: 50723K->50723K(1095680K)
[2021-08-26T20:33:58.661-0300][gc           ] GC(13) Pause Young (Normal) (G1 Evacuation Pause) 219M->178M(1024M) 12.837ms
[2021-08-26T20:33:58.661-0300][gc,cpu       ] GC(13) User=0.04s Sys=0.01s Real=0.02s
[2021-08-26T20:33:59.033-0300][gc,start     ] GC(14) Pause Young (Normal) (G1 Evacuation Pause)
[2021-08-26T20:33:59.033-0300][gc,task      ] GC(14) Using 4 workers of 4 for evacuation
[2021-08-26T20:33:59.044-0300][gc,phases    ] GC(14)   Pre Evacuate Collection Set: 0.1ms
[2021-08-26T20:33:59.044-0300][gc,phases    ] GC(14)   Evacuate Collection Set: 10.5ms
[2021-08-26T20:33:59.044-0300][gc,phases    ] GC(14)   Post Evacuate Collection Set: 0.5ms
[2021-08-26T20:33:59.044-0300][gc,phases    ] GC(14)   Other: 0.3ms
[2021-08-26T20:33:59.044-0300][gc,heap      ] GC(14) Eden regions: 44->0(45)
[2021-08-26T20:33:59.044-0300][gc,heap      ] GC(14) Survivor regions: 7->6(7)
[2021-08-26T20:33:59.044-0300][gc,heap      ] GC(14) Old regions: 38->41
[2021-08-26T20:33:59.044-0300][gc,heap      ] GC(14) Archive regions: 2->2
[2021-08-26T20:33:59.044-0300][gc,heap      ] GC(14) Humongous regions: 133->133
[2021-08-26T20:33:59.044-0300][gc,metaspace ] GC(14) Metaspace: 52733K->52733K(1097728K)
[2021-08-26T20:33:59.044-0300][gc           ] GC(14) Pause Young (Normal) (G1 Evacuation Pause) 222M->180M(1024M) 11.515ms
[2021-08-26T20:33:59.044-0300][gc,cpu       ] GC(14) User=0.04s Sys=0.00s Real=0.01s
[2021-08-26T20:33:59.493-0300][gc,start     ] GC(15) Pause Young (Normal) (G1 Evacuation Pause)
[2021-08-26T20:33:59.493-0300][gc,task      ] GC(15) Using 4 workers of 4 for evacuation
[2021-08-26T20:33:59.504-0300][gc,phases    ] GC(15)   Pre Evacuate Collection Set: 0.1ms
[2021-08-26T20:33:59.504-0300][gc,phases    ] GC(15)   Evacuate Collection Set: 9.9ms
[2021-08-26T20:33:59.504-0300][gc,phases    ] GC(15)   Post Evacuate Collection Set: 0.6ms
[2021-08-26T20:33:59.504-0300][gc,phases    ] GC(15)   Other: 0.3ms
[2021-08-26T20:33:59.504-0300][gc,heap      ] GC(15) Eden regions: 45->0(51)
[2021-08-26T20:33:59.504-0300][gc,heap      ] GC(15) Survivor regions: 6->4(7)
[2021-08-26T20:33:59.504-0300][gc,heap      ] GC(15) Old regions: 41->44
[2021-08-26T20:33:59.504-0300][gc,heap      ] GC(15) Archive regions: 2->2
[2021-08-26T20:33:59.504-0300][gc,heap      ] GC(15) Humongous regions: 139->139
[2021-08-26T20:33:59.504-0300][gc,metaspace ] GC(15) Metaspace: 55060K->55060K(1099776K)
[2021-08-26T20:33:59.504-0300][gc           ] GC(15) Pause Young (Normal) (G1 Evacuation Pause) 231M->187M(1024M) 11.077ms
[2021-08-26T20:33:59.504-0300][gc,cpu       ] GC(15) User=0.04s Sys=0.00s Real=0.01s
[2021-08-26T20:33:59.939-0300][gc,start     ] GC(16) Pause Young (Concurrent Start) (Metadata GC Threshold)
[2021-08-26T20:33:59.939-0300][gc,task      ] GC(16) Using 4 workers of 4 for evacuation
[2021-08-26T20:33:59.950-0300][gc,phases    ] GC(16)   Pre Evacuate Collection Set: 0.3ms
[2021-08-26T20:33:59.950-0300][gc,phases    ] GC(16)   Evacuate Collection Set: 9.4ms
[2021-08-26T20:33:59.950-0300][gc,phases    ] GC(16)   Post Evacuate Collection Set: 0.6ms
[2021-08-26T20:33:59.950-0300][gc,phases    ] GC(16)   Other: 0.3ms
[2021-08-26T20:33:59.950-0300][gc,heap      ] GC(16) Eden regions: 34->0(54)
[2021-08-26T20:33:59.950-0300][gc,heap      ] GC(16) Survivor regions: 4->5(7)
[2021-08-26T20:33:59.950-0300][gc,heap      ] GC(16) Old regions: 44->44
[2021-08-26T20:33:59.950-0300][gc,heap      ] GC(16) Archive regions: 2->2
[2021-08-26T20:33:59.950-0300][gc,heap      ] GC(16) Humongous regions: 241->133
[2021-08-26T20:33:59.950-0300][gc,metaspace ] GC(16) Metaspace: 57417K->57417K(1101824K)
[2021-08-26T20:33:59.950-0300][gc           ] GC(16) Pause Young (Concurrent Start) (Metadata GC Threshold) 322M->182M(1024M) 10.877ms
[2021-08-26T20:33:59.950-0300][gc,cpu       ] GC(16) User=0.04s Sys=0.00s Real=0.02s
[2021-08-26T20:33:59.950-0300][gc           ] GC(17) Concurrent Cycle
[2021-08-26T20:33:59.950-0300][gc,marking   ] GC(17) Concurrent Clear Claimed Marks
[2021-08-26T20:33:59.950-0300][gc,marking   ] GC(17) Concurrent Clear Claimed Marks 0.183ms
[2021-08-26T20:33:59.950-0300][gc,marking   ] GC(17) Concurrent Scan Root Regions
[2021-08-26T20:33:59.957-0300][gc,marking   ] GC(17) Concurrent Scan Root Regions 6.594ms
[2021-08-26T20:33:59.957-0300][gc,marking   ] GC(17) Concurrent Mark (9.619s)
[2021-08-26T20:33:59.957-0300][gc,marking   ] GC(17) Concurrent Mark From Roots
[2021-08-26T20:33:59.957-0300][gc,task      ] GC(17) Using 1 workers of 1 for marking
[2021-08-26T20:34:00.037-0300][gc,marking   ] GC(17) Concurrent Mark From Roots 80.028ms
[2021-08-26T20:34:00.037-0300][gc,marking   ] GC(17) Concurrent Preclean
[2021-08-26T20:34:00.037-0300][gc,marking   ] GC(17) Concurrent Preclean 0.157ms
[2021-08-26T20:34:00.037-0300][gc,marking   ] GC(17) Concurrent Mark (9.619s, 9.700s) 80.276ms
[2021-08-26T20:34:00.037-0300][gc,start     ] GC(17) Pause Remark
[2021-08-26T20:34:00.044-0300][gc           ] GC(17) Pause Remark 187M->187M(1024M) 6.671ms
[2021-08-26T20:34:00.044-0300][gc,cpu       ] GC(17) User=0.03s Sys=0.00s Real=0.01s
[2021-08-26T20:34:00.054-0300][gc,marking   ] GC(17) Concurrent Rebuild Remembered Sets
[2021-08-26T20:34:00.137-0300][gc,marking   ] GC(17) Concurrent Rebuild Remembered Sets 83.216ms
[2021-08-26T20:34:00.140-0300][gc,start     ] GC(17) Pause Cleanup
[2021-08-26T20:34:00.140-0300][gc           ] GC(17) Pause Cleanup 192M->192M(1024M) 0.273ms
[2021-08-26T20:34:00.140-0300][gc,cpu       ] GC(17) User=0.00s Sys=0.00s Real=0.00s
[2021-08-26T20:34:00.140-0300][gc,marking   ] GC(17) Concurrent Cleanup for Next Mark
[2021-08-26T20:34:00.142-0300][gc,marking   ] GC(17) Concurrent Cleanup for Next Mark 1.557ms
[2021-08-26T20:34:00.142-0300][gc           ] GC(17) Concurrent Cycle 191.935ms
[2021-08-26T20:34:00.608-0300][gc,start     ] GC(18) Pause Young (Concurrent Start) (G1 Evacuation Pause)
[2021-08-26T20:34:00.609-0300][gc,task      ] GC(18) Using 4 workers of 4 for evacuation
[2021-08-26T20:34:00.626-0300][gc,phases    ] GC(18)   Pre Evacuate Collection Set: 0.3ms
[2021-08-26T20:34:00.626-0300][gc,phases    ] GC(18)   Evacuate Collection Set: 15.7ms
[2021-08-26T20:34:00.626-0300][gc,phases    ] GC(18)   Post Evacuate Collection Set: 0.9ms
[2021-08-26T20:34:00.626-0300][gc,phases    ] GC(18)   Other: 0.3ms
[2021-08-26T20:34:00.626-0300][gc,heap      ] GC(18) Eden regions: 46->0(46)
[2021-08-26T20:34:00.626-0300][gc,heap      ] GC(18) Survivor regions: 5->5(7)
[2021-08-26T20:34:00.626-0300][gc,heap      ] GC(18) Old regions: 44->47
[2021-08-26T20:34:00.626-0300][gc,heap      ] GC(18) Archive regions: 2->2
[2021-08-26T20:34:00.626-0300][gc,heap      ] GC(18) Humongous regions: 133->133
[2021-08-26T20:34:00.626-0300][gc,metaspace ] GC(18) Metaspace: 62070K->62070K(1105920K)
[2021-08-26T20:34:00.626-0300][gc           ] GC(18) Pause Young (Concurrent Start) (G1 Evacuation Pause) 228M->184M(1024M) 17.374ms
[2021-08-26T20:34:00.626-0300][gc,cpu       ] GC(18) User=0.05s Sys=0.00s Real=0.02s
[2021-08-26T20:34:00.626-0300][gc           ] GC(19) Concurrent Cycle
[2021-08-26T20:34:00.626-0300][gc,marking   ] GC(19) Concurrent Clear Claimed Marks
[2021-08-26T20:34:00.626-0300][gc,marking   ] GC(19) Concurrent Clear Claimed Marks 0.202ms
[2021-08-26T20:34:00.626-0300][gc,marking   ] GC(19) Concurrent Scan Root Regions
[2021-08-26T20:34:00.639-0300][gc,marking   ] GC(19) Concurrent Scan Root Regions 13.170ms
[2021-08-26T20:34:00.639-0300][gc,marking   ] GC(19) Concurrent Mark (10.302s)
[2021-08-26T20:34:00.639-0300][gc,marking   ] GC(19) Concurrent Mark From Roots
[2021-08-26T20:34:00.639-0300][gc,task      ] GC(19) Using 1 workers of 1 for marking
[2021-08-26T20:34:00.795-0300][gc,marking   ] GC(19) Concurrent Mark From Roots 155.350ms
[2021-08-26T20:34:00.795-0300][gc,marking   ] GC(19) Concurrent Preclean
[2021-08-26T20:34:00.795-0300][gc,marking   ] GC(19) Concurrent Preclean 0.293ms
[2021-08-26T20:34:00.795-0300][gc,marking   ] GC(19) Concurrent Mark (10.302s, 10.458s) 155.744ms
[2021-08-26T20:34:00.795-0300][gc,start     ] GC(19) Pause Remark
[2021-08-26T20:34:00.800-0300][gc           ] GC(19) Pause Remark 207M->207M(1024M) 4.247ms
[2021-08-26T20:34:00.800-0300][gc,cpu       ] GC(19) User=0.02s Sys=0.00s Real=0.01s
[2021-08-26T20:34:00.804-0300][gc,marking   ] GC(19) Concurrent Rebuild Remembered Sets
[2021-08-26T20:34:00.870-0300][gc,marking   ] GC(19) Concurrent Rebuild Remembered Sets 66.216ms
[2021-08-26T20:34:00.878-0300][gc,start     ] GC(19) Pause Cleanup
[2021-08-26T20:34:00.878-0300][gc           ] GC(19) Pause Cleanup 212M->212M(1024M) 0.278ms
[2021-08-26T20:34:00.878-0300][gc,cpu       ] GC(19) User=0.00s Sys=0.00s Real=0.00s
[2021-08-26T20:34:00.898-0300][gc,marking   ] GC(19) Concurrent Cleanup for Next Mark
[2021-08-26T20:34:00.900-0300][gc,marking   ] GC(19) Concurrent Cleanup for Next Mark 1.706ms
[2021-08-26T20:34:00.900-0300][gc           ] GC(19) Concurrent Cycle 274.249ms
[2021-08-26T20:34:01.003-0300][gc,start     ] GC(20) Pause Young (Normal) (G1 Evacuation Pause)
[2021-08-26T20:34:01.003-0300][gc,task      ] GC(20) Using 4 workers of 4 for evacuation
[2021-08-26T20:34:01.013-0300][gc,phases    ] GC(20)   Pre Evacuate Collection Set: 0.1ms
[2021-08-26T20:34:01.013-0300][gc,phases    ] GC(20)   Evacuate Collection Set: 8.8ms
[2021-08-26T20:34:01.014-0300][gc,phases    ] GC(20)   Post Evacuate Collection Set: 0.7ms
[2021-08-26T20:34:01.014-0300][gc,phases    ] GC(20)   Other: 0.5ms
[2021-08-26T20:34:01.014-0300][gc,heap      ] GC(20) Eden regions: 46->0(46)
[2021-08-26T20:34:01.014-0300][gc,heap      ] GC(20) Survivor regions: 5->5(7)
[2021-08-26T20:34:01.014-0300][gc,heap      ] GC(20) Old regions: 47->47
[2021-08-26T20:34:01.014-0300][gc,heap      ] GC(20) Archive regions: 2->2
[2021-08-26T20:34:01.014-0300][gc,heap      ] GC(20) Humongous regions: 133->133
[2021-08-26T20:34:01.014-0300][gc,metaspace ] GC(20) Metaspace: 64222K->64222K(1107968K)
[2021-08-26T20:34:01.014-0300][gc           ] GC(20) Pause Young (Normal) (G1 Evacuation Pause) 230M->185M(1024M) 10.394ms
[2021-08-26T20:34:01.014-0300][gc,cpu       ] GC(20) User=0.04s Sys=0.00s Real=0.01s
[2021-08-26T20:34:01.295-0300][gc,start     ] GC(21) Pause Young (Normal) (G1 Evacuation Pause)
[2021-08-26T20:34:01.295-0300][gc,task      ] GC(21) Using 4 workers of 4 for evacuation
[2021-08-26T20:34:01.304-0300][gc,phases    ] GC(21)   Pre Evacuate Collection Set: 0.1ms
[2021-08-26T20:34:01.304-0300][gc,phases    ] GC(21)   Evacuate Collection Set: 8.3ms
[2021-08-26T20:34:01.304-0300][gc,phases    ] GC(21)   Post Evacuate Collection Set: 0.5ms
[2021-08-26T20:34:01.304-0300][gc,phases    ] GC(21)   Other: 0.3ms
[2021-08-26T20:34:01.304-0300][gc,heap      ] GC(21) Eden regions: 46->0(54)
[2021-08-26T20:34:01.304-0300][gc,heap      ] GC(21) Survivor regions: 5->5(7)
[2021-08-26T20:34:01.304-0300][gc,heap      ] GC(21) Old regions: 47->49
[2021-08-26T20:34:01.304-0300][gc,heap      ] GC(21) Archive regions: 2->2
[2021-08-26T20:34:01.304-0300][gc,heap      ] GC(21) Humongous regions: 133->133
[2021-08-26T20:34:01.304-0300][gc,metaspace ] GC(21) Metaspace: 65448K->65448K(1107968K)
[2021-08-26T20:34:01.304-0300][gc           ] GC(21) Pause Young (Normal) (G1 Evacuation Pause) 231M->186M(1024M) 9.335ms
[2021-08-26T20:34:01.304-0300][gc,cpu       ] GC(21) User=0.04s Sys=0.01s Real=0.01s
[2021-08-26T20:34:01.776-0300][gc,start     ] GC(22) Pause Young (Normal) (G1 Evacuation Pause)
[2021-08-26T20:34:01.776-0300][gc,task      ] GC(22) Using 4 workers of 4 for evacuation
[2021-08-26T20:34:01.791-0300][gc,phases    ] GC(22)   Pre Evacuate Collection Set: 0.1ms
[2021-08-26T20:34:01.791-0300][gc,phases    ] GC(22)   Evacuate Collection Set: 13.6ms
[2021-08-26T20:34:01.791-0300][gc,phases    ] GC(22)   Post Evacuate Collection Set: 0.6ms
[2021-08-26T20:34:01.791-0300][gc,phases    ] GC(22)   Other: 0.3ms
[2021-08-26T20:34:01.791-0300][gc,heap      ] GC(22) Eden regions: 54->0(54)
[2021-08-26T20:34:01.791-0300][gc,heap      ] GC(22) Survivor regions: 5->4(8)
[2021-08-26T20:34:01.791-0300][gc,heap      ] GC(22) Old regions: 49->51
[2021-08-26T20:34:01.791-0300][gc,heap      ] GC(22) Archive regions: 2->2
[2021-08-26T20:34:01.791-0300][gc,heap      ] GC(22) Humongous regions: 133->133
[2021-08-26T20:34:01.791-0300][gc,metaspace ] GC(22) Metaspace: 67199K->67199K(1110016K)
[2021-08-26T20:34:01.791-0300][gc           ] GC(22) Pause Young (Normal) (G1 Evacuation Pause) 240M->187M(1024M) 14.788ms
[2021-08-26T20:34:01.791-0300][gc,cpu       ] GC(22) User=0.05s Sys=0.01s Real=0.02s
[2021-08-26T20:34:02.310-0300][gc,start     ] GC(23) Pause Young (Normal) (G1 Evacuation Pause)
[2021-08-26T20:34:02.310-0300][gc,task      ] GC(23) Using 4 workers of 4 for evacuation
[2021-08-26T20:34:02.321-0300][gc,phases    ] GC(23)   Pre Evacuate Collection Set: 0.0ms
[2021-08-26T20:34:02.321-0300][gc,phases    ] GC(23)   Evacuate Collection Set: 10.2ms
[2021-08-26T20:34:02.321-0300][gc,phases    ] GC(23)   Post Evacuate Collection Set: 0.6ms
[2021-08-26T20:34:02.322-0300][gc,phases    ] GC(23)   Other: 0.3ms
[2021-08-26T20:34:02.322-0300][gc,heap      ] GC(23) Eden regions: 54->0(56)
[2021-08-26T20:34:02.322-0300][gc,heap      ] GC(23) Survivor regions: 4->7(8)
[2021-08-26T20:34:02.322-0300][gc,heap      ] GC(23) Old regions: 51->51
[2021-08-26T20:34:02.322-0300][gc,heap      ] GC(23) Archive regions: 2->2
[2021-08-26T20:34:02.322-0300][gc,heap      ] GC(23) Humongous regions: 133->133
[2021-08-26T20:34:02.322-0300][gc,metaspace ] GC(23) Metaspace: 68329K->68329K(1110016K)
[2021-08-26T20:34:02.322-0300][gc           ] GC(23) Pause Young (Normal) (G1 Evacuation Pause) 241M->190M(1024M) 11.635ms
[2021-08-26T20:34:02.322-0300][gc,cpu       ] GC(23) User=0.04s Sys=0.01s Real=0.01s
[2021-08-26T20:34:58.151-0300][gc,start     ] GC(24) Pause Young (Normal) (G1 Evacuation Pause)
[2021-08-26T20:34:58.152-0300][gc,task      ] GC(24) Using 4 workers of 4 for evacuation
[2021-08-26T20:34:58.215-0300][gc,mmu       ] GC(24) MMU target violated: 21.0ms (20.0ms/21.0ms)
[2021-08-26T20:34:58.215-0300][gc,phases    ] GC(24)   Pre Evacuate Collection Set: 0.1ms
[2021-08-26T20:34:58.215-0300][gc,phases    ] GC(24)   Evacuate Collection Set: 57.9ms
[2021-08-26T20:34:58.215-0300][gc,phases    ] GC(24)   Post Evacuate Collection Set: 3.3ms
[2021-08-26T20:34:58.215-0300][gc,phases    ] GC(24)   Other: 2.4ms
[2021-08-26T20:34:58.215-0300][gc,heap      ] GC(24) Eden regions: 56->0(45)
[2021-08-26T20:34:58.215-0300][gc,heap      ] GC(24) Survivor regions: 7->6(8)
[2021-08-26T20:34:58.215-0300][gc,heap      ] GC(24) Old regions: 51->54
[2021-08-26T20:34:58.215-0300][gc,heap      ] GC(24) Archive regions: 2->2
[2021-08-26T20:34:58.215-0300][gc,heap      ] GC(24) Humongous regions: 133->133
[2021-08-26T20:34:58.215-0300][gc,metaspace ] GC(24) Metaspace: 73897K->73897K(1116160K)
[2021-08-26T20:34:58.215-0300][gc           ] GC(24) Pause Young (Normal) (G1 Evacuation Pause) 246M->193M(1024M) 64.139ms
[2021-08-26T20:34:58.215-0300][gc,cpu       ] GC(24) User=0.06s Sys=0.06s Real=0.06s
[2021-08-26T20:34:59.618-0300][gc,start     ] GC(25) Pause Young (Normal) (G1 Evacuation Pause)
[2021-08-26T20:34:59.618-0300][gc,task      ] GC(25) Using 4 workers of 4 for evacuation
[2021-08-26T20:34:59.632-0300][gc,phases    ] GC(25)   Pre Evacuate Collection Set: 0.1ms
[2021-08-26T20:34:59.632-0300][gc,phases    ] GC(25)   Evacuate Collection Set: 13.5ms
[2021-08-26T20:34:59.632-0300][gc,phases    ] GC(25)   Post Evacuate Collection Set: 0.7ms
[2021-08-26T20:34:59.632-0300][gc,phases    ] GC(25)   Other: 0.3ms
[2021-08-26T20:34:59.632-0300][gc,heap      ] GC(25) Eden regions: 45->0(46)
[2021-08-26T20:34:59.632-0300][gc,heap      ] GC(25) Survivor regions: 6->5(7)
[2021-08-26T20:34:59.632-0300][gc,heap      ] GC(25) Old regions: 54->57
[2021-08-26T20:34:59.632-0300][gc,heap      ] GC(25) Archive regions: 2->2
[2021-08-26T20:34:59.632-0300][gc,heap      ] GC(25) Humongous regions: 133->133
[2021-08-26T20:34:59.632-0300][gc,metaspace ] GC(25) Metaspace: 75384K->75384K(1118208K)
[2021-08-26T20:34:59.632-0300][gc           ] GC(25) Pause Young (Normal) (G1 Evacuation Pause) 238M->195M(1024M) 14.710ms
[2021-08-26T20:34:59.633-0300][gc,cpu       ] GC(25) User=0.04s Sys=0.00s Real=0.02s
[2021-08-26T20:35:58.074-0300][gc,start     ] GC(26) Pause Young (Normal) (G1 Evacuation Pause)
[2021-08-26T20:35:58.074-0300][gc,task      ] GC(26) Using 4 workers of 4 for evacuation
[2021-08-26T20:35:58.128-0300][gc,mmu       ] GC(26) MMU target violated: 21.0ms (20.0ms/21.0ms)
[2021-08-26T20:35:58.128-0300][gc,phases    ] GC(26)   Pre Evacuate Collection Set: 0.1ms
[2021-08-26T20:35:58.128-0300][gc,phases    ] GC(26)   Evacuate Collection Set: 50.1ms
[2021-08-26T20:35:58.128-0300][gc,phases    ] GC(26)   Post Evacuate Collection Set: 2.2ms
[2021-08-26T20:35:58.128-0300][gc,phases    ] GC(26)   Other: 2.3ms
[2021-08-26T20:35:58.128-0300][gc,heap      ] GC(26) Eden regions: 46->0(48)
[2021-08-26T20:35:58.128-0300][gc,heap      ] GC(26) Survivor regions: 5->3(7)
[2021-08-26T20:35:58.128-0300][gc,heap      ] GC(26) Old regions: 57->60
[2021-08-26T20:35:58.128-0300][gc,heap      ] GC(26) Archive regions: 2->2
[2021-08-26T20:35:58.128-0300][gc,heap      ] GC(26) Humongous regions: 133->133
[2021-08-26T20:35:58.128-0300][gc,metaspace ] GC(26) Metaspace: 75965K->75965K(1118208K)
[2021-08-26T20:35:58.128-0300][gc           ] GC(26) Pause Young (Normal) (G1 Evacuation Pause) 241M->196M(1024M) 54.749ms
[2021-08-26T20:35:58.128-0300][gc,cpu       ] GC(26) User=0.05s Sys=0.06s Real=0.05s
[2021-08-26T20:36:44.195-0300][gc,start     ] GC(27) Pause Young (Normal) (G1 Evacuation Pause)
[2021-08-26T20:36:44.195-0300][gc,task      ] GC(27) Using 4 workers of 4 for evacuation
[2021-08-26T20:36:44.209-0300][gc,phases    ] GC(27)   Pre Evacuate Collection Set: 0.0ms
[2021-08-26T20:36:44.209-0300][gc,phases    ] GC(27)   Evacuate Collection Set: 9.7ms
[2021-08-26T20:36:44.209-0300][gc,phases    ] GC(27)   Post Evacuate Collection Set: 3.6ms
[2021-08-26T20:36:44.209-0300][gc,phases    ] GC(27)   Other: 0.7ms
[2021-08-26T20:36:44.209-0300][gc,heap      ] GC(27) Eden regions: 48->0(48)
[2021-08-26T20:36:44.209-0300][gc,heap      ] GC(27) Survivor regions: 3->3(7)
[2021-08-26T20:36:44.209-0300][gc,heap      ] GC(27) Old regions: 60->60
[2021-08-26T20:36:44.209-0300][gc,heap      ] GC(27) Archive regions: 2->2
[2021-08-26T20:36:44.209-0300][gc,heap      ] GC(27) Humongous regions: 133->133
[2021-08-26T20:36:44.209-0300][gc,metaspace ] GC(27) Metaspace: 76108K->76108K(1118208K)
[2021-08-26T20:36:44.209-0300][gc           ] GC(27) Pause Young (Normal) (G1 Evacuation Pause) 244M->196M(1024M) 14.278ms
[2021-08-26T20:36:44.209-0300][gc,cpu       ] GC(27) User=0.02s Sys=0.00s Real=0.01s
[2021-08-26T20:37:00.803-0300][gc,start     ] GC(28) Pause Young (Normal) (G1 Evacuation Pause)
[2021-08-26T20:37:00.804-0300][gc,task      ] GC(28) Using 4 workers of 4 for evacuation
[2021-08-26T20:37:00.816-0300][gc,phases    ] GC(28)   Pre Evacuate Collection Set: 0.1ms
[2021-08-26T20:37:00.817-0300][gc,phases    ] GC(28)   Evacuate Collection Set: 9.9ms
[2021-08-26T20:37:00.817-0300][gc,phases    ] GC(28)   Post Evacuate Collection Set: 1.9ms
[2021-08-26T20:37:00.817-0300][gc,phases    ] GC(28)   Other: 1.3ms
[2021-08-26T20:37:00.817-0300][gc,heap      ] GC(28) Eden regions: 48->0(47)
[2021-08-26T20:37:00.817-0300][gc,heap      ] GC(28) Survivor regions: 3->4(7)
[2021-08-26T20:37:00.817-0300][gc,heap      ] GC(28) Old regions: 60->60
[2021-08-26T20:37:00.817-0300][gc,heap      ] GC(28) Archive regions: 2->2
[2021-08-26T20:37:00.817-0300][gc,heap      ] GC(28) Humongous regions: 133->133
[2021-08-26T20:37:00.817-0300][gc,metaspace ] GC(28) Metaspace: 76223K->76223K(1118208K)
[2021-08-26T20:37:00.817-0300][gc           ] GC(28) Pause Young (Normal) (G1 Evacuation Pause) 244M->196M(1024M) 13.359ms
[2021-08-26T20:37:00.817-0300][gc,cpu       ] GC(28) User=0.03s Sys=0.00s Real=0.01s
[2021-08-26T20:37:45.690-0300][gc,start     ] GC(29) Pause Young (Normal) (G1 Evacuation Pause)
[2021-08-26T20:37:45.690-0300][gc,task      ] GC(29) Using 4 workers of 4 for evacuation
[2021-08-26T20:37:45.719-0300][gc,mmu       ] GC(29) MMU target violated: 21.0ms (20.0ms/21.0ms)
[2021-08-26T20:37:45.720-0300][gc,phases    ] GC(29)   Pre Evacuate Collection Set: 0.1ms
[2021-08-26T20:37:45.720-0300][gc,phases    ] GC(29)   Evacuate Collection Set: 27.8ms
[2021-08-26T20:37:45.720-0300][gc,phases    ] GC(29)   Post Evacuate Collection Set: 0.9ms
[2021-08-26T20:37:45.720-0300][gc,phases    ] GC(29)   Other: 0.7ms
[2021-08-26T20:37:45.720-0300][gc,heap      ] GC(29) Eden regions: 47->0(44)
[2021-08-26T20:37:45.720-0300][gc,heap      ] GC(29) Survivor regions: 4->7(7)
[2021-08-26T20:37:45.720-0300][gc,heap      ] GC(29) Old regions: 60->60
[2021-08-26T20:37:45.720-0300][gc,heap      ] GC(29) Archive regions: 2->2
[2021-08-26T20:37:45.720-0300][gc,heap      ] GC(29) Humongous regions: 133->133
[2021-08-26T20:37:45.720-0300][gc,metaspace ] GC(29) Metaspace: 77904K->77904K(1120256K)
[2021-08-26T20:37:45.720-0300][gc           ] GC(29) Pause Young (Normal) (G1 Evacuation Pause) 243M->199M(1024M) 29.717ms
[2021-08-26T20:37:45.720-0300][gc,cpu       ] GC(29) User=0.03s Sys=0.02s Real=0.03s
[2021-08-26T20:37:58.075-0300][gc,start     ] GC(30) Pause Young (Normal) (G1 Evacuation Pause)
[2021-08-26T20:37:58.075-0300][gc,task      ] GC(30) Using 4 workers of 4 for evacuation
[2021-08-26T20:37:58.088-0300][gc,phases    ] GC(30)   Pre Evacuate Collection Set: 0.0ms
[2021-08-26T20:37:58.088-0300][gc,phases    ] GC(30)   Evacuate Collection Set: 11.8ms
[2021-08-26T20:37:58.088-0300][gc,phases    ] GC(30)   Post Evacuate Collection Set: 0.6ms
[2021-08-26T20:37:58.088-0300][gc,phases    ] GC(30)   Other: 0.3ms
[2021-08-26T20:37:58.088-0300][gc,heap      ] GC(30) Eden regions: 44->0(46)
[2021-08-26T20:37:58.088-0300][gc,heap      ] GC(30) Survivor regions: 7->5(7)
[2021-08-26T20:37:58.088-0300][gc,heap      ] GC(30) Old regions: 60->63
[2021-08-26T20:37:58.088-0300][gc,heap      ] GC(30) Archive regions: 2->2
[2021-08-26T20:37:58.088-0300][gc,heap      ] GC(30) Humongous regions: 133->133
[2021-08-26T20:37:58.088-0300][gc,metaspace ] GC(30) Metaspace: 78232K->78232K(1120256K)
[2021-08-26T20:37:58.088-0300][gc           ] GC(30) Pause Young (Normal) (G1 Evacuation Pause) 243M->200M(1024M) 12.837ms
[2021-08-26T20:37:58.088-0300][gc,cpu       ] GC(30) User=0.04s Sys=0.00s Real=0.01s
[2021-08-26T20:38:58.008-0300][gc,start     ] GC(31) Pause Young (Normal) (G1 Evacuation Pause)
[2021-08-26T20:38:58.013-0300][gc,task      ] GC(31) Using 4 workers of 4 for evacuation
[2021-08-26T20:38:58.050-0300][gc,mmu       ] GC(31) MMU target violated: 21.0ms (20.0ms/21.0ms)
[2021-08-26T20:38:58.050-0300][gc,phases    ] GC(31)   Pre Evacuate Collection Set: 0.1ms
[2021-08-26T20:38:58.050-0300][gc,phases    ] GC(31)   Evacuate Collection Set: 35.1ms
[2021-08-26T20:38:58.050-0300][gc,phases    ] GC(31)   Post Evacuate Collection Set: 1.0ms
[2021-08-26T20:38:58.050-0300][gc,phases    ] GC(31)   Other: 5.9ms
[2021-08-26T20:38:58.050-0300][gc,heap      ] GC(31) Eden regions: 46->0(47)
[2021-08-26T20:38:58.051-0300][gc,heap      ] GC(31) Survivor regions: 5->4(7)
[2021-08-26T20:38:58.051-0300][gc,heap      ] GC(31) Old regions: 63->66
[2021-08-26T20:38:58.051-0300][gc,heap      ] GC(31) Archive regions: 2->2
[2021-08-26T20:38:58.051-0300][gc,heap      ] GC(31) Humongous regions: 133->133
[2021-08-26T20:38:58.051-0300][gc,metaspace ] GC(31) Metaspace: 78354K->78354K(1120256K)
[2021-08-26T20:38:58.051-0300][gc           ] GC(31) Pause Young (Normal) (G1 Evacuation Pause) 246M->203M(1024M) 42.399ms
[2021-08-26T20:38:58.051-0300][gc,cpu       ] GC(31) User=0.04s Sys=0.02s Real=0.05s
[2021-08-26T20:39:11.382-0300][gc,start     ] GC(32) Pause Young (Normal) (G1 Evacuation Pause)
[2021-08-26T20:39:11.383-0300][gc,task      ] GC(32) Using 4 workers of 4 for evacuation
[2021-08-26T20:39:11.394-0300][gc,phases    ] GC(32)   Pre Evacuate Collection Set: 0.1ms
[2021-08-26T20:39:11.394-0300][gc,phases    ] GC(32)   Evacuate Collection Set: 9.5ms
[2021-08-26T20:39:11.394-0300][gc,phases    ] GC(32)   Post Evacuate Collection Set: 0.8ms
[2021-08-26T20:39:11.394-0300][gc,phases    ] GC(32)   Other: 2.1ms
[2021-08-26T20:39:11.394-0300][gc,heap      ] GC(32) Eden regions: 47->0(47)
[2021-08-26T20:39:11.394-0300][gc,heap      ] GC(32) Survivor regions: 4->4(7)
[2021-08-26T20:39:11.394-0300][gc,heap      ] GC(32) Old regions: 66->67
[2021-08-26T20:39:11.394-0300][gc,heap      ] GC(32) Archive regions: 2->2
[2021-08-26T20:39:11.394-0300][gc,heap      ] GC(32) Humongous regions: 133->133
[2021-08-26T20:39:11.394-0300][gc,metaspace ] GC(32) Metaspace: 78447K->78447K(1120256K)
[2021-08-26T20:39:11.394-0300][gc           ] GC(32) Pause Young (Normal) (G1 Evacuation Pause) 250M->204M(1024M) 12.604ms
[2021-08-26T20:39:11.394-0300][gc,cpu       ] GC(32) User=0.04s Sys=0.00s Real=0.01s
[2021-08-26T20:39:58.078-0300][gc,start     ] GC(33) Pause Young (Normal) (G1 Evacuation Pause)
[2021-08-26T20:39:58.078-0300][gc,task      ] GC(33) Using 4 workers of 4 for evacuation
[2021-08-26T20:39:58.093-0300][gc,phases    ] GC(33)   Pre Evacuate Collection Set: 0.0ms
[2021-08-26T20:39:58.094-0300][gc,phases    ] GC(33)   Evacuate Collection Set: 14.4ms
[2021-08-26T20:39:58.094-0300][gc,phases    ] GC(33)   Post Evacuate Collection Set: 0.7ms
[2021-08-26T20:39:58.094-0300][gc,phases    ] GC(33)   Other: 0.7ms
[2021-08-26T20:39:58.094-0300][gc,heap      ] GC(33) Eden regions: 47->0(47)
[2021-08-26T20:39:58.094-0300][gc,heap      ] GC(33) Survivor regions: 4->4(7)
[2021-08-26T20:39:58.094-0300][gc,heap      ] GC(33) Old regions: 67->69
[2021-08-26T20:39:58.094-0300][gc,heap      ] GC(33) Archive regions: 2->2
[2021-08-26T20:39:58.094-0300][gc,heap      ] GC(33) Humongous regions: 133->133
[2021-08-26T20:39:58.094-0300][gc,metaspace ] GC(33) Metaspace: 78496K->78496K(1120256K)
[2021-08-26T20:39:58.094-0300][gc           ] GC(33) Pause Young (Normal) (G1 Evacuation Pause) 251M->205M(1024M) 15.966ms
[2021-08-26T20:39:58.094-0300][gc,cpu       ] GC(33) User=0.05s Sys=0.00s Real=0.02s
[2021-08-26T20:40:12.697-0300][gc,start     ] GC(34) Pause Young (Normal) (G1 Evacuation Pause)
[2021-08-26T20:40:12.699-0300][gc,task      ] GC(34) Using 4 workers of 4 for evacuation
[2021-08-26T20:40:12.711-0300][gc,phases    ] GC(34)   Pre Evacuate Collection Set: 0.0ms
[2021-08-26T20:40:12.711-0300][gc,phases    ] GC(34)   Evacuate Collection Set: 11.3ms
[2021-08-26T20:40:12.711-0300][gc,phases    ] GC(34)   Post Evacuate Collection Set: 0.5ms
[2021-08-26T20:40:12.711-0300][gc,phases    ] GC(34)   Other: 2.0ms
[2021-08-26T20:40:12.711-0300][gc,heap      ] GC(34) Eden regions: 47->0(47)
[2021-08-26T20:40:12.711-0300][gc,heap      ] GC(34) Survivor regions: 4->5(7)
[2021-08-26T20:40:12.711-0300][gc,heap      ] GC(34) Old regions: 69->69
[2021-08-26T20:40:12.711-0300][gc,heap      ] GC(34) Archive regions: 2->2
[2021-08-26T20:40:12.711-0300][gc,heap      ] GC(34) Humongous regions: 133->133
[2021-08-26T20:40:12.711-0300][gc,metaspace ] GC(34) Metaspace: 78563K->78563K(1120256K)
[2021-08-26T20:40:12.711-0300][gc           ] GC(34) Pause Young (Normal) (G1 Evacuation Pause) 252M->206M(1024M) 13.927ms
[2021-08-26T20:40:12.711-0300][gc,cpu       ] GC(34) User=0.04s Sys=0.01s Real=0.02s
[2021-08-26T20:40:58.035-0300][gc,start     ] GC(35) Pause Young (Normal) (G1 Evacuation Pause)
[2021-08-26T20:40:58.035-0300][gc,task      ] GC(35) Using 4 workers of 4 for evacuation
[2021-08-26T20:40:58.046-0300][gc,phases    ] GC(35)   Pre Evacuate Collection Set: 0.0ms
[2021-08-26T20:40:58.046-0300][gc,phases    ] GC(35)   Evacuate Collection Set: 10.1ms
[2021-08-26T20:40:58.046-0300][gc,phases    ] GC(35)   Post Evacuate Collection Set: 0.5ms
[2021-08-26T20:40:58.046-0300][gc,phases    ] GC(35)   Other: 0.7ms
[2021-08-26T20:40:58.046-0300][gc,heap      ] GC(35) Eden regions: 46->0(49)
[2021-08-26T20:40:58.046-0300][gc,heap      ] GC(35) Survivor regions: 5->5(7)
[2021-08-26T20:40:58.046-0300][gc,heap      ] GC(35) Old regions: 69->69
[2021-08-26T20:40:58.046-0300][gc,heap      ] GC(35) Archive regions: 2->2
[2021-08-26T20:40:58.046-0300][gc,heap      ] GC(35) Humongous regions: 133->133
[2021-08-26T20:40:58.046-0300][gc,metaspace ] GC(35) Metaspace: 78588K->78588K(1120256K)
[2021-08-26T20:40:58.046-0300][gc           ] GC(35) Pause Young (Normal) (G1 Evacuation Pause) 252M->207M(1024M) 11.431ms
[2021-08-26T20:40:58.046-0300][gc,cpu       ] GC(35) User=0.04s Sys=0.00s Real=0.01s
[2021-08-26T20:41:45.945-0300][gc,start     ] GC(36) Pause Young (Normal) (G1 Evacuation Pause)
[2021-08-26T20:41:45.946-0300][gc,task      ] GC(36) Using 4 workers of 4 for evacuation
[2021-08-26T20:41:45.963-0300][gc,phases    ] GC(36)   Pre Evacuate Collection Set: 0.1ms
[2021-08-26T20:41:45.963-0300][gc,phases    ] GC(36)   Evacuate Collection Set: 15.3ms
[2021-08-26T20:41:45.963-0300][gc,phases    ] GC(36)   Post Evacuate Collection Set: 0.5ms
[2021-08-26T20:41:45.963-0300][gc,phases    ] GC(36)   Other: 2.4ms
[2021-08-26T20:41:45.963-0300][gc,heap      ] GC(36) Eden regions: 46->0(48)
[2021-08-26T20:41:45.963-0300][gc,heap      ] GC(36) Survivor regions: 5->5(7)
[2021-08-26T20:41:45.963-0300][gc,heap      ] GC(36) Old regions: 69->71
[2021-08-26T20:41:45.963-0300][gc,heap      ] GC(36) Archive regions: 2->2
[2021-08-26T20:41:45.963-0300][gc,heap      ] GC(36) Humongous regions: 133->133
[2021-08-26T20:41:45.963-0300][gc,metaspace ] GC(36) Metaspace: 79253K->79253K(1120256K)
[2021-08-26T20:41:45.963-0300][gc           ] GC(36) Pause Young (Normal) (G1 Evacuation Pause) 253M->208M(1024M) 18.416ms
[2021-08-26T20:41:45.963-0300][gc,cpu       ] GC(36) User=0.05s Sys=0.01s Real=0.02s
[2021-08-26T20:41:58.314-0300][gc,start     ] GC(37) Pause Young (Normal) (G1 Evacuation Pause)
[2021-08-26T20:41:58.316-0300][gc,task      ] GC(37) Using 4 workers of 4 for evacuation
[2021-08-26T20:41:58.330-0300][gc,phases    ] GC(37)   Pre Evacuate Collection Set: 0.0ms
[2021-08-26T20:41:58.330-0300][gc,phases    ] GC(37)   Evacuate Collection Set: 13.7ms
[2021-08-26T20:41:58.330-0300][gc,phases    ] GC(37)   Post Evacuate Collection Set: 0.6ms
[2021-08-26T20:41:58.330-0300][gc,phases    ] GC(37)   Other: 1.9ms
[2021-08-26T20:41:58.330-0300][gc,heap      ] GC(37) Eden regions: 46->0(49)
[2021-08-26T20:41:58.330-0300][gc,heap      ] GC(37) Survivor regions: 5->4(7)
[2021-08-26T20:41:58.330-0300][gc,heap      ] GC(37) Old regions: 71->73
[2021-08-26T20:41:58.330-0300][gc,heap      ] GC(37) Archive regions: 2->2
[2021-08-26T20:41:58.330-0300][gc,heap      ] GC(37) Humongous regions: 133->133
[2021-08-26T20:41:58.330-0300][gc,metaspace ] GC(37) Metaspace: 79261K->79261K(1120256K)
[2021-08-26T20:41:58.330-0300][gc           ] GC(37) Pause Young (Normal) (G1 Evacuation Pause) 254M->209M(1024M) 16.410ms
[2021-08-26T20:41:58.330-0300][gc,cpu       ] GC(37) User=0.04s Sys=0.00s Real=0.02s
[2021-08-26T20:42:57.999-0300][gc,start     ] GC(38) Pause Young (Normal) (G1 Evacuation Pause)
[2021-08-26T20:42:57.999-0300][gc,task      ] GC(38) Using 4 workers of 4 for evacuation
[2021-08-26T20:42:58.014-0300][gc,phases    ] GC(38)   Pre Evacuate Collection Set: 0.0ms
[2021-08-26T20:42:58.014-0300][gc,phases    ] GC(38)   Evacuate Collection Set: 13.8ms
[2021-08-26T20:42:58.014-0300][gc,phases    ] GC(38)   Post Evacuate Collection Set: 0.5ms
[2021-08-26T20:42:58.014-0300][gc,phases    ] GC(38)   Other: 0.8ms
[2021-08-26T20:42:58.014-0300][gc,heap      ] GC(38) Eden regions: 47->0(50)
[2021-08-26T20:42:58.014-0300][gc,heap      ] GC(38) Survivor regions: 4->6(7)
[2021-08-26T20:42:58.014-0300][gc,heap      ] GC(38) Old regions: 73->73
[2021-08-26T20:42:58.014-0300][gc,heap      ] GC(38) Archive regions: 2->2
[2021-08-26T20:42:58.014-0300][gc,heap      ] GC(38) Humongous regions: 133->133
[2021-08-26T20:42:58.014-0300][gc,metaspace ] GC(38) Metaspace: 79525K->79525K(1120256K)
[2021-08-26T20:42:58.014-0300][gc           ] GC(38) Pause Young (Normal) (G1 Evacuation Pause) 256M->211M(1024M) 15.352ms
[2021-08-26T20:42:58.014-0300][gc,cpu       ] GC(38) User=0.04s Sys=0.00s Real=0.02s
[2021-08-26T20:43:01.291-0300][gc,start     ] GC(39) Pause Young (Normal) (G1 Evacuation Pause)
[2021-08-26T20:43:01.291-0300][gc,task      ] GC(39) Using 4 workers of 4 for evacuation
[2021-08-26T20:43:01.307-0300][gc,phases    ] GC(39)   Pre Evacuate Collection Set: 0.1ms
[2021-08-26T20:43:01.307-0300][gc,phases    ] GC(39)   Evacuate Collection Set: 15.9ms
[2021-08-26T20:43:01.307-0300][gc,phases    ] GC(39)   Post Evacuate Collection Set: 0.5ms
[2021-08-26T20:43:01.307-0300][gc,phases    ] GC(39)   Other: 0.3ms
[2021-08-26T20:43:01.307-0300][gc,heap      ] GC(39) Eden regions: 45->0(47)
[2021-08-26T20:43:01.307-0300][gc,heap      ] GC(39) Survivor regions: 6->7(7)
[2021-08-26T20:43:01.307-0300][gc,heap      ] GC(39) Old regions: 73->75
[2021-08-26T20:43:01.307-0300][gc,heap      ] GC(39) Archive regions: 2->2
[2021-08-26T20:43:01.308-0300][gc,heap      ] GC(39) Humongous regions: 133->133
[2021-08-26T20:43:01.308-0300][gc,metaspace ] GC(39) Metaspace: 79593K->79593K(1120256K)
[2021-08-26T20:43:01.308-0300][gc           ] GC(39) Pause Young (Normal) (G1 Evacuation Pause) 256M->215M(1024M) 17.040ms
[2021-08-26T20:43:01.308-0300][gc,cpu       ] GC(39) User=0.05s Sys=0.01s Real=0.01s
[2021-08-26T20:43:57.975-0300][gc,start     ] GC(40) Pause Young (Normal) (G1 Evacuation Pause)
[2021-08-26T20:43:57.975-0300][gc,task      ] GC(40) Using 4 workers of 4 for evacuation
[2021-08-26T20:43:57.991-0300][gc,phases    ] GC(40)   Pre Evacuate Collection Set: 0.0ms
[2021-08-26T20:43:57.991-0300][gc,phases    ] GC(40)   Evacuate Collection Set: 15.2ms
[2021-08-26T20:43:57.991-0300][gc,phases    ] GC(40)   Post Evacuate Collection Set: 0.6ms
[2021-08-26T20:43:57.991-0300][gc,phases    ] GC(40)   Other: 0.3ms
[2021-08-26T20:43:57.991-0300][gc,heap      ] GC(40) Eden regions: 44->0(53)
[2021-08-26T20:43:57.991-0300][gc,heap      ] GC(40) Survivor regions: 7->4(7)
[2021-08-26T20:43:57.991-0300][gc,heap      ] GC(40) Old regions: 75->78
[2021-08-26T20:43:57.991-0300][gc,heap      ] GC(40) Archive regions: 2->2
[2021-08-26T20:43:57.991-0300][gc,heap      ] GC(40) Humongous regions: 133->133
[2021-08-26T20:43:57.991-0300][gc,metaspace ] GC(40) Metaspace: 79744K->79744K(1122304K)
[2021-08-26T20:43:57.991-0300][gc           ] GC(40) Pause Young (Normal) (G1 Evacuation Pause) 259M->214M(1024M) 16.392ms
[2021-08-26T20:43:57.991-0300][gc,cpu       ] GC(40) User=0.05s Sys=0.00s Real=0.02s
[2021-08-26T20:44:29.389-0300][gc,start     ] GC(41) Pause Young (Normal) (G1 Evacuation Pause)
[2021-08-26T20:44:29.389-0300][gc,task      ] GC(41) Using 4 workers of 4 for evacuation
[2021-08-26T20:44:29.403-0300][gc,phases    ] GC(41)   Pre Evacuate Collection Set: 0.0ms
[2021-08-26T20:44:29.403-0300][gc,phases    ] GC(41)   Evacuate Collection Set: 12.9ms
[2021-08-26T20:44:29.403-0300][gc,phases    ] GC(41)   Post Evacuate Collection Set: 0.7ms
[2021-08-26T20:44:29.403-0300][gc,phases    ] GC(41)   Other: 0.3ms
[2021-08-26T20:44:29.403-0300][gc,heap      ] GC(41) Eden regions: 53->0(52)
[2021-08-26T20:44:29.403-0300][gc,heap      ] GC(41) Survivor regions: 4->5(8)
[2021-08-26T20:44:29.403-0300][gc,heap      ] GC(41) Old regions: 78->78
[2021-08-26T20:44:29.403-0300][gc,heap      ] GC(41) Archive regions: 2->2
[2021-08-26T20:44:29.403-0300][gc,heap      ] GC(41) Humongous regions: 133->133
[2021-08-26T20:44:29.403-0300][gc,metaspace ] GC(41) Metaspace: 79761K->79761K(1122304K)
[2021-08-26T20:44:29.403-0300][gc           ] GC(41) Pause Young (Normal) (G1 Evacuation Pause) 267M->215M(1024M) 14.159ms
[2021-08-26T20:44:29.403-0300][gc,cpu       ] GC(41) User=0.04s Sys=0.01s Real=0.02s
[2021-08-26T20:44:58.048-0300][gc,start     ] GC(42) Pause Young (Normal) (G1 Evacuation Pause)
[2021-08-26T20:44:58.048-0300][gc,task      ] GC(42) Using 4 workers of 4 for evacuation
[2021-08-26T20:44:58.064-0300][gc,phases    ] GC(42)   Pre Evacuate Collection Set: 0.0ms
[2021-08-26T20:44:58.064-0300][gc,phases    ] GC(42)   Evacuate Collection Set: 14.4ms
[2021-08-26T20:44:58.064-0300][gc,phases    ] GC(42)   Post Evacuate Collection Set: 0.6ms
[2021-08-26T20:44:58.064-0300][gc,phases    ] GC(42)   Other: 0.6ms
[2021-08-26T20:44:58.064-0300][gc,heap      ] GC(42) Eden regions: 52->0(55)
[2021-08-26T20:44:58.064-0300][gc,heap      ] GC(42) Survivor regions: 5->4(8)
[2021-08-26T20:44:58.064-0300][gc,heap      ] GC(42) Old regions: 78->80
[2021-08-26T20:44:58.064-0300][gc,heap      ] GC(42) Archive regions: 2->2
[2021-08-26T20:44:58.064-0300][gc,heap      ] GC(42) Humongous regions: 133->133
[2021-08-26T20:44:58.064-0300][gc,metaspace ] GC(42) Metaspace: 80254K->80254K(1122304K)
[2021-08-26T20:44:58.064-0300][gc           ] GC(42) Pause Young (Normal) (G1 Evacuation Pause) 267M->216M(1024M) 15.909ms
[2021-08-26T20:44:58.064-0300][gc,cpu       ] GC(42) User=0.06s Sys=0.00s Real=0.02s
[2021-08-26T20:45:58.049-0300][gc,start     ] GC(43) Pause Young (Normal) (G1 Evacuation Pause)
[2021-08-26T20:45:58.051-0300][gc,task      ] GC(43) Using 4 workers of 4 for evacuation
[2021-08-26T20:45:58.091-0300][gc,mmu       ] GC(43) MMU target violated: 21.0ms (20.0ms/21.0ms)
[2021-08-26T20:45:58.091-0300][gc,phases    ] GC(43)   Pre Evacuate Collection Set: 0.1ms
[2021-08-26T20:45:58.091-0300][gc,phases    ] GC(43)   Evacuate Collection Set: 35.3ms
[2021-08-26T20:45:58.091-0300][gc,phases    ] GC(43)   Post Evacuate Collection Set: 1.5ms
[2021-08-26T20:45:58.091-0300][gc,phases    ] GC(43)   Other: 5.2ms
[2021-08-26T20:45:58.091-0300][gc,heap      ] GC(43) Eden regions: 47->0(45)
[2021-08-26T20:45:58.091-0300][gc,heap      ] GC(43) Survivor regions: 4->6(7)
[2021-08-26T20:45:58.091-0300][gc,heap      ] GC(43) Old regions: 80->80
[2021-08-26T20:45:58.091-0300][gc,heap      ] GC(43) Archive regions: 2->2
[2021-08-26T20:45:58.091-0300][gc,heap      ] GC(43) Humongous regions: 133->133
[2021-08-26T20:45:58.091-0300][gc,metaspace ] GC(43) Metaspace: 80306K->80306K(1122304K)
[2021-08-26T20:45:58.091-0300][gc           ] GC(43) Pause Young (Normal) (G1 Evacuation Pause) 263M->218M(1024M) 42.215ms
[2021-08-26T20:45:58.091-0300][gc,cpu       ] GC(43) User=0.06s Sys=0.05s Real=0.05s
[2021-08-26T20:46:01.380-0300][gc,start     ] GC(44) Pause Young (Normal) (G1 Evacuation Pause)
[2021-08-26T20:46:01.380-0300][gc,task      ] GC(44) Using 4 workers of 4 for evacuation
[2021-08-26T20:46:01.413-0300][gc,mmu       ] GC(44) MMU target violated: 21.0ms (20.0ms/21.0ms)
[2021-08-26T20:46:01.413-0300][gc,phases    ] GC(44)   Pre Evacuate Collection Set: 0.1ms
[2021-08-26T20:46:01.413-0300][gc,phases    ] GC(44)   Evacuate Collection Set: 32.0ms
[2021-08-26T20:46:01.413-0300][gc,phases    ] GC(44)   Post Evacuate Collection Set: 0.6ms
[2021-08-26T20:46:01.413-0300][gc,phases    ] GC(44)   Other: 0.5ms
[2021-08-26T20:46:01.413-0300][gc,heap      ] GC(44) Eden regions: 45->0(45)
[2021-08-26T20:46:01.413-0300][gc,heap      ] GC(44) Survivor regions: 6->6(7)
[2021-08-26T20:46:01.413-0300][gc,heap      ] GC(44) Old regions: 80->82
[2021-08-26T20:46:01.413-0300][gc,heap      ] GC(44) Archive regions: 2->2
[2021-08-26T20:46:01.413-0300][gc,heap      ] GC(44) Humongous regions: 133->133
[2021-08-26T20:46:01.413-0300][gc,metaspace ] GC(44) Metaspace: 80373K->80373K(1122304K)
[2021-08-26T20:46:01.413-0300][gc           ] GC(44) Pause Young (Normal) (G1 Evacuation Pause) 263M->221M(1024M) 33.278ms
[2021-08-26T20:46:01.414-0300][gc,cpu       ] GC(44) User=0.04s Sys=0.01s Real=0.03s
[2021-08-26T20:46:49.051-0300][gc,start     ] GC(45) Pause Young (Normal) (G1 Evacuation Pause)
[2021-08-26T20:46:49.053-0300][gc,task      ] GC(45) Using 4 workers of 4 for evacuation
[2021-08-26T20:46:49.071-0300][gc,phases    ] GC(45)   Pre Evacuate Collection Set: 0.1ms
[2021-08-26T20:46:49.071-0300][gc,phases    ] GC(45)   Evacuate Collection Set: 17.6ms
[2021-08-26T20:46:49.071-0300][gc,phases    ] GC(45)   Post Evacuate Collection Set: 0.5ms
[2021-08-26T20:46:49.071-0300][gc,phases    ] GC(45)   Other: 1.9ms
[2021-08-26T20:46:49.071-0300][gc,heap      ] GC(45) Eden regions: 45->0(47)
[2021-08-26T20:46:49.071-0300][gc,heap      ] GC(45) Survivor regions: 6->4(7)
[2021-08-26T20:46:49.071-0300][gc,heap      ] GC(45) Old regions: 82->84
[2021-08-26T20:46:49.071-0300][gc,heap      ] GC(45) Archive regions: 2->2
[2021-08-26T20:46:49.071-0300][gc,heap      ] GC(45) Humongous regions: 133->133
[2021-08-26T20:46:49.071-0300][gc,metaspace ] GC(45) Metaspace: 80386K->80386K(1122304K)
[2021-08-26T20:46:49.071-0300][gc           ] GC(45) Pause Young (Normal) (G1 Evacuation Pause) 266M->220M(1024M) 20.169ms
[2021-08-26T20:46:49.071-0300][gc,cpu       ] GC(45) User=0.04s Sys=0.00s Real=0.02s
[2021-08-26T20:46:59.837-0300][gc,start     ] GC(46) Pause Young (Normal) (G1 Evacuation Pause)
[2021-08-26T20:46:59.837-0300][gc,task      ] GC(46) Using 4 workers of 4 for evacuation
[2021-08-26T20:46:59.848-0300][gc,phases    ] GC(46)   Pre Evacuate Collection Set: 0.0ms
[2021-08-26T20:46:59.849-0300][gc,phases    ] GC(46)   Evacuate Collection Set: 10.7ms
[2021-08-26T20:46:59.849-0300][gc,phases    ] GC(46)   Post Evacuate Collection Set: 0.7ms
[2021-08-26T20:46:59.849-0300][gc,phases    ] GC(46)   Other: 0.4ms
[2021-08-26T20:46:59.849-0300][gc,heap      ] GC(46) Eden regions: 47->0(47)
[2021-08-26T20:46:59.849-0300][gc,heap      ] GC(46) Survivor regions: 4->4(7)
[2021-08-26T20:46:59.849-0300][gc,heap      ] GC(46) Old regions: 84->84
[2021-08-26T20:46:59.849-0300][gc,heap      ] GC(46) Archive regions: 2->2
[2021-08-26T20:46:59.849-0300][gc,heap      ] GC(46) Humongous regions: 133->133
[2021-08-26T20:46:59.849-0300][gc,metaspace ] GC(46) Metaspace: 80404K->80404K(1122304K)
[2021-08-26T20:46:59.849-0300][gc           ] GC(46) Pause Young (Normal) (G1 Evacuation Pause) 267M->221M(1024M) 11.940ms
[2021-08-26T20:46:59.849-0300][gc,cpu       ] GC(46) User=0.04s Sys=0.00s Real=0.01s
[2021-08-26T20:47:58.055-0300][gc,start     ] GC(47) Pause Young (Normal) (G1 Evacuation Pause)
[2021-08-26T20:47:58.056-0300][gc,task      ] GC(47) Using 4 workers of 4 for evacuation
[2021-08-26T20:47:58.074-0300][gc,phases    ] GC(47)   Pre Evacuate Collection Set: 0.0ms
[2021-08-26T20:47:58.074-0300][gc,phases    ] GC(47)   Evacuate Collection Set: 17.0ms
[2021-08-26T20:47:58.074-0300][gc,phases    ] GC(47)   Post Evacuate Collection Set: 0.6ms
[2021-08-26T20:47:58.074-0300][gc,phases    ] GC(47)   Other: 0.7ms
[2021-08-26T20:47:58.074-0300][gc,heap      ] GC(47) Eden regions: 47->0(44)
[2021-08-26T20:47:58.074-0300][gc,heap      ] GC(47) Survivor regions: 4->7(7)
[2021-08-26T20:47:58.074-0300][gc,heap      ] GC(47) Old regions: 84->84
[2021-08-26T20:47:58.074-0300][gc,heap      ] GC(47) Archive regions: 2->2
[2021-08-26T20:47:58.074-0300][gc,heap      ] GC(47) Humongous regions: 133->133
[2021-08-26T20:47:58.074-0300][gc,metaspace ] GC(47) Metaspace: 80405K->80405K(1122304K)
[2021-08-26T20:47:58.074-0300][gc           ] GC(47) Pause Young (Normal) (G1 Evacuation Pause) 268M->223M(1024M) 18.429ms
[2021-08-26T20:47:58.074-0300][gc,cpu       ] GC(47) User=0.05s Sys=0.00s Real=0.02s
[2021-08-26T20:48:23.268-0300][gc,start     ] GC(48) Pause Young (Normal) (G1 Evacuation Pause)
[2021-08-26T20:48:23.268-0300][gc,task      ] GC(48) Using 4 workers of 4 for evacuation
[2021-08-26T20:48:23.281-0300][gc,phases    ] GC(48)   Pre Evacuate Collection Set: 0.0ms
[2021-08-26T20:48:23.281-0300][gc,phases    ] GC(48)   Evacuate Collection Set: 12.3ms
[2021-08-26T20:48:23.281-0300][gc,phases    ] GC(48)   Post Evacuate Collection Set: 0.4ms
[2021-08-26T20:48:23.281-0300][gc,phases    ] GC(48)   Other: 0.3ms
[2021-08-26T20:48:23.281-0300][gc,heap      ] GC(48) Eden regions: 44->0(48)
[2021-08-26T20:48:23.281-0300][gc,heap      ] GC(48) Survivor regions: 7->3(7)
[2021-08-26T20:48:23.281-0300][gc,heap      ] GC(48) Old regions: 84->88
[2021-08-26T20:48:23.281-0300][gc,heap      ] GC(48) Archive regions: 2->2
[2021-08-26T20:48:23.281-0300][gc,heap      ] GC(48) Humongous regions: 133->133
[2021-08-26T20:48:23.281-0300][gc,metaspace ] GC(48) Metaspace: 80412K->80412K(1122304K)
[2021-08-26T20:48:23.281-0300][gc           ] GC(48) Pause Young (Normal) (G1 Evacuation Pause) 267M->223M(1024M) 13.301ms
[2021-08-26T20:48:23.281-0300][gc,cpu       ] GC(48) User=0.05s Sys=0.01s Real=0.02s
[2021-08-26T20:48:58.118-0300][gc,start     ] GC(49) Pause Young (Normal) (G1 Evacuation Pause)
[2021-08-26T20:48:58.119-0300][gc,task      ] GC(49) Using 4 workers of 4 for evacuation
[2021-08-26T20:48:58.132-0300][gc,phases    ] GC(49)   Pre Evacuate Collection Set: 0.1ms
[2021-08-26T20:48:58.132-0300][gc,phases    ] GC(49)   Evacuate Collection Set: 11.6ms
[2021-08-26T20:48:58.132-0300][gc,phases    ] GC(49)   Post Evacuate Collection Set: 0.8ms
[2021-08-26T20:48:58.132-0300][gc,phases    ] GC(49)   Other: 0.8ms
[2021-08-26T20:48:58.132-0300][gc,heap      ] GC(49) Eden regions: 48->0(52)
[2021-08-26T20:48:58.132-0300][gc,heap      ] GC(49) Survivor regions: 3->3(7)
[2021-08-26T20:48:58.132-0300][gc,heap      ] GC(49) Old regions: 88->88
[2021-08-26T20:48:58.132-0300][gc,heap      ] GC(49) Archive regions: 2->2
[2021-08-26T20:48:58.132-0300][gc,heap      ] GC(49) Humongous regions: 133->133
[2021-08-26T20:48:58.132-0300][gc,metaspace ] GC(49) Metaspace: 80422K->80422K(1122304K)
[2021-08-26T20:48:58.132-0300][gc           ] GC(49) Pause Young (Normal) (G1 Evacuation Pause) 271M->224M(1024M) 13.385ms
[2021-08-26T20:48:58.132-0300][gc,cpu       ] GC(49) User=0.04s Sys=0.00s Real=0.02s
[2021-08-26T20:49:23.294-0300][gc,start     ] GC(50) Pause Young (Normal) (G1 Evacuation Pause)
[2021-08-26T20:49:23.294-0300][gc,task      ] GC(50) Using 4 workers of 4 for evacuation
[2021-08-26T20:49:23.312-0300][gc,phases    ] GC(50)   Pre Evacuate Collection Set: 0.0ms
[2021-08-26T20:49:23.312-0300][gc,phases    ] GC(50)   Evacuate Collection Set: 16.8ms
[2021-08-26T20:49:23.312-0300][gc,phases    ] GC(50)   Post Evacuate Collection Set: 0.9ms
[2021-08-26T20:49:23.312-0300][gc,phases    ] GC(50)   Other: 0.8ms
[2021-08-26T20:49:23.312-0300][gc,heap      ] GC(50) Eden regions: 52->0(48)
[2021-08-26T20:49:23.312-0300][gc,heap      ] GC(50) Survivor regions: 3->5(7)
[2021-08-26T20:49:23.312-0300][gc,heap      ] GC(50) Old regions: 88->88
[2021-08-26T20:49:23.312-0300][gc,heap      ] GC(50) Archive regions: 2->2
[2021-08-26T20:49:23.312-0300][gc,heap      ] GC(50) Humongous regions: 133->133
[2021-08-26T20:49:23.312-0300][gc,metaspace ] GC(50) Metaspace: 80488K->80488K(1122304K)
[2021-08-26T20:49:23.312-0300][gc           ] GC(50) Pause Young (Normal) (G1 Evacuation Pause) 276M->226M(1024M) 18.711ms
[2021-08-26T20:49:23.312-0300][gc,cpu       ] GC(50) User=0.04s Sys=0.01s Real=0.02s
[2021-08-26T20:49:58.106-0300][gc,start     ] GC(51) Pause Young (Normal) (G1 Evacuation Pause)
[2021-08-26T20:49:58.106-0300][gc,task      ] GC(51) Using 4 workers of 4 for evacuation
[2021-08-26T20:49:58.122-0300][gc,phases    ] GC(51)   Pre Evacuate Collection Set: 0.0ms
[2021-08-26T20:49:58.122-0300][gc,phases    ] GC(51)   Evacuate Collection Set: 14.8ms
[2021-08-26T20:49:58.122-0300][gc,phases    ] GC(51)   Post Evacuate Collection Set: 0.5ms
[2021-08-26T20:49:58.122-0300][gc,phases    ] GC(51)   Other: 0.8ms
[2021-08-26T20:49:58.122-0300][gc,heap      ] GC(51) Eden regions: 48->0(49)
[2021-08-26T20:49:58.122-0300][gc,heap      ] GC(51) Survivor regions: 5->5(7)
[2021-08-26T20:49:58.122-0300][gc,heap      ] GC(51) Old regions: 88->89
[2021-08-26T20:49:58.122-0300][gc,heap      ] GC(51) Archive regions: 2->2
[2021-08-26T20:49:58.122-0300][gc,heap      ] GC(51) Humongous regions: 133->133
[2021-08-26T20:49:58.122-0300][gc,metaspace ] GC(51) Metaspace: 80526K->80526K(1122304K)
[2021-08-26T20:49:58.122-0300][gc           ] GC(51) Pause Young (Normal) (G1 Evacuation Pause) 274M->227M(1024M) 16.302ms
[2021-08-26T20:49:58.122-0300][gc,cpu       ] GC(51) User=0.05s Sys=0.01s Real=0.02s
[2021-08-26T20:50:51.298-0300][gc,start     ] GC(52) Pause Young (Normal) (G1 Evacuation Pause)
[2021-08-26T20:50:51.299-0300][gc,task      ] GC(52) Using 4 workers of 4 for evacuation
[2021-08-26T20:50:51.317-0300][gc,phases    ] GC(52)   Pre Evacuate Collection Set: 0.0ms
[2021-08-26T20:50:51.317-0300][gc,phases    ] GC(52)   Evacuate Collection Set: 16.4ms
[2021-08-26T20:50:51.317-0300][gc,phases    ] GC(52)   Post Evacuate Collection Set: 0.8ms
[2021-08-26T20:50:51.317-0300][gc,phases    ] GC(52)   Other: 2.0ms
[2021-08-26T20:50:51.317-0300][gc,heap      ] GC(52) Eden regions: 46->0(47)
[2021-08-26T20:50:51.317-0300][gc,heap      ] GC(52) Survivor regions: 5->5(7)
[2021-08-26T20:50:51.317-0300][gc,heap      ] GC(52) Old regions: 89->91
[2021-08-26T20:50:51.317-0300][gc,heap      ] GC(52) Archive regions: 2->2
[2021-08-26T20:50:51.317-0300][gc,heap      ] GC(52) Humongous regions: 133->133
[2021-08-26T20:50:51.317-0300][gc,metaspace ] GC(52) Metaspace: 80626K->80626K(1122304K)
[2021-08-26T20:50:51.317-0300][gc           ] GC(52) Pause Young (Normal) (G1 Evacuation Pause) 273M->228M(1024M) 19.679ms
[2021-08-26T20:50:51.317-0300][gc,cpu       ] GC(52) User=0.05s Sys=0.00s Real=0.02s
[2021-08-26T20:50:58.375-0300][gc,start     ] GC(53) Pause Young (Normal) (G1 Evacuation Pause)
[2021-08-26T20:50:58.375-0300][gc,task      ] GC(53) Using 4 workers of 4 for evacuation
[2021-08-26T20:50:58.389-0300][gc,phases    ] GC(53)   Pre Evacuate Collection Set: 0.0ms
[2021-08-26T20:50:58.389-0300][gc,phases    ] GC(53)   Evacuate Collection Set: 13.2ms
[2021-08-26T20:50:58.389-0300][gc,phases    ] GC(53)   Post Evacuate Collection Set: 0.5ms
[2021-08-26T20:50:58.389-0300][gc,phases    ] GC(53)   Other: 0.3ms
[2021-08-26T20:50:58.389-0300][gc,heap      ] GC(53) Eden regions: 47->0(49)
[2021-08-26T20:50:58.389-0300][gc,heap      ] GC(53) Survivor regions: 5->5(7)
[2021-08-26T20:50:58.389-0300][gc,heap      ] GC(53) Old regions: 91->92
[2021-08-26T20:50:58.389-0300][gc,heap      ] GC(53) Archive regions: 2->2
[2021-08-26T20:50:58.389-0300][gc,heap      ] GC(53) Humongous regions: 133->133
[2021-08-26T20:50:58.389-0300][gc,metaspace ] GC(53) Metaspace: 80663K->80663K(1122304K)
[2021-08-26T20:50:58.389-0300][gc           ] GC(53) Pause Young (Normal) (G1 Evacuation Pause) 275M->229M(1024M) 14.201ms
[2021-08-26T20:50:58.390-0300][gc,cpu       ] GC(53) User=0.05s Sys=0.00s Real=0.02s
[2021-08-26T20:51:58.066-0300][gc,start     ] GC(54) Pause Young (Normal) (G1 Evacuation Pause)
[2021-08-26T20:51:58.067-0300][gc,task      ] GC(54) Using 4 workers of 4 for evacuation
[2021-08-26T20:51:58.083-0300][gc,phases    ] GC(54)   Pre Evacuate Collection Set: 0.0ms
[2021-08-26T20:51:58.083-0300][gc,phases    ] GC(54)   Evacuate Collection Set: 14.9ms
[2021-08-26T20:51:58.083-0300][gc,phases    ] GC(54)   Post Evacuate Collection Set: 0.5ms
[2021-08-26T20:51:58.083-0300][gc,phases    ] GC(54)   Other: 0.7ms
[2021-08-26T20:51:58.083-0300][gc,heap      ] GC(54) Eden regions: 49->0(49)
[2021-08-26T20:51:58.083-0300][gc,heap      ] GC(54) Survivor regions: 5->5(7)
[2021-08-26T20:51:58.083-0300][gc,heap      ] GC(54) Old regions: 92->93
[2021-08-26T20:51:58.083-0300][gc,heap      ] GC(54) Archive regions: 2->2
[2021-08-26T20:51:58.083-0300][gc,heap      ] GC(54) Humongous regions: 133->133
[2021-08-26T20:51:58.083-0300][gc,metaspace ] GC(54) Metaspace: 80690K->80690K(1122304K)
[2021-08-26T20:51:58.083-0300][gc           ] GC(54) Pause Young (Normal) (G1 Evacuation Pause) 278M->231M(1024M) 16.332ms
[2021-08-26T20:51:58.083-0300][gc,cpu       ] GC(54) User=0.05s Sys=0.00s Real=0.02s
[2021-08-26T20:52:01.364-0300][gc,start     ] GC(55) Pause Young (Normal) (G1 Evacuation Pause)
[2021-08-26T20:52:01.364-0300][gc,task      ] GC(55) Using 4 workers of 4 for evacuation
[2021-08-26T20:52:01.384-0300][gc,mmu       ] GC(55) MMU target violated: 20.1ms (20.0ms/21.0ms)
[2021-08-26T20:52:01.384-0300][gc,phases    ] GC(55)   Pre Evacuate Collection Set: 0.0ms
[2021-08-26T20:52:01.384-0300][gc,phases    ] GC(55)   Evacuate Collection Set: 19.3ms
[2021-08-26T20:52:01.384-0300][gc,phases    ] GC(55)   Post Evacuate Collection Set: 0.7ms
[2021-08-26T20:52:01.384-0300][gc,phases    ] GC(55)   Other: 0.4ms
[2021-08-26T20:52:01.384-0300][gc,heap      ] GC(55) Eden regions: 49->0(48)
[2021-08-26T20:52:01.384-0300][gc,heap      ] GC(55) Survivor regions: 5->7(7)
[2021-08-26T20:52:01.384-0300][gc,heap      ] GC(55) Old regions: 93->95
[2021-08-26T20:52:01.384-0300][gc,heap      ] GC(55) Archive regions: 2->2
[2021-08-26T20:52:01.384-0300][gc,heap      ] GC(55) Humongous regions: 133->133
[2021-08-26T20:52:01.384-0300][gc,metaspace ] GC(55) Metaspace: 80700K->80700K(1122304K)
[2021-08-26T20:52:01.384-0300][gc           ] GC(55) Pause Young (Normal) (G1 Evacuation Pause) 280M->234M(1024M) 20.426ms
[2021-08-26T20:52:01.384-0300][gc,cpu       ] GC(55) User=0.06s Sys=0.00s Real=0.02s
[2021-08-26T20:52:58.047-0300][gc,start     ] GC(56) Pause Young (Normal) (G1 Evacuation Pause)
[2021-08-26T20:52:58.048-0300][gc,task      ] GC(56) Using 4 workers of 4 for evacuation
[2021-08-26T20:52:58.063-0300][gc,phases    ] GC(56)   Pre Evacuate Collection Set: 0.0ms
[2021-08-26T20:52:58.063-0300][gc,phases    ] GC(56)   Evacuate Collection Set: 13.9ms
[2021-08-26T20:52:58.063-0300][gc,phases    ] GC(56)   Post Evacuate Collection Set: 0.5ms
[2021-08-26T20:52:58.063-0300][gc,phases    ] GC(56)   Other: 0.9ms
[2021-08-26T20:52:58.063-0300][gc,heap      ] GC(56) Eden regions: 44->0(48)
[2021-08-26T20:52:58.063-0300][gc,heap      ] GC(56) Survivor regions: 7->4(7)
[2021-08-26T20:52:58.063-0300][gc,heap      ] GC(56) Old regions: 95->97
[2021-08-26T20:52:58.063-0300][gc,heap      ] GC(56) Archive regions: 2->2
[2021-08-26T20:52:58.063-0300][gc,heap      ] GC(56) Humongous regions: 133->133
[2021-08-26T20:52:58.063-0300][gc,metaspace ] GC(56) Metaspace: 80728K->80728K(1122304K)
[2021-08-26T20:52:58.063-0300][gc           ] GC(56) Pause Young (Normal) (G1 Evacuation Pause) 278M->234M(1024M) 15.533ms
[2021-08-26T20:52:58.063-0300][gc,cpu       ] GC(56) User=0.05s Sys=0.00s Real=0.02s
[2021-08-26T20:53:21.984-0300][gc,start     ] GC(57) Pause Young (Normal) (G1 Evacuation Pause)
[2021-08-26T20:53:21.986-0300][gc,task      ] GC(57) Using 4 workers of 4 for evacuation
[2021-08-26T20:53:21.998-0300][gc,phases    ] GC(57)   Pre Evacuate Collection Set: 0.0ms
[2021-08-26T20:53:21.998-0300][gc,phases    ] GC(57)   Evacuate Collection Set: 11.0ms
[2021-08-26T20:53:21.998-0300][gc,phases    ] GC(57)   Post Evacuate Collection Set: 0.5ms
[2021-08-26T20:53:21.998-0300][gc,phases    ] GC(57)   Other: 2.1ms
[2021-08-26T20:53:21.998-0300][gc,heap      ] GC(57) Eden regions: 48->0(53)
[2021-08-26T20:53:21.998-0300][gc,heap      ] GC(57) Survivor regions: 4->4(7)
[2021-08-26T20:53:21.998-0300][gc,heap      ] GC(57) Old regions: 97->98
[2021-08-26T20:53:21.998-0300][gc,heap      ] GC(57) Archive regions: 2->2
[2021-08-26T20:53:21.998-0300][gc,heap      ] GC(57) Humongous regions: 133->133
[2021-08-26T20:53:21.998-0300][gc,metaspace ] GC(57) Metaspace: 80731K->80731K(1122304K)
[2021-08-26T20:53:21.998-0300][gc           ] GC(57) Pause Young (Normal) (G1 Evacuation Pause) 282M->234M(1024M) 13.796ms
[2021-08-26T20:53:21.998-0300][gc,cpu       ] GC(57) User=0.04s Sys=0.01s Real=0.01s
[2021-08-26T20:53:58.095-0300][gc,start     ] GC(58) Pause Young (Normal) (G1 Evacuation Pause)
[2021-08-26T20:53:58.095-0300][gc,task      ] GC(58) Using 4 workers of 4 for evacuation
[2021-08-26T20:53:58.118-0300][gc,mmu       ] GC(58) MMU target violated: 21.0ms (20.0ms/21.0ms)
[2021-08-26T20:53:58.118-0300][gc,phases    ] GC(58)   Pre Evacuate Collection Set: 0.0ms
[2021-08-26T20:53:58.118-0300][gc,phases    ] GC(58)   Evacuate Collection Set: 21.1ms
[2021-08-26T20:53:58.118-0300][gc,phases    ] GC(58)   Post Evacuate Collection Set: 0.8ms
[2021-08-26T20:53:58.118-0300][gc,phases    ] GC(58)   Other: 1.0ms
[2021-08-26T20:53:58.118-0300][gc,heap      ] GC(58) Eden regions: 53->0(45)
[2021-08-26T20:53:58.118-0300][gc,heap      ] GC(58) Survivor regions: 4->6(8)
[2021-08-26T20:53:58.118-0300][gc,heap      ] GC(58) Old regions: 98->98
[2021-08-26T20:53:58.118-0300][gc,heap      ] GC(58) Archive regions: 2->2
[2021-08-26T20:53:58.118-0300][gc,heap      ] GC(58) Humongous regions: 133->133
[2021-08-26T20:53:58.118-0300][gc,metaspace ] GC(58) Metaspace: 80741K->80741K(1122304K)
[2021-08-26T20:53:58.118-0300][gc           ] GC(58) Pause Young (Normal) (G1 Evacuation Pause) 287M->236M(1024M) 23.080ms
[2021-08-26T20:53:58.118-0300][gc,cpu       ] GC(58) User=0.05s Sys=0.02s Real=0.02s
[2021-08-26T20:54:47.946-0300][gc,start     ] GC(59) Pause Young (Normal) (G1 Evacuation Pause)
[2021-08-26T20:54:47.948-0300][gc,task      ] GC(59) Using 4 workers of 4 for evacuation
[2021-08-26T20:54:47.973-0300][gc,mmu       ] GC(59) MMU target violated: 21.0ms (20.0ms/21.0ms)
[2021-08-26T20:54:47.973-0300][gc,phases    ] GC(59)   Pre Evacuate Collection Set: 0.0ms
[2021-08-26T20:54:47.973-0300][gc,phases    ] GC(59)   Evacuate Collection Set: 22.5ms
[2021-08-26T20:54:47.973-0300][gc,phases    ] GC(59)   Post Evacuate Collection Set: 2.0ms
[2021-08-26T20:54:47.973-0300][gc,phases    ] GC(59)   Other: 2.3ms
[2021-08-26T20:54:47.973-0300][gc,heap      ] GC(59) Eden regions: 45->0(45)
[2021-08-26T20:54:47.973-0300][gc,heap      ] GC(59) Survivor regions: 6->6(7)
[2021-08-26T20:54:47.973-0300][gc,heap      ] GC(59) Old regions: 98->100
[2021-08-26T20:54:47.973-0300][gc,heap      ] GC(59) Archive regions: 2->2
[2021-08-26T20:54:47.973-0300][gc,heap      ] GC(59) Humongous regions: 133->133
[2021-08-26T20:54:47.973-0300][gc,metaspace ] GC(59) Metaspace: 80772K->80772K(1122304K)
[2021-08-26T20:54:47.973-0300][gc           ] GC(59) Pause Young (Normal) (G1 Evacuation Pause) 281M->238M(1024M) 26.943ms
[2021-08-26T20:54:47.974-0300][gc,cpu       ] GC(59) User=0.05s Sys=0.01s Real=0.03s
[2021-08-26T20:54:58.545-0300][gc,start     ] GC(60) Pause Young (Normal) (G1 Evacuation Pause)
[2021-08-26T20:54:58.559-0300][gc,task      ] GC(60) Using 4 workers of 4 for evacuation
[2021-08-26T20:54:58.632-0300][gc,mmu       ] GC(60) MMU target violated: 21.0ms (20.0ms/21.0ms)
[2021-08-26T20:54:58.694-0300][gc,phases    ] GC(60)   Pre Evacuate Collection Set: 0.3ms
[2021-08-26T20:54:58.695-0300][gc,phases    ] GC(60)   Evacuate Collection Set: 43.0ms
[2021-08-26T20:54:58.697-0300][gc,phases    ] GC(60)   Post Evacuate Collection Set: 1.3ms
[2021-08-26T20:54:58.697-0300][gc,phases    ] GC(60)   Other: 105.4ms
[2021-08-26T20:54:58.697-0300][gc,heap      ] GC(60) Eden regions: 45->0(48)
[2021-08-26T20:54:58.697-0300][gc,heap      ] GC(60) Survivor regions: 6->3(7)
[2021-08-26T20:54:58.697-0300][gc,heap      ] GC(60) Old regions: 100->102
[2021-08-26T20:54:58.697-0300][gc,heap      ] GC(60) Archive regions: 2->2
[2021-08-26T20:54:58.697-0300][gc,heap      ] GC(60) Humongous regions: 133->133
[2021-08-26T20:54:58.697-0300][gc,metaspace ] GC(60) Metaspace: 80773K->80773K(1122304K)
[2021-08-26T20:54:58.697-0300][gc           ] GC(60) Pause Young (Normal) (G1 Evacuation Pause) 283M->238M(1024M) 152.200ms
[2021-08-26T20:54:58.697-0300][gc,cpu       ] GC(60) User=0.05s Sys=0.03s Real=0.15s
[2021-08-26T20:55:28.824-0300][gc,start     ] GC(61) Pause Young (Normal) (G1 Evacuation Pause)
[2021-08-26T20:55:28.825-0300][gc,task      ] GC(61) Using 4 workers of 4 for evacuation
[2021-08-26T20:55:28.840-0300][gc,phases    ] GC(61)   Pre Evacuate Collection Set: 0.1ms
[2021-08-26T20:55:28.840-0300][gc,phases    ] GC(61)   Evacuate Collection Set: 13.9ms
[2021-08-26T20:55:28.840-0300][gc,phases    ] GC(61)   Post Evacuate Collection Set: 0.5ms
[2021-08-26T20:55:28.840-0300][gc,phases    ] GC(61)   Other: 2.2ms
[2021-08-26T20:55:28.840-0300][gc,heap      ] GC(61) Eden regions: 48->0(45)
[2021-08-26T20:55:28.840-0300][gc,heap      ] GC(61) Survivor regions: 3->6(7)
[2021-08-26T20:55:28.840-0300][gc,heap      ] GC(61) Old regions: 102->102
[2021-08-26T20:55:28.840-0300][gc,heap      ] GC(61) Archive regions: 2->2
[2021-08-26T20:55:28.840-0300][gc,heap      ] GC(61) Humongous regions: 133->133
[2021-08-26T20:55:28.840-0300][gc,metaspace ] GC(61) Metaspace: 80787K->80787K(1122304K)
[2021-08-26T20:55:28.840-0300][gc           ] GC(61) Pause Young (Normal) (G1 Evacuation Pause) 286M->240M(1024M) 16.853ms
[2021-08-26T20:55:28.841-0300][gc,cpu       ] GC(61) User=0.05s Sys=0.01s Real=0.02s
[2021-08-26T20:55:58.077-0300][gc,start     ] GC(62) Pause Young (Normal) (G1 Evacuation Pause)
[2021-08-26T20:55:58.078-0300][gc,task      ] GC(62) Using 4 workers of 4 for evacuation
[2021-08-26T20:55:58.101-0300][gc,mmu       ] GC(62) MMU target violated: 21.0ms (20.0ms/21.0ms)
[2021-08-26T20:55:58.101-0300][gc,phases    ] GC(62)   Pre Evacuate Collection Set: 0.1ms
[2021-08-26T20:55:58.101-0300][gc,phases    ] GC(62)   Evacuate Collection Set: 22.1ms
[2021-08-26T20:55:58.101-0300][gc,phases    ] GC(62)   Post Evacuate Collection Set: 0.5ms
[2021-08-26T20:55:58.101-0300][gc,phases    ] GC(62)   Other: 1.4ms
[2021-08-26T20:55:58.101-0300][gc,heap      ] GC(62) Eden regions: 45->0(46)
[2021-08-26T20:55:58.101-0300][gc,heap      ] GC(62) Survivor regions: 6->5(7)
[2021-08-26T20:55:58.101-0300][gc,heap      ] GC(62) Old regions: 102->104
[2021-08-26T20:55:58.101-0300][gc,heap      ] GC(62) Archive regions: 2->2
[2021-08-26T20:55:58.101-0300][gc,heap      ] GC(62) Humongous regions: 133->133
[2021-08-26T20:55:58.101-0300][gc,metaspace ] GC(62) Metaspace: 80794K->80794K(1122304K)
[2021-08-26T20:55:58.101-0300][gc           ] GC(62) Pause Young (Normal) (G1 Evacuation Pause) 285M->241M(1024M) 24.308ms
[2021-08-26T20:55:58.102-0300][gc,cpu       ] GC(62) User=0.06s Sys=0.01s Real=0.03s
[2021-08-26T20:56:44.503-0300][gc,start     ] GC(63) Pause Young (Normal) (G1 Evacuation Pause)
[2021-08-26T20:56:44.504-0300][gc,task      ] GC(63) Using 4 workers of 4 for evacuation
[2021-08-26T20:56:44.551-0300][gc,mmu       ] GC(63) MMU target violated: 21.0ms (20.0ms/21.0ms)
[2021-08-26T20:56:44.551-0300][gc,phases    ] GC(63)   Pre Evacuate Collection Set: 0.2ms
[2021-08-26T20:56:44.551-0300][gc,phases    ] GC(63)   Evacuate Collection Set: 43.0ms
[2021-08-26T20:56:44.551-0300][gc,phases    ] GC(63)   Post Evacuate Collection Set: 1.7ms
[2021-08-26T20:56:44.551-0300][gc,phases    ] GC(63)   Other: 3.1ms
[2021-08-26T20:56:44.551-0300][gc,heap      ] GC(63) Eden regions: 46->0(46)
[2021-08-26T20:56:44.551-0300][gc,heap      ] GC(63) Survivor regions: 5->5(7)
[2021-08-26T20:56:44.551-0300][gc,heap      ] GC(63) Old regions: 104->106
[2021-08-26T20:56:44.551-0300][gc,heap      ] GC(63) Archive regions: 2->2
[2021-08-26T20:56:44.551-0300][gc,heap      ] GC(63) Humongous regions: 133->133
[2021-08-26T20:56:44.551-0300][gc,metaspace ] GC(63) Metaspace: 80861K->80861K(1122304K)
[2021-08-26T20:56:44.551-0300][gc           ] GC(63) Pause Young (Normal) (G1 Evacuation Pause) 287M->243M(1024M) 48.057ms
[2021-08-26T20:56:44.552-0300][gc,cpu       ] GC(63) User=0.06s Sys=0.07s Real=0.05s
[2021-08-26T20:56:44.822-0300][gc,start     ] GC(64) Pause Young (Normal) (G1 Evacuation Pause)
[2021-08-26T20:56:44.822-0300][gc,task      ] GC(64) Using 4 workers of 4 for evacuation
[2021-08-26T20:56:44.841-0300][gc,phases    ] GC(64)   Pre Evacuate Collection Set: 0.1ms
[2021-08-26T20:56:44.841-0300][gc,phases    ] GC(64)   Evacuate Collection Set: 17.8ms
[2021-08-26T20:56:44.841-0300][gc,phases    ] GC(64)   Post Evacuate Collection Set: 0.5ms
[2021-08-26T20:56:44.842-0300][gc,phases    ] GC(64)   Other: 0.4ms
[2021-08-26T20:56:44.842-0300][gc,heap      ] GC(64) Eden regions: 46->0(47)
[2021-08-26T20:56:44.842-0300][gc,heap      ] GC(64) Survivor regions: 5->4(7)
[2021-08-26T20:56:44.842-0300][gc,heap      ] GC(64) Old regions: 106->107
[2021-08-26T20:56:44.842-0300][gc,heap      ] GC(64) Archive regions: 2->2
[2021-08-26T20:56:44.842-0300][gc,heap      ] GC(64) Humongous regions: 133->133
[2021-08-26T20:56:44.842-0300][gc,metaspace ] GC(64) Metaspace: 80942K->80942K(1122304K)
[2021-08-26T20:56:44.842-0300][gc           ] GC(64) Pause Young (Normal) (G1 Evacuation Pause) 289M->243M(1024M) 19.338ms
[2021-08-26T20:56:44.842-0300][gc,cpu       ] GC(64) User=0.04s Sys=0.00s Real=0.02s
[2021-08-26T20:56:44.877-0300][gc,heap,exit ] Heap
[2021-08-26T20:56:44.878-0300][gc,heap,exit ]  garbage-first heap   total 1048576K, used 250616K [0x00000007c0000000, 0x0000000800000000)
[2021-08-26T20:56:44.878-0300][gc,heap,exit ]   region size 1024K, 6 young (6144K), 4 survivors (4096K)
[2021-08-26T20:56:44.878-0300][gc,heap,exit ]  Metaspace       used 80967K, capacity 85612K, committed 85708K, reserved 1122304K
[2021-08-26T20:56:44.878-0300][gc,heap,exit ]   class space    used 10636K, capacity 12793K, committed 12876K, reserved 1048576K
