[2021-08-25T16:03:00.519-0300][gc,heap] Heap region size: 1M
[2021-08-25T16:03:00.530-0300][gc     ] Using G1
[2021-08-25T16:03:00.530-0300][gc,heap,coops] Heap address: 0x00000007c0000000, size: 1024 MB, Compressed Oops mode: Zero based, Oop shift amount: 3
[2021-08-25T16:03:00.530-0300][gc,cds       ] Mark closed archive regions in map: [0x00000007fff00000, 0x00000007fff76ff8]
[2021-08-25T16:03:00.530-0300][gc,cds       ] Mark open archive regions in map: [0x00000007ffe00000, 0x00000007ffe46ff8]
[2021-08-25T16:03:00.551-0300][gc           ] Periodic GC disabled
[2021-08-25T16:03:02.112-0300][gc,start     ] GC(0) Pause Young (Normal) (G1 Evacuation Pause)
[2021-08-25T16:03:02.112-0300][gc,task      ] GC(0) Using 4 workers of 4 for evacuation
[2021-08-25T16:03:02.139-0300][gc,mmu       ] GC(0) MMU target violated: 21.0ms (20.0ms/21.0ms)
[2021-08-25T16:03:02.139-0300][gc,phases    ] GC(0)   Pre Evacuate Collection Set: 0.0ms
[2021-08-25T16:03:02.139-0300][gc,phases    ] GC(0)   Evacuate Collection Set: 25.3ms
[2021-08-25T16:03:02.139-0300][gc,phases    ] GC(0)   Post Evacuate Collection Set: 1.4ms
[2021-08-25T16:03:02.139-0300][gc,phases    ] GC(0)   Other: 0.7ms
[2021-08-25T16:03:02.139-0300][gc,heap      ] GC(0) Eden regions: 51->0(44)
[2021-08-25T16:03:02.139-0300][gc,heap      ] GC(0) Survivor regions: 0->7(7)
[2021-08-25T16:03:02.139-0300][gc,heap      ] GC(0) Old regions: 0->19
[2021-08-25T16:03:02.139-0300][gc,heap      ] GC(0) Archive regions: 2->2
[2021-08-25T16:03:02.139-0300][gc,heap      ] GC(0) Humongous regions: 5->4
[2021-08-25T16:03:02.139-0300][gc,metaspace ] GC(0) Metaspace: 6024K->6024K(1056768K)
[2021-08-25T16:03:02.139-0300][gc           ] GC(0) Pause Young (Normal) (G1 Evacuation Pause) 56M->29M(1024M) 27.696ms
[2021-08-25T16:03:02.139-0300][gc,cpu       ] GC(0) User=0.04s Sys=0.02s Real=0.02s
[2021-08-25T16:03:02.939-0300][gc,start     ] GC(1) Pause Young (Normal) (G1 Evacuation Pause)
[2021-08-25T16:03:02.939-0300][gc,task      ] GC(1) Using 4 workers of 4 for evacuation
[2021-08-25T16:03:02.954-0300][gc,phases    ] GC(1)   Pre Evacuate Collection Set: 0.0ms
[2021-08-25T16:03:02.954-0300][gc,phases    ] GC(1)   Evacuate Collection Set: 13.8ms
[2021-08-25T16:03:02.954-0300][gc,phases    ] GC(1)   Post Evacuate Collection Set: 0.3ms
[2021-08-25T16:03:02.954-0300][gc,phases    ] GC(1)   Other: 0.2ms
[2021-08-25T16:03:02.954-0300][gc,heap      ] GC(1) Eden regions: 44->0(49)
[2021-08-25T16:03:02.954-0300][gc,heap      ] GC(1) Survivor regions: 7->2(7)
[2021-08-25T16:03:02.954-0300][gc,heap      ] GC(1) Old regions: 19->25
[2021-08-25T16:03:02.954-0300][gc,heap      ] GC(1) Archive regions: 2->2
[2021-08-25T16:03:02.954-0300][gc,heap      ] GC(1) Humongous regions: 4->4
[2021-08-25T16:03:02.954-0300][gc,metaspace ] GC(1) Metaspace: 14683K->14683K(1062912K)
[2021-08-25T16:03:02.954-0300][gc           ] GC(1) Pause Young (Normal) (G1 Evacuation Pause) 73M->30M(1024M) 14.523ms
[2021-08-25T16:03:02.954-0300][gc,cpu       ] GC(1) User=0.04s Sys=0.00s Real=0.02s
[2021-08-25T16:03:03.456-0300][gc,start     ] GC(2) Pause Young (Concurrent Start) (Metadata GC Threshold)
[2021-08-25T16:03:03.456-0300][gc,task      ] GC(2) Using 4 workers of 4 for evacuation
[2021-08-25T16:03:03.459-0300][gc,phases    ] GC(2)   Pre Evacuate Collection Set: 0.1ms
[2021-08-25T16:03:03.459-0300][gc,phases    ] GC(2)   Evacuate Collection Set: 3.0ms
[2021-08-25T16:03:03.459-0300][gc,phases    ] GC(2)   Post Evacuate Collection Set: 0.2ms
[2021-08-25T16:03:03.459-0300][gc,phases    ] GC(2)   Other: 0.3ms
[2021-08-25T16:03:03.459-0300][gc,heap      ] GC(2) Eden regions: 35->0(49)
[2021-08-25T16:03:03.459-0300][gc,heap      ] GC(2) Survivor regions: 2->2(7)
[2021-08-25T16:03:03.459-0300][gc,heap      ] GC(2) Old regions: 25->25
[2021-08-25T16:03:03.459-0300][gc,heap      ] GC(2) Archive regions: 2->2
[2021-08-25T16:03:03.459-0300][gc,heap      ] GC(2) Humongous regions: 4->4
[2021-08-25T16:03:03.459-0300][gc,metaspace ] GC(2) Metaspace: 20473K->20473K(1069056K)
[2021-08-25T16:03:03.459-0300][gc           ] GC(2) Pause Young (Concurrent Start) (Metadata GC Threshold) 65M->31M(1024M) 3.767ms
[2021-08-25T16:03:03.459-0300][gc,cpu       ] GC(2) User=0.01s Sys=0.00s Real=0.00s
[2021-08-25T16:03:03.459-0300][gc           ] GC(3) Concurrent Cycle
[2021-08-25T16:03:03.459-0300][gc,marking   ] GC(3) Concurrent Clear Claimed Marks
[2021-08-25T16:03:03.459-0300][gc,marking   ] GC(3) Concurrent Clear Claimed Marks 0.035ms
[2021-08-25T16:03:03.459-0300][gc,marking   ] GC(3) Concurrent Scan Root Regions
[2021-08-25T16:03:03.462-0300][gc,marking   ] GC(3) Concurrent Scan Root Regions 3.040ms
[2021-08-25T16:03:03.463-0300][gc,marking   ] GC(3) Concurrent Mark (2.955s)
[2021-08-25T16:03:03.463-0300][gc,marking   ] GC(3) Concurrent Mark From Roots
[2021-08-25T16:03:03.463-0300][gc,task      ] GC(3) Using 1 workers of 1 for marking
[2021-08-25T16:03:03.476-0300][gc,marking   ] GC(3) Concurrent Mark From Roots 13.765ms
[2021-08-25T16:03:03.476-0300][gc,marking   ] GC(3) Concurrent Preclean
[2021-08-25T16:03:03.477-0300][gc,marking   ] GC(3) Concurrent Preclean 0.203ms
[2021-08-25T16:03:03.477-0300][gc,marking   ] GC(3) Concurrent Mark (2.955s, 2.969s) 14.063ms
[2021-08-25T16:03:03.477-0300][gc,start     ] GC(3) Pause Remark
[2021-08-25T16:03:03.478-0300][gc           ] GC(3) Pause Remark 32M->32M(1024M) 1.209ms
[2021-08-25T16:03:03.478-0300][gc,cpu       ] GC(3) User=0.01s Sys=0.00s Real=0.00s
[2021-08-25T16:03:03.478-0300][gc,marking   ] GC(3) Concurrent Rebuild Remembered Sets
[2021-08-25T16:03:03.487-0300][gc,marking   ] GC(3) Concurrent Rebuild Remembered Sets 9.171ms
[2021-08-25T16:03:03.488-0300][gc,start     ] GC(3) Pause Cleanup
[2021-08-25T16:03:03.488-0300][gc           ] GC(3) Pause Cleanup 32M->32M(1024M) 0.158ms
[2021-08-25T16:03:03.488-0300][gc,cpu       ] GC(3) User=0.00s Sys=0.00s Real=0.00s
[2021-08-25T16:03:03.488-0300][gc,marking   ] GC(3) Concurrent Cleanup for Next Mark
[2021-08-25T16:03:03.499-0300][gc,marking   ] GC(3) Concurrent Cleanup for Next Mark 10.353ms
[2021-08-25T16:03:03.499-0300][gc           ] GC(3) Concurrent Cycle 39.287ms
[2021-08-25T16:03:04.654-0300][gc,start     ] GC(4) Pause Young (Normal) (G1 Evacuation Pause)
[2021-08-25T16:03:04.654-0300][gc,task      ] GC(4) Using 4 workers of 4 for evacuation
[2021-08-25T16:03:04.660-0300][gc,phases    ] GC(4)   Pre Evacuate Collection Set: 0.1ms
[2021-08-25T16:03:04.660-0300][gc,phases    ] GC(4)   Evacuate Collection Set: 5.7ms
[2021-08-25T16:03:04.660-0300][gc,phases    ] GC(4)   Post Evacuate Collection Set: 0.6ms
[2021-08-25T16:03:04.660-0300][gc,phases    ] GC(4)   Other: 0.3ms
[2021-08-25T16:03:04.661-0300][gc,heap      ] GC(4) Eden regions: 49->0(47)
[2021-08-25T16:03:04.661-0300][gc,heap      ] GC(4) Survivor regions: 2->4(7)
[2021-08-25T16:03:04.661-0300][gc,heap      ] GC(4) Old regions: 25->25
[2021-08-25T16:03:04.661-0300][gc,heap      ] GC(4) Archive regions: 2->2
[2021-08-25T16:03:04.661-0300][gc,heap      ] GC(4) Humongous regions: 4->4
[2021-08-25T16:03:04.661-0300][gc,metaspace ] GC(4) Metaspace: 28913K->28913K(1075200K)
[2021-08-25T16:03:04.661-0300][gc           ] GC(4) Pause Young (Normal) (G1 Evacuation Pause) 80M->33M(1024M) 6.736ms
[2021-08-25T16:03:04.661-0300][gc,cpu       ] GC(4) User=0.03s Sys=0.00s Real=0.01s
[2021-08-25T16:03:06.424-0300][gc,start     ] GC(5) Pause Young (Normal) (G1 Evacuation Pause)
[2021-08-25T16:03:06.424-0300][gc,task      ] GC(5) Using 4 workers of 4 for evacuation
[2021-08-25T16:03:06.436-0300][gc,phases    ] GC(5)   Pre Evacuate Collection Set: 0.1ms
[2021-08-25T16:03:06.436-0300][gc,phases    ] GC(5)   Evacuate Collection Set: 11.1ms
[2021-08-25T16:03:06.436-0300][gc,phases    ] GC(5)   Post Evacuate Collection Set: 0.8ms
[2021-08-25T16:03:06.436-0300][gc,phases    ] GC(5)   Other: 0.3ms
[2021-08-25T16:03:06.436-0300][gc,heap      ] GC(5) Eden regions: 47->0(46)
[2021-08-25T16:03:06.436-0300][gc,heap      ] GC(5) Survivor regions: 4->5(7)
[2021-08-25T16:03:06.436-0300][gc,heap      ] GC(5) Old regions: 25->26
[2021-08-25T16:03:06.436-0300][gc,heap      ] GC(5) Archive regions: 2->2
[2021-08-25T16:03:06.436-0300][gc,heap      ] GC(5) Humongous regions: 4->4
[2021-08-25T16:03:06.436-0300][gc,metaspace ] GC(5) Metaspace: 29846K->29846K(1077248K)
[2021-08-25T16:03:06.436-0300][gc           ] GC(5) Pause Young (Normal) (G1 Evacuation Pause) 80M->35M(1024M) 12.673ms
[2021-08-25T16:03:06.437-0300][gc,cpu       ] GC(5) User=0.04s Sys=0.00s Real=0.01s
[2021-08-25T16:03:07.385-0300][gc,start     ] GC(6) Pause Young (Normal) (G1 Evacuation Pause)
[2021-08-25T16:03:07.385-0300][gc,task      ] GC(6) Using 4 workers of 4 for evacuation
[2021-08-25T16:03:07.398-0300][gc,phases    ] GC(6)   Pre Evacuate Collection Set: 0.1ms
[2021-08-25T16:03:07.398-0300][gc,phases    ] GC(6)   Evacuate Collection Set: 12.1ms
[2021-08-25T16:03:07.398-0300][gc,phases    ] GC(6)   Post Evacuate Collection Set: 0.7ms
[2021-08-25T16:03:07.398-0300][gc,phases    ] GC(6)   Other: 0.5ms
[2021-08-25T16:03:07.398-0300][gc,heap      ] GC(6) Eden regions: 46->0(45)
[2021-08-25T16:03:07.399-0300][gc,heap      ] GC(6) Survivor regions: 5->6(7)
[2021-08-25T16:03:07.399-0300][gc,heap      ] GC(6) Old regions: 26->29
[2021-08-25T16:03:07.399-0300][gc,heap      ] GC(6) Archive regions: 2->2
[2021-08-25T16:03:07.399-0300][gc,heap      ] GC(6) Humongous regions: 133->133
[2021-08-25T16:03:07.399-0300][gc,metaspace ] GC(6) Metaspace: 33602K->33602K(1079296K)
[2021-08-25T16:03:07.399-0300][gc           ] GC(6) Pause Young (Normal) (G1 Evacuation Pause) 210M->168M(1024M) 14.001ms
[2021-08-25T16:03:07.399-0300][gc,cpu       ] GC(6) User=0.03s Sys=0.00s Real=0.01s
[2021-08-25T16:03:07.472-0300][gc,start     ] GC(7) Pause Young (Concurrent Start) (Metadata GC Threshold)
[2021-08-25T16:03:07.472-0300][gc,task      ] GC(7) Using 4 workers of 4 for evacuation
[2021-08-25T16:03:07.484-0300][gc,phases    ] GC(7)   Pre Evacuate Collection Set: 0.2ms
[2021-08-25T16:03:07.484-0300][gc,phases    ] GC(7)   Evacuate Collection Set: 10.7ms
[2021-08-25T16:03:07.484-0300][gc,phases    ] GC(7)   Post Evacuate Collection Set: 0.7ms
[2021-08-25T16:03:07.484-0300][gc,phases    ] GC(7)   Other: 0.4ms
[2021-08-25T16:03:07.484-0300][gc,heap      ] GC(7) Eden regions: 6->0(46)
[2021-08-25T16:03:07.484-0300][gc,heap      ] GC(7) Survivor regions: 6->5(7)
[2021-08-25T16:03:07.484-0300][gc,heap      ] GC(7) Old regions: 29->31
[2021-08-25T16:03:07.484-0300][gc,heap      ] GC(7) Archive regions: 2->2
[2021-08-25T16:03:07.484-0300][gc,heap      ] GC(7) Humongous regions: 133->133
[2021-08-25T16:03:07.484-0300][gc,metaspace ] GC(7) Metaspace: 34378K->34378K(1081344K)
[2021-08-25T16:03:07.484-0300][gc           ] GC(7) Pause Young (Concurrent Start) (Metadata GC Threshold) 173M->168M(1024M) 12.434ms
[2021-08-25T16:03:07.484-0300][gc,cpu       ] GC(7) User=0.04s Sys=0.00s Real=0.01s
[2021-08-25T16:03:07.484-0300][gc           ] GC(8) Concurrent Cycle
[2021-08-25T16:03:07.484-0300][gc,marking   ] GC(8) Concurrent Clear Claimed Marks
[2021-08-25T16:03:07.484-0300][gc,marking   ] GC(8) Concurrent Clear Claimed Marks 0.100ms
[2021-08-25T16:03:07.484-0300][gc,marking   ] GC(8) Concurrent Scan Root Regions
[2021-08-25T16:03:07.493-0300][gc,marking   ] GC(8) Concurrent Scan Root Regions 8.488ms
[2021-08-25T16:03:07.493-0300][gc,marking   ] GC(8) Concurrent Mark (6.985s)
[2021-08-25T16:03:07.493-0300][gc,marking   ] GC(8) Concurrent Mark From Roots
[2021-08-25T16:03:07.493-0300][gc,task      ] GC(8) Using 1 workers of 1 for marking
[2021-08-25T16:03:07.524-0300][gc,marking   ] GC(8) Concurrent Mark From Roots 30.691ms
[2021-08-25T16:03:07.524-0300][gc,marking   ] GC(8) Concurrent Preclean
[2021-08-25T16:03:07.524-0300][gc,marking   ] GC(8) Concurrent Preclean 0.303ms
[2021-08-25T16:03:07.524-0300][gc,marking   ] GC(8) Concurrent Mark (6.985s, 7.017s) 31.180ms
[2021-08-25T16:03:07.524-0300][gc,start     ] GC(8) Pause Remark
[2021-08-25T16:03:07.528-0300][gc           ] GC(8) Pause Remark 171M->171M(1024M) 3.443ms
[2021-08-25T16:03:07.528-0300][gc,cpu       ] GC(8) User=0.01s Sys=0.00s Real=0.00s
[2021-08-25T16:03:07.528-0300][gc,marking   ] GC(8) Concurrent Rebuild Remembered Sets
[2021-08-25T16:03:07.548-0300][gc,marking   ] GC(8) Concurrent Rebuild Remembered Sets 20.413ms
[2021-08-25T16:03:07.549-0300][gc,start     ] GC(8) Pause Cleanup
[2021-08-25T16:03:07.549-0300][gc           ] GC(8) Pause Cleanup 172M->172M(1024M) 0.263ms
[2021-08-25T16:03:07.549-0300][gc,cpu       ] GC(8) User=0.00s Sys=0.00s Real=0.00s
[2021-08-25T16:03:07.550-0300][gc,marking   ] GC(8) Concurrent Cleanup for Next Mark
[2021-08-25T16:03:07.565-0300][gc,marking   ] GC(8) Concurrent Cleanup for Next Mark 15.195ms
[2021-08-25T16:03:07.565-0300][gc           ] GC(8) Concurrent Cycle 80.737ms
[2021-08-25T16:03:08.422-0300][gc,start     ] GC(9) Pause Young (Normal) (G1 Evacuation Pause)
[2021-08-25T16:03:08.422-0300][gc,task      ] GC(9) Using 4 workers of 4 for evacuation
[2021-08-25T16:03:08.434-0300][gc,phases    ] GC(9)   Pre Evacuate Collection Set: 0.1ms
[2021-08-25T16:03:08.434-0300][gc,phases    ] GC(9)   Evacuate Collection Set: 10.9ms
[2021-08-25T16:03:08.434-0300][gc,phases    ] GC(9)   Post Evacuate Collection Set: 0.6ms
[2021-08-25T16:03:08.434-0300][gc,phases    ] GC(9)   Other: 0.5ms
[2021-08-25T16:03:08.434-0300][gc,heap      ] GC(9) Eden regions: 46->0(48)
[2021-08-25T16:03:08.434-0300][gc,heap      ] GC(9) Survivor regions: 5->3(7)
[2021-08-25T16:03:08.434-0300][gc,heap      ] GC(9) Old regions: 31->35
[2021-08-25T16:03:08.434-0300][gc,heap      ] GC(9) Archive regions: 2->2
[2021-08-25T16:03:08.434-0300][gc,heap      ] GC(9) Humongous regions: 134->133
[2021-08-25T16:03:08.434-0300][gc,metaspace ] GC(9) Metaspace: 40997K->40997K(1087488K)
[2021-08-25T16:03:08.434-0300][gc           ] GC(9) Pause Young (Normal) (G1 Evacuation Pause) 215M->170M(1024M) 12.213ms
[2021-08-25T16:03:08.434-0300][gc,cpu       ] GC(9) User=0.03s Sys=0.00s Real=0.01s
[2021-08-25T16:03:08.994-0300][gc,start     ] GC(10) Pause Young (Normal) (G1 Evacuation Pause)
[2021-08-25T16:03:08.994-0300][gc,task      ] GC(10) Using 4 workers of 4 for evacuation
[2021-08-25T16:03:09.002-0300][gc,phases    ] GC(10)   Pre Evacuate Collection Set: 0.1ms
[2021-08-25T16:03:09.002-0300][gc,phases    ] GC(10)   Evacuate Collection Set: 6.7ms
[2021-08-25T16:03:09.002-0300][gc,phases    ] GC(10)   Post Evacuate Collection Set: 0.4ms
[2021-08-25T16:03:09.002-0300][gc,phases    ] GC(10)   Other: 0.3ms
[2021-08-25T16:03:09.002-0300][gc,heap      ] GC(10) Eden regions: 48->0(47)
[2021-08-25T16:03:09.002-0300][gc,heap      ] GC(10) Survivor regions: 3->4(7)
[2021-08-25T16:03:09.002-0300][gc,heap      ] GC(10) Old regions: 35->35
[2021-08-25T16:03:09.002-0300][gc,heap      ] GC(10) Archive regions: 2->2
[2021-08-25T16:03:09.002-0300][gc,heap      ] GC(10) Humongous regions: 133->133
[2021-08-25T16:03:09.002-0300][gc,metaspace ] GC(10) Metaspace: 43838K->43838K(1089536K)
[2021-08-25T16:03:09.002-0300][gc           ] GC(10) Pause Young (Normal) (G1 Evacuation Pause) 218M->171M(1024M) 7.616ms
[2021-08-25T16:03:09.002-0300][gc,cpu       ] GC(10) User=0.02s Sys=0.01s Real=0.01s
[2021-08-25T16:03:09.468-0300][gc,start     ] GC(11) Pause Young (Normal) (G1 Evacuation Pause)
[2021-08-25T16:03:09.468-0300][gc,task      ] GC(11) Using 4 workers of 4 for evacuation
[2021-08-25T16:03:09.474-0300][gc,phases    ] GC(11)   Pre Evacuate Collection Set: 0.1ms
[2021-08-25T16:03:09.474-0300][gc,phases    ] GC(11)   Evacuate Collection Set: 5.5ms
[2021-08-25T16:03:09.474-0300][gc,phases    ] GC(11)   Post Evacuate Collection Set: 0.4ms
[2021-08-25T16:03:09.474-0300][gc,phases    ] GC(11)   Other: 0.3ms
[2021-08-25T16:03:09.475-0300][gc,heap      ] GC(11) Eden regions: 47->0(46)
[2021-08-25T16:03:09.475-0300][gc,heap      ] GC(11) Survivor regions: 4->5(7)
[2021-08-25T16:03:09.475-0300][gc,heap      ] GC(11) Old regions: 35->35
[2021-08-25T16:03:09.475-0300][gc,heap      ] GC(11) Archive regions: 2->2
[2021-08-25T16:03:09.475-0300][gc,heap      ] GC(11) Humongous regions: 133->133
[2021-08-25T16:03:09.475-0300][gc,metaspace ] GC(11) Metaspace: 45808K->45808K(1091584K)
[2021-08-25T16:03:09.475-0300][gc           ] GC(11) Pause Young (Normal) (G1 Evacuation Pause) 218M->172M(1024M) 6.328ms
[2021-08-25T16:03:09.475-0300][gc,cpu       ] GC(11) User=0.02s Sys=0.00s Real=0.01s
[2021-08-25T16:03:10.090-0300][gc,start     ] GC(12) Pause Young (Normal) (G1 Evacuation Pause)
[2021-08-25T16:03:10.090-0300][gc,task      ] GC(12) Using 4 workers of 4 for evacuation
[2021-08-25T16:03:10.100-0300][gc,phases    ] GC(12)   Pre Evacuate Collection Set: 0.1ms
[2021-08-25T16:03:10.100-0300][gc,phases    ] GC(12)   Evacuate Collection Set: 9.9ms
[2021-08-25T16:03:10.100-0300][gc,phases    ] GC(12)   Post Evacuate Collection Set: 0.6ms
[2021-08-25T16:03:10.100-0300][gc,phases    ] GC(12)   Other: 0.3ms
[2021-08-25T16:03:10.100-0300][gc,heap      ] GC(12) Eden regions: 46->0(44)
[2021-08-25T16:03:10.100-0300][gc,heap      ] GC(12) Survivor regions: 5->7(7)
[2021-08-25T16:03:10.100-0300][gc,heap      ] GC(12) Old regions: 35->35
[2021-08-25T16:03:10.100-0300][gc,heap      ] GC(12) Archive regions: 2->2
[2021-08-25T16:03:10.100-0300][gc,heap      ] GC(12) Humongous regions: 133->133
[2021-08-25T16:03:10.100-0300][gc,metaspace ] GC(12) Metaspace: 49111K->49111K(1093632K)
[2021-08-25T16:03:10.101-0300][gc           ] GC(12) Pause Young (Normal) (G1 Evacuation Pause) 218M->174M(1024M) 10.988ms
[2021-08-25T16:03:10.101-0300][gc,cpu       ] GC(12) User=0.04s Sys=0.00s Real=0.01s
[2021-08-25T16:03:10.407-0300][gc,start     ] GC(13) Pause Young (Normal) (G1 Evacuation Pause)
[2021-08-25T16:03:10.407-0300][gc,task      ] GC(13) Using 4 workers of 4 for evacuation
[2021-08-25T16:03:10.419-0300][gc,phases    ] GC(13)   Pre Evacuate Collection Set: 0.1ms
[2021-08-25T16:03:10.419-0300][gc,phases    ] GC(13)   Evacuate Collection Set: 10.8ms
[2021-08-25T16:03:10.419-0300][gc,phases    ] GC(13)   Post Evacuate Collection Set: 0.6ms
[2021-08-25T16:03:10.419-0300][gc,phases    ] GC(13)   Other: 0.3ms
[2021-08-25T16:03:10.419-0300][gc,heap      ] GC(13) Eden regions: 44->0(44)
[2021-08-25T16:03:10.419-0300][gc,heap      ] GC(13) Survivor regions: 7->7(7)
[2021-08-25T16:03:10.419-0300][gc,heap      ] GC(13) Old regions: 35->38
[2021-08-25T16:03:10.419-0300][gc,heap      ] GC(13) Archive regions: 2->2
[2021-08-25T16:03:10.419-0300][gc,heap      ] GC(13) Humongous regions: 133->133
[2021-08-25T16:03:10.419-0300][gc,metaspace ] GC(13) Metaspace: 50469K->50469K(1095680K)
[2021-08-25T16:03:10.419-0300][gc           ] GC(13) Pause Young (Normal) (G1 Evacuation Pause) 218M->177M(1024M) 11.898ms
[2021-08-25T16:03:10.419-0300][gc,cpu       ] GC(13) User=0.04s Sys=0.00s Real=0.01s
[2021-08-25T16:03:10.904-0300][gc,start     ] GC(14) Pause Young (Normal) (G1 Evacuation Pause)
[2021-08-25T16:03:10.904-0300][gc,task      ] GC(14) Using 4 workers of 4 for evacuation
[2021-08-25T16:03:10.915-0300][gc,phases    ] GC(14)   Pre Evacuate Collection Set: 0.1ms
[2021-08-25T16:03:10.915-0300][gc,phases    ] GC(14)   Evacuate Collection Set: 9.8ms
[2021-08-25T16:03:10.915-0300][gc,phases    ] GC(14)   Post Evacuate Collection Set: 0.5ms
[2021-08-25T16:03:10.915-0300][gc,phases    ] GC(14)   Other: 0.3ms
[2021-08-25T16:03:10.915-0300][gc,heap      ] GC(14) Eden regions: 44->0(45)
[2021-08-25T16:03:10.915-0300][gc,heap      ] GC(14) Survivor regions: 7->6(7)
[2021-08-25T16:03:10.915-0300][gc,heap      ] GC(14) Old regions: 38->41
[2021-08-25T16:03:10.915-0300][gc,heap      ] GC(14) Archive regions: 2->2
[2021-08-25T16:03:10.915-0300][gc,heap      ] GC(14) Humongous regions: 133->133
[2021-08-25T16:03:10.915-0300][gc,metaspace ] GC(14) Metaspace: 52686K->52686K(1097728K)
[2021-08-25T16:03:10.915-0300][gc           ] GC(14) Pause Young (Normal) (G1 Evacuation Pause) 221M->180M(1024M) 10.910ms
[2021-08-25T16:03:10.915-0300][gc,cpu       ] GC(14) User=0.04s Sys=0.01s Real=0.01s
[2021-08-25T16:03:11.507-0300][gc,start     ] GC(15) Pause Young (Normal) (G1 Evacuation Pause)
[2021-08-25T16:03:11.507-0300][gc,task      ] GC(15) Using 4 workers of 4 for evacuation
[2021-08-25T16:03:11.518-0300][gc,phases    ] GC(15)   Pre Evacuate Collection Set: 0.1ms
[2021-08-25T16:03:11.518-0300][gc,phases    ] GC(15)   Evacuate Collection Set: 10.0ms
[2021-08-25T16:03:11.518-0300][gc,phases    ] GC(15)   Post Evacuate Collection Set: 0.9ms
[2021-08-25T16:03:11.518-0300][gc,phases    ] GC(15)   Other: 0.3ms
[2021-08-25T16:03:11.518-0300][gc,heap      ] GC(15) Eden regions: 45->0(55)
[2021-08-25T16:03:11.518-0300][gc,heap      ] GC(15) Survivor regions: 6->4(7)
[2021-08-25T16:03:11.518-0300][gc,heap      ] GC(15) Old regions: 41->44
[2021-08-25T16:03:11.518-0300][gc,heap      ] GC(15) Archive regions: 2->2
[2021-08-25T16:03:11.518-0300][gc,heap      ] GC(15) Humongous regions: 163->133
[2021-08-25T16:03:11.518-0300][gc,metaspace ] GC(15) Metaspace: 55227K->55227K(1099776K)
[2021-08-25T16:03:11.518-0300][gc           ] GC(15) Pause Young (Normal) (G1 Evacuation Pause) 255M->180M(1024M) 11.728ms
[2021-08-25T16:03:11.518-0300][gc,cpu       ] GC(15) User=0.03s Sys=0.01s Real=0.01s
[2021-08-25T16:03:12.025-0300][gc,start     ] GC(16) Pause Young (Concurrent Start) (Metadata GC Threshold)
[2021-08-25T16:03:12.025-0300][gc,task      ] GC(16) Using 4 workers of 4 for evacuation
[2021-08-25T16:03:12.035-0300][gc,phases    ] GC(16)   Pre Evacuate Collection Set: 0.3ms
[2021-08-25T16:03:12.035-0300][gc,phases    ] GC(16)   Evacuate Collection Set: 8.0ms
[2021-08-25T16:03:12.035-0300][gc,phases    ] GC(16)   Post Evacuate Collection Set: 0.8ms
[2021-08-25T16:03:12.035-0300][gc,phases    ] GC(16)   Other: 0.3ms
[2021-08-25T16:03:12.035-0300][gc,heap      ] GC(16) Eden regions: 33->0(54)
[2021-08-25T16:03:12.035-0300][gc,heap      ] GC(16) Survivor regions: 4->4(7)
[2021-08-25T16:03:12.035-0300][gc,heap      ] GC(16) Old regions: 44->44
[2021-08-25T16:03:12.035-0300][gc,heap      ] GC(16) Archive regions: 2->2
[2021-08-25T16:03:12.035-0300][gc,heap      ] GC(16) Humongous regions: 133->133
[2021-08-25T16:03:12.035-0300][gc,metaspace ] GC(16) Metaspace: 57364K->57364K(1101824K)
[2021-08-25T16:03:12.035-0300][gc           ] GC(16) Pause Young (Concurrent Start) (Metadata GC Threshold) 213M->181M(1024M) 9.631ms
[2021-08-25T16:03:12.035-0300][gc,cpu       ] GC(16) User=0.03s Sys=0.00s Real=0.01s
[2021-08-25T16:03:12.035-0300][gc           ] GC(17) Concurrent Cycle
[2021-08-25T16:03:12.035-0300][gc,marking   ] GC(17) Concurrent Clear Claimed Marks
[2021-08-25T16:03:12.035-0300][gc,marking   ] GC(17) Concurrent Clear Claimed Marks 0.167ms
[2021-08-25T16:03:12.035-0300][gc,marking   ] GC(17) Concurrent Scan Root Regions
[2021-08-25T16:03:12.041-0300][gc,marking   ] GC(17) Concurrent Scan Root Regions 6.062ms
[2021-08-25T16:03:12.041-0300][gc,marking   ] GC(17) Concurrent Mark (11.534s)
[2021-08-25T16:03:12.041-0300][gc,marking   ] GC(17) Concurrent Mark From Roots
[2021-08-25T16:03:12.041-0300][gc,task      ] GC(17) Using 1 workers of 1 for marking
[2021-08-25T16:03:12.242-0300][gc,marking   ] GC(17) Concurrent Mark From Roots 200.986ms
[2021-08-25T16:03:12.242-0300][gc,marking   ] GC(17) Concurrent Preclean
[2021-08-25T16:03:12.242-0300][gc,marking   ] GC(17) Concurrent Preclean 0.193ms
[2021-08-25T16:03:12.242-0300][gc,marking   ] GC(17) Concurrent Mark (11.534s, 11.735s) 201.268ms
[2021-08-25T16:03:12.243-0300][gc,start     ] GC(17) Pause Remark
[2021-08-25T16:03:12.267-0300][gc,mmu       ] GC(17) MMU target violated: 21.0ms (20.0ms/21.0ms)
[2021-08-25T16:03:12.267-0300][gc           ] GC(17) Pause Remark 194M->194M(1024M) 23.932ms
[2021-08-25T16:03:12.267-0300][gc,cpu       ] GC(17) User=0.03s Sys=0.02s Real=0.02s
[2021-08-25T16:03:12.277-0300][gc,marking   ] GC(17) Concurrent Rebuild Remembered Sets
[2021-08-25T16:03:12.356-0300][gc,marking   ] GC(17) Concurrent Rebuild Remembered Sets 79.434ms
[2021-08-25T16:03:12.357-0300][gc,start     ] GC(17) Pause Cleanup
[2021-08-25T16:03:12.357-0300][gc           ] GC(17) Pause Cleanup 200M->200M(1024M) 0.243ms
[2021-08-25T16:03:12.357-0300][gc,cpu       ] GC(17) User=0.00s Sys=0.00s Real=0.00s
[2021-08-25T16:03:12.367-0300][gc,marking   ] GC(17) Concurrent Cleanup for Next Mark
[2021-08-25T16:03:12.380-0300][gc,marking   ] GC(17) Concurrent Cleanup for Next Mark 12.224ms
[2021-08-25T16:03:12.380-0300][gc           ] GC(17) Concurrent Cycle 344.712ms
[2021-08-25T16:03:12.655-0300][gc,start     ] GC(18) Pause Young (Concurrent Start) (G1 Evacuation Pause)
[2021-08-25T16:03:12.656-0300][gc,task      ] GC(18) Using 4 workers of 4 for evacuation
[2021-08-25T16:03:12.670-0300][gc,phases    ] GC(18)   Pre Evacuate Collection Set: 0.3ms
[2021-08-25T16:03:12.670-0300][gc,phases    ] GC(18)   Evacuate Collection Set: 12.8ms
[2021-08-25T16:03:12.670-0300][gc,phases    ] GC(18)   Post Evacuate Collection Set: 0.6ms
[2021-08-25T16:03:12.670-0300][gc,phases    ] GC(18)   Other: 0.6ms
[2021-08-25T16:03:12.670-0300][gc,heap      ] GC(18) Eden regions: 47->0(47)
[2021-08-25T16:03:12.670-0300][gc,heap      ] GC(18) Survivor regions: 4->4(7)
[2021-08-25T16:03:12.670-0300][gc,heap      ] GC(18) Old regions: 44->46
[2021-08-25T16:03:12.670-0300][gc,heap      ] GC(18) Archive regions: 2->2
[2021-08-25T16:03:12.670-0300][gc,heap      ] GC(18) Humongous regions: 133->133
[2021-08-25T16:03:12.670-0300][gc,metaspace ] GC(18) Metaspace: 61555K->61555K(1103872K)
[2021-08-25T16:03:12.670-0300][gc           ] GC(18) Pause Young (Concurrent Start) (G1 Evacuation Pause) 228M->183M(1024M) 14.424ms
[2021-08-25T16:03:12.670-0300][gc,cpu       ] GC(18) User=0.04s Sys=0.01s Real=0.02s
[2021-08-25T16:03:12.670-0300][gc           ] GC(19) Concurrent Cycle
[2021-08-25T16:03:12.670-0300][gc,marking   ] GC(19) Concurrent Clear Claimed Marks
[2021-08-25T16:03:12.670-0300][gc,marking   ] GC(19) Concurrent Clear Claimed Marks 0.210ms
[2021-08-25T16:03:12.670-0300][gc,marking   ] GC(19) Concurrent Scan Root Regions
[2021-08-25T16:03:12.682-0300][gc,marking   ] GC(19) Concurrent Scan Root Regions 12.094ms
[2021-08-25T16:03:12.682-0300][gc,marking   ] GC(19) Concurrent Mark (12.175s)
[2021-08-25T16:03:12.682-0300][gc,marking   ] GC(19) Concurrent Mark From Roots
[2021-08-25T16:03:12.682-0300][gc,task      ] GC(19) Using 1 workers of 1 for marking
[2021-08-25T16:03:12.781-0300][gc,marking   ] GC(19) Concurrent Mark From Roots 98.263ms
[2021-08-25T16:03:12.781-0300][gc,marking   ] GC(19) Concurrent Preclean
[2021-08-25T16:03:12.781-0300][gc,marking   ] GC(19) Concurrent Preclean 0.356ms
[2021-08-25T16:03:12.781-0300][gc,marking   ] GC(19) Concurrent Mark (12.175s, 12.274s) 98.713ms
[2021-08-25T16:03:12.781-0300][gc,start     ] GC(19) Pause Remark
[2021-08-25T16:03:12.797-0300][gc           ] GC(19) Pause Remark 193M->193M(1024M) 15.100ms
[2021-08-25T16:03:12.797-0300][gc,cpu       ] GC(19) User=0.01s Sys=0.00s Real=0.01s
[2021-08-25T16:03:12.807-0300][gc,marking   ] GC(19) Concurrent Rebuild Remembered Sets
[2021-08-25T16:03:12.871-0300][gc,marking   ] GC(19) Concurrent Rebuild Remembered Sets 64.119ms
[2021-08-25T16:03:12.872-0300][gc,start     ] GC(19) Pause Cleanup
[2021-08-25T16:03:12.873-0300][gc           ] GC(19) Pause Cleanup 197M->197M(1024M) 0.334ms
[2021-08-25T16:03:12.873-0300][gc,cpu       ] GC(19) User=0.01s Sys=0.00s Real=0.00s
[2021-08-25T16:03:12.883-0300][gc,marking   ] GC(19) Concurrent Cleanup for Next Mark
[2021-08-25T16:03:12.886-0300][gc,marking   ] GC(19) Concurrent Cleanup for Next Mark 2.891ms
[2021-08-25T16:03:12.886-0300][gc           ] GC(19) Concurrent Cycle 216.000ms
[2021-08-25T16:03:13.231-0300][gc,start     ] GC(20) Pause Young (Normal) (G1 Evacuation Pause)
[2021-08-25T16:03:13.231-0300][gc,task      ] GC(20) Using 4 workers of 4 for evacuation
[2021-08-25T16:03:13.241-0300][gc,phases    ] GC(20)   Pre Evacuate Collection Set: 0.1ms
[2021-08-25T16:03:13.242-0300][gc,phases    ] GC(20)   Evacuate Collection Set: 9.5ms
[2021-08-25T16:03:13.242-0300][gc,phases    ] GC(20)   Post Evacuate Collection Set: 0.7ms
[2021-08-25T16:03:13.242-0300][gc,phases    ] GC(20)   Other: 0.6ms
[2021-08-25T16:03:13.242-0300][gc,heap      ] GC(20) Eden regions: 47->0(47)
[2021-08-25T16:03:13.242-0300][gc,heap      ] GC(20) Survivor regions: 4->5(7)
[2021-08-25T16:03:13.242-0300][gc,heap      ] GC(20) Old regions: 46->47
[2021-08-25T16:03:13.242-0300][gc,heap      ] GC(20) Archive regions: 2->2
[2021-08-25T16:03:13.242-0300][gc,heap      ] GC(20) Humongous regions: 133->133
[2021-08-25T16:03:13.242-0300][gc,metaspace ] GC(20) Metaspace: 64056K->64056K(1107968K)
[2021-08-25T16:03:13.242-0300][gc           ] GC(20) Pause Young (Normal) (G1 Evacuation Pause) 230M->185M(1024M) 10.957ms
[2021-08-25T16:03:13.242-0300][gc,cpu       ] GC(20) User=0.04s Sys=0.00s Real=0.01s
[2021-08-25T16:03:13.670-0300][gc,start     ] GC(21) Pause Young (Normal) (G1 Evacuation Pause)
[2021-08-25T16:03:13.670-0300][gc,task      ] GC(21) Using 4 workers of 4 for evacuation
[2021-08-25T16:03:13.682-0300][gc,phases    ] GC(21)   Pre Evacuate Collection Set: 0.1ms
[2021-08-25T16:03:13.683-0300][gc,phases    ] GC(21)   Evacuate Collection Set: 11.6ms
[2021-08-25T16:03:13.683-0300][gc,phases    ] GC(21)   Post Evacuate Collection Set: 0.8ms
[2021-08-25T16:03:13.683-0300][gc,phases    ] GC(21)   Other: 0.3ms
[2021-08-25T16:03:13.683-0300][gc,heap      ] GC(21) Eden regions: 47->0(49)
[2021-08-25T16:03:13.683-0300][gc,heap      ] GC(21) Survivor regions: 5->7(7)
[2021-08-25T16:03:13.683-0300][gc,heap      ] GC(21) Old regions: 47->50
[2021-08-25T16:03:13.683-0300][gc,heap      ] GC(21) Archive regions: 2->2
[2021-08-25T16:03:13.683-0300][gc,heap      ] GC(21) Humongous regions: 133->133
[2021-08-25T16:03:13.683-0300][gc,metaspace ] GC(21) Metaspace: 65406K->65406K(1107968K)
[2021-08-25T16:03:13.683-0300][gc           ] GC(21) Pause Young (Normal) (G1 Evacuation Pause) 232M->189M(1024M) 12.953ms
[2021-08-25T16:03:13.683-0300][gc,cpu       ] GC(21) User=0.04s Sys=0.00s Real=0.01s
[2021-08-25T16:03:14.091-0300][gc,start     ] GC(22) Pause Young (Normal) (G1 Evacuation Pause)
[2021-08-25T16:03:14.091-0300][gc,task      ] GC(22) Using 4 workers of 4 for evacuation
[2021-08-25T16:03:14.098-0300][gc,phases    ] GC(22)   Pre Evacuate Collection Set: 0.1ms
[2021-08-25T16:03:14.098-0300][gc,phases    ] GC(22)   Evacuate Collection Set: 6.7ms
[2021-08-25T16:03:14.098-0300][gc,phases    ] GC(22)   Post Evacuate Collection Set: 0.7ms
[2021-08-25T16:03:14.098-0300][gc,phases    ] GC(22)   Other: 0.3ms
[2021-08-25T16:03:14.098-0300][gc,heap      ] GC(22) Eden regions: 49->0(60)
[2021-08-25T16:03:14.098-0300][gc,heap      ] GC(22) Survivor regions: 7->2(7)
[2021-08-25T16:03:14.098-0300][gc,heap      ] GC(22) Old regions: 50->53
[2021-08-25T16:03:14.098-0300][gc,heap      ] GC(22) Archive regions: 2->2
[2021-08-25T16:03:14.098-0300][gc,heap      ] GC(22) Humongous regions: 133->133
[2021-08-25T16:03:14.098-0300][gc,metaspace ] GC(22) Metaspace: 66732K->66732K(1110016K)
[2021-08-25T16:03:14.098-0300][gc           ] GC(22) Pause Young (Normal) (G1 Evacuation Pause) 238M->188M(1024M) 7.842ms
[2021-08-25T16:03:14.098-0300][gc,cpu       ] GC(22) User=0.03s Sys=0.00s Real=0.00s
[2021-08-25T16:03:15.000-0300][gc,start     ] GC(23) Pause Young (Normal) (G1 Evacuation Pause)
[2021-08-25T16:03:15.000-0300][gc,task      ] GC(23) Using 4 workers of 4 for evacuation
[2021-08-25T16:03:15.007-0300][gc,phases    ] GC(23)   Pre Evacuate Collection Set: 0.1ms
[2021-08-25T16:03:15.007-0300][gc,phases    ] GC(23)   Evacuate Collection Set: 6.2ms
[2021-08-25T16:03:15.007-0300][gc,phases    ] GC(23)   Post Evacuate Collection Set: 0.5ms
[2021-08-25T16:03:15.007-0300][gc,phases    ] GC(23)   Other: 0.3ms
[2021-08-25T16:03:15.007-0300][gc,heap      ] GC(23) Eden regions: 60->0(72)
[2021-08-25T16:03:15.007-0300][gc,heap      ] GC(23) Survivor regions: 2->4(8)
[2021-08-25T16:03:15.007-0300][gc,heap      ] GC(23) Old regions: 53->53
[2021-08-25T16:03:15.007-0300][gc,heap      ] GC(23) Archive regions: 2->2
[2021-08-25T16:03:15.007-0300][gc,heap      ] GC(23) Humongous regions: 133->133
[2021-08-25T16:03:15.007-0300][gc,metaspace ] GC(23) Metaspace: 68190K->68190K(1110016K)
[2021-08-25T16:03:15.007-0300][gc           ] GC(23) Pause Young (Normal) (G1 Evacuation Pause) 248M->190M(1024M) 7.177ms
[2021-08-25T16:03:15.007-0300][gc,cpu       ] GC(23) User=0.02s Sys=0.00s Real=0.00s
[2021-08-25T16:04:10.689-0300][gc,start     ] GC(24) Pause Young (Normal) (G1 Evacuation Pause)
[2021-08-25T16:04:10.690-0300][gc,task      ] GC(24) Using 4 workers of 4 for evacuation
[2021-08-25T16:04:10.715-0300][gc,mmu       ] GC(24) MMU target violated: 21.0ms (20.0ms/21.0ms)
[2021-08-25T16:04:10.715-0300][gc,phases    ] GC(24)   Pre Evacuate Collection Set: 0.0ms
[2021-08-25T16:04:10.715-0300][gc,phases    ] GC(24)   Evacuate Collection Set: 24.2ms
[2021-08-25T16:04:10.715-0300][gc,phases    ] GC(24)   Post Evacuate Collection Set: 0.7ms
[2021-08-25T16:04:10.715-0300][gc,phases    ] GC(24)   Other: 0.5ms
[2021-08-25T16:04:10.715-0300][gc,heap      ] GC(24) Eden regions: 72->0(54)
[2021-08-25T16:04:10.715-0300][gc,heap      ] GC(24) Survivor regions: 4->8(10)
[2021-08-25T16:04:10.715-0300][gc,heap      ] GC(24) Old regions: 53->53
[2021-08-25T16:04:10.715-0300][gc,heap      ] GC(24) Archive regions: 2->2
[2021-08-25T16:04:10.715-0300][gc,heap      ] GC(24) Humongous regions: 133->133
[2021-08-25T16:04:10.715-0300][gc,metaspace ] GC(24) Metaspace: 74243K->74243K(1116160K)
[2021-08-25T16:04:10.715-0300][gc           ] GC(24) Pause Young (Normal) (G1 Evacuation Pause) 262M->193M(1024M) 25.554ms
[2021-08-25T16:04:10.715-0300][gc,cpu       ] GC(24) User=0.05s Sys=0.02s Real=0.03s
[2021-08-25T16:04:11.785-0300][gc,start     ] GC(25) Pause Young (Normal) (G1 Evacuation Pause)
[2021-08-25T16:04:11.785-0300][gc,task      ] GC(25) Using 4 workers of 4 for evacuation
[2021-08-25T16:04:11.801-0300][gc,phases    ] GC(25)   Pre Evacuate Collection Set: 0.1ms
[2021-08-25T16:04:11.801-0300][gc,phases    ] GC(25)   Evacuate Collection Set: 15.0ms
[2021-08-25T16:04:11.801-0300][gc,phases    ] GC(25)   Post Evacuate Collection Set: 1.1ms
[2021-08-25T16:04:11.801-0300][gc,phases    ] GC(25)   Other: 0.4ms
[2021-08-25T16:04:11.801-0300][gc,heap      ] GC(25) Eden regions: 43->0(55)
[2021-08-25T16:04:11.801-0300][gc,heap      ] GC(25) Survivor regions: 8->5(7)
[2021-08-25T16:04:11.801-0300][gc,heap      ] GC(25) Old regions: 53->57
[2021-08-25T16:04:11.801-0300][gc,heap      ] GC(25) Archive regions: 2->2
[2021-08-25T16:04:11.801-0300][gc,heap      ] GC(25) Humongous regions: 133->133
[2021-08-25T16:04:11.801-0300][gc,metaspace ] GC(25) Metaspace: 75504K->75504K(1118208K)
[2021-08-25T16:04:11.801-0300][gc           ] GC(25) Pause Young (Normal) (G1 Evacuation Pause) 236M->194M(1024M) 16.847ms
[2021-08-25T16:04:11.801-0300][gc,cpu       ] GC(25) User=0.05s Sys=0.00s Real=0.02s
[2021-08-25T16:05:09.980-0300][gc,start     ] GC(26) Pause Young (Normal) (G1 Evacuation Pause)
[2021-08-25T16:05:09.980-0300][gc,task      ] GC(26) Using 4 workers of 4 for evacuation
[2021-08-25T16:05:10.027-0300][gc,mmu       ] GC(26) MMU target violated: 21.0ms (20.0ms/21.0ms)
[2021-08-25T16:05:10.027-0300][gc,phases    ] GC(26)   Pre Evacuate Collection Set: 0.1ms
[2021-08-25T16:05:10.028-0300][gc,phases    ] GC(26)   Evacuate Collection Set: 43.1ms
[2021-08-25T16:05:10.028-0300][gc,phases    ] GC(26)   Post Evacuate Collection Set: 2.0ms
[2021-08-25T16:05:10.028-0300][gc,phases    ] GC(26)   Other: 2.8ms
[2021-08-25T16:05:10.028-0300][gc,heap      ] GC(26) Eden regions: 46->0(48)
[2021-08-25T16:05:10.028-0300][gc,heap      ] GC(26) Survivor regions: 5->3(7)
[2021-08-25T16:05:10.028-0300][gc,heap      ] GC(26) Old regions: 57->60
[2021-08-25T16:05:10.028-0300][gc,heap      ] GC(26) Archive regions: 2->2
[2021-08-25T16:05:10.028-0300][gc,heap      ] GC(26) Humongous regions: 133->133
[2021-08-25T16:05:10.028-0300][gc,metaspace ] GC(26) Metaspace: 76107K->76107K(1118208K)
[2021-08-25T16:05:10.028-0300][gc           ] GC(26) Pause Young (Normal) (G1 Evacuation Pause) 240M->196M(1024M) 48.182ms
[2021-08-25T16:05:10.028-0300][gc,cpu       ] GC(26) User=0.05s Sys=0.05s Real=0.04s
[2021-08-25T16:06:09.813-0300][gc,start     ] GC(27) Pause Young (Normal) (G1 Evacuation Pause)
[2021-08-25T16:06:09.814-0300][gc,task      ] GC(27) Using 4 workers of 4 for evacuation
[2021-08-25T16:06:09.822-0300][gc,phases    ] GC(27)   Pre Evacuate Collection Set: 0.1ms
[2021-08-25T16:06:09.822-0300][gc,phases    ] GC(27)   Evacuate Collection Set: 7.4ms
[2021-08-25T16:06:09.822-0300][gc,phases    ] GC(27)   Post Evacuate Collection Set: 0.6ms
[2021-08-25T16:06:09.822-0300][gc,phases    ] GC(27)   Other: 0.6ms
[2021-08-25T16:06:09.822-0300][gc,heap      ] GC(27) Eden regions: 48->0(48)
[2021-08-25T16:06:09.822-0300][gc,heap      ] GC(27) Survivor regions: 3->3(7)
[2021-08-25T16:06:09.822-0300][gc,heap      ] GC(27) Old regions: 60->60
[2021-08-25T16:06:09.822-0300][gc,heap      ] GC(27) Archive regions: 2->2
[2021-08-25T16:06:09.822-0300][gc,heap      ] GC(27) Humongous regions: 133->133
[2021-08-25T16:06:09.822-0300][gc,metaspace ] GC(27) Metaspace: 76232K->76232K(1118208K)
[2021-08-25T16:06:09.822-0300][gc           ] GC(27) Pause Young (Normal) (G1 Evacuation Pause) 244M->195M(1024M) 8.929ms
[2021-08-25T16:06:09.822-0300][gc,cpu       ] GC(27) User=0.02s Sys=0.01s Real=0.01s
[2021-08-25T16:06:13.479-0300][gc,start     ] GC(28) Pause Young (Normal) (G1 Evacuation Pause)
[2021-08-25T16:06:13.479-0300][gc,task      ] GC(28) Using 4 workers of 4 for evacuation
[2021-08-25T16:06:13.490-0300][gc,phases    ] GC(28)   Pre Evacuate Collection Set: 0.0ms
[2021-08-25T16:06:13.490-0300][gc,phases    ] GC(28)   Evacuate Collection Set: 10.8ms
[2021-08-25T16:06:13.490-0300][gc,phases    ] GC(28)   Post Evacuate Collection Set: 0.5ms
[2021-08-25T16:06:13.490-0300][gc,phases    ] GC(28)   Other: 0.3ms
[2021-08-25T16:06:13.490-0300][gc,heap      ] GC(28) Eden regions: 48->0(44)
[2021-08-25T16:06:13.490-0300][gc,heap      ] GC(28) Survivor regions: 3->7(7)
[2021-08-25T16:06:13.490-0300][gc,heap      ] GC(28) Old regions: 60->60
[2021-08-25T16:06:13.490-0300][gc,heap      ] GC(28) Archive regions: 2->2
[2021-08-25T16:06:13.490-0300][gc,heap      ] GC(28) Humongous regions: 133->133
[2021-08-25T16:06:13.490-0300][gc,metaspace ] GC(28) Metaspace: 77266K->77266K(1118208K)
[2021-08-25T16:06:13.490-0300][gc           ] GC(28) Pause Young (Normal) (G1 Evacuation Pause) 243M->199M(1024M) 11.703ms
[2021-08-25T16:06:13.490-0300][gc,cpu       ] GC(28) User=0.03s Sys=0.01s Real=0.02s
[2021-08-25T16:07:09.813-0300][gc,start     ] GC(29) Pause Young (Normal) (G1 Evacuation Pause)
[2021-08-25T16:07:09.814-0300][gc,task      ] GC(29) Using 4 workers of 4 for evacuation
[2021-08-25T16:07:09.826-0300][gc,phases    ] GC(29)   Pre Evacuate Collection Set: 0.1ms
[2021-08-25T16:07:09.826-0300][gc,phases    ] GC(29)   Evacuate Collection Set: 10.2ms
[2021-08-25T16:07:09.826-0300][gc,phases    ] GC(29)   Post Evacuate Collection Set: 0.7ms
[2021-08-25T16:07:09.826-0300][gc,phases    ] GC(29)   Other: 2.1ms
[2021-08-25T16:07:09.826-0300][gc,heap      ] GC(29) Eden regions: 44->0(49)
[2021-08-25T16:07:09.826-0300][gc,heap      ] GC(29) Survivor regions: 7->4(7)
[2021-08-25T16:07:09.826-0300][gc,heap      ] GC(29) Old regions: 60->63
[2021-08-25T16:07:09.826-0300][gc,heap      ] GC(29) Archive regions: 2->2
[2021-08-25T16:07:09.826-0300][gc,heap      ] GC(29) Humongous regions: 133->133
[2021-08-25T16:07:09.826-0300][gc,metaspace ] GC(29) Metaspace: 78008K->78008K(1120256K)
[2021-08-25T16:07:09.826-0300][gc           ] GC(29) Pause Young (Normal) (G1 Evacuation Pause) 243M->199M(1024M) 13.288ms
[2021-08-25T16:07:09.826-0300][gc,cpu       ] GC(29) User=0.04s Sys=0.00s Real=0.01s
[2021-08-25T16:07:49.658-0300][gc,start     ] GC(30) Pause Young (Normal) (G1 Evacuation Pause)
[2021-08-25T16:07:49.660-0300][gc,task      ] GC(30) Using 4 workers of 4 for evacuation
[2021-08-25T16:07:49.667-0300][gc,phases    ] GC(30)   Pre Evacuate Collection Set: 0.0ms
[2021-08-25T16:07:49.667-0300][gc,phases    ] GC(30)   Evacuate Collection Set: 6.7ms
[2021-08-25T16:07:49.667-0300][gc,phases    ] GC(30)   Post Evacuate Collection Set: 0.5ms
[2021-08-25T16:07:49.667-0300][gc,phases    ] GC(30)   Other: 1.8ms
[2021-08-25T16:07:49.667-0300][gc,heap      ] GC(30) Eden regions: 49->0(59)
[2021-08-25T16:07:49.667-0300][gc,heap      ] GC(30) Survivor regions: 4->4(7)
[2021-08-25T16:07:49.667-0300][gc,heap      ] GC(30) Old regions: 63->63
[2021-08-25T16:07:49.667-0300][gc,heap      ] GC(30) Archive regions: 2->2
[2021-08-25T16:07:49.667-0300][gc,heap      ] GC(30) Humongous regions: 133->133
[2021-08-25T16:07:49.667-0300][gc,metaspace ] GC(30) Metaspace: 78115K->78115K(1120256K)
[2021-08-25T16:07:49.667-0300][gc           ] GC(30) Pause Young (Normal) (G1 Evacuation Pause) 248M->199M(1024M) 9.184ms
[2021-08-25T16:07:49.667-0300][gc,cpu       ] GC(30) User=0.02s Sys=0.00s Real=0.01s
[2021-08-25T16:08:14.676-0300][gc,start     ] GC(31) Pause Young (Normal) (G1 Evacuation Pause)
[2021-08-25T16:08:14.676-0300][gc,task      ] GC(31) Using 4 workers of 4 for evacuation
[2021-08-25T16:08:14.684-0300][gc,phases    ] GC(31)   Pre Evacuate Collection Set: 0.1ms
[2021-08-25T16:08:14.684-0300][gc,phases    ] GC(31)   Evacuate Collection Set: 7.1ms
[2021-08-25T16:08:14.684-0300][gc,phases    ] GC(31)   Post Evacuate Collection Set: 0.8ms
[2021-08-25T16:08:14.684-0300][gc,phases    ] GC(31)   Other: 0.8ms
[2021-08-25T16:08:14.684-0300][gc,heap      ] GC(31) Eden regions: 49->0(63)
[2021-08-25T16:08:14.684-0300][gc,heap      ] GC(31) Survivor regions: 4->4(7)
[2021-08-25T16:08:14.684-0300][gc,heap      ] GC(31) Old regions: 63->63
[2021-08-25T16:08:14.684-0300][gc,heap      ] GC(31) Archive regions: 2->2
[2021-08-25T16:08:14.684-0300][gc,heap      ] GC(31) Humongous regions: 133->133
[2021-08-25T16:08:14.684-0300][gc,metaspace ] GC(31) Metaspace: 78182K->78182K(1120256K)
[2021-08-25T16:08:14.685-0300][gc           ] GC(31) Pause Young (Normal) (G1 Evacuation Pause) 248M->199M(1024M) 9.029ms
[2021-08-25T16:08:14.685-0300][gc,cpu       ] GC(31) User=0.03s Sys=0.00s Real=0.01s
[2021-08-25T16:09:10.250-0300][gc,start     ] GC(32) Pause Young (Normal) (G1 Evacuation Pause)
[2021-08-25T16:09:10.252-0300][gc,task      ] GC(32) Using 4 workers of 4 for evacuation
[2021-08-25T16:09:10.281-0300][gc,mmu       ] GC(32) MMU target violated: 21.0ms (20.0ms/21.0ms)
[2021-08-25T16:09:10.282-0300][gc,phases    ] GC(32)   Pre Evacuate Collection Set: 0.1ms
[2021-08-25T16:09:10.282-0300][gc,phases    ] GC(32)   Evacuate Collection Set: 26.5ms
[2021-08-25T16:09:10.282-0300][gc,phases    ] GC(32)   Post Evacuate Collection Set: 1.1ms
[2021-08-25T16:09:10.282-0300][gc,phases    ] GC(32)   Other: 3.6ms
[2021-08-25T16:09:10.282-0300][gc,heap      ] GC(32) Eden regions: 55->0(48)
[2021-08-25T16:09:10.282-0300][gc,heap      ] GC(32) Survivor regions: 4->5(8)
[2021-08-25T16:09:10.282-0300][gc,heap      ] GC(32) Old regions: 63->63
[2021-08-25T16:09:10.282-0300][gc,heap      ] GC(32) Archive regions: 2->2
[2021-08-25T16:09:10.282-0300][gc,heap      ] GC(32) Humongous regions: 133->133
[2021-08-25T16:09:10.282-0300][gc,metaspace ] GC(32) Metaspace: 78260K->78260K(1120256K)
[2021-08-25T16:09:10.282-0300][gc           ] GC(32) Pause Young (Normal) (G1 Evacuation Pause) 254M->200M(1024M) 31.387ms
[2021-08-25T16:09:10.282-0300][gc,cpu       ] GC(32) User=0.03s Sys=0.03s Real=0.03s
[2021-08-25T16:10:09.977-0300][gc,start     ] GC(33) Pause Young (Normal) (G1 Evacuation Pause)
[2021-08-25T16:10:09.977-0300][gc,task      ] GC(33) Using 4 workers of 4 for evacuation
[2021-08-25T16:10:09.986-0300][gc,phases    ] GC(33)   Pre Evacuate Collection Set: 0.1ms
[2021-08-25T16:10:09.986-0300][gc,phases    ] GC(33)   Evacuate Collection Set: 7.9ms
[2021-08-25T16:10:09.986-0300][gc,phases    ] GC(33)   Post Evacuate Collection Set: 0.5ms
[2021-08-25T16:10:09.986-0300][gc,phases    ] GC(33)   Other: 0.4ms
[2021-08-25T16:10:09.986-0300][gc,heap      ] GC(33) Eden regions: 48->0(53)
[2021-08-25T16:10:09.986-0300][gc,heap      ] GC(33) Survivor regions: 5->4(7)
[2021-08-25T16:10:09.986-0300][gc,heap      ] GC(33) Old regions: 63->65
[2021-08-25T16:10:09.986-0300][gc,heap      ] GC(33) Archive regions: 2->2
[2021-08-25T16:10:09.986-0300][gc,heap      ] GC(33) Humongous regions: 133->133
[2021-08-25T16:10:09.986-0300][gc,metaspace ] GC(33) Metaspace: 78348K->78348K(1120256K)
[2021-08-25T16:10:09.986-0300][gc           ] GC(33) Pause Young (Normal) (G1 Evacuation Pause) 248M->201M(1024M) 9.116ms
[2021-08-25T16:10:09.986-0300][gc,cpu       ] GC(33) User=0.03s Sys=0.00s Real=0.01s
[2021-08-25T16:11:09.979-0300][gc,start     ] GC(34) Pause Young (Normal) (G1 Evacuation Pause)
[2021-08-25T16:11:09.979-0300][gc,task      ] GC(34) Using 4 workers of 4 for evacuation
[2021-08-25T16:11:09.993-0300][gc,phases    ] GC(34)   Pre Evacuate Collection Set: 0.0ms
[2021-08-25T16:11:09.993-0300][gc,phases    ] GC(34)   Evacuate Collection Set: 13.1ms
[2021-08-25T16:11:09.993-0300][gc,phases    ] GC(34)   Post Evacuate Collection Set: 0.8ms
[2021-08-25T16:11:09.993-0300][gc,phases    ] GC(34)   Other: 0.7ms
[2021-08-25T16:11:09.993-0300][gc,heap      ] GC(34) Eden regions: 53->0(55)
[2021-08-25T16:11:09.993-0300][gc,heap      ] GC(34) Survivor regions: 4->5(8)
[2021-08-25T16:11:09.993-0300][gc,heap      ] GC(34) Old regions: 65->65
[2021-08-25T16:11:09.993-0300][gc,heap      ] GC(34) Archive regions: 2->2
[2021-08-25T16:11:09.993-0300][gc,heap      ] GC(34) Humongous regions: 133->133
[2021-08-25T16:11:09.993-0300][gc,metaspace ] GC(34) Metaspace: 78371K->78371K(1120256K)
[2021-08-25T16:11:09.993-0300][gc           ] GC(34) Pause Young (Normal) (G1 Evacuation Pause) 254M->202M(1024M) 14.716ms
[2021-08-25T16:11:09.993-0300][gc,cpu       ] GC(34) User=0.04s Sys=0.00s Real=0.02s
[2021-08-25T16:12:03.487-0300][gc,start     ] GC(35) Pause Young (Normal) (G1 Evacuation Pause)
[2021-08-25T16:12:03.488-0300][gc,task      ] GC(35) Using 4 workers of 4 for evacuation
[2021-08-25T16:12:03.512-0300][gc,mmu       ] GC(35) MMU target violated: 21.0ms (20.0ms/21.0ms)
[2021-08-25T16:12:03.512-0300][gc,phases    ] GC(35)   Pre Evacuate Collection Set: 0.2ms
[2021-08-25T16:12:03.512-0300][gc,phases    ] GC(35)   Evacuate Collection Set: 20.7ms
[2021-08-25T16:12:03.512-0300][gc,phases    ] GC(35)   Post Evacuate Collection Set: 1.0ms
[2021-08-25T16:12:03.512-0300][gc,phases    ] GC(35)   Other: 3.3ms
[2021-08-25T16:12:03.512-0300][gc,heap      ] GC(35) Eden regions: 55->0(49)
[2021-08-25T16:12:03.513-0300][gc,heap      ] GC(35) Survivor regions: 5->4(8)
[2021-08-25T16:12:03.513-0300][gc,heap      ] GC(35) Old regions: 65->65
[2021-08-25T16:12:03.513-0300][gc,heap      ] GC(35) Archive regions: 2->2
[2021-08-25T16:12:03.513-0300][gc,heap      ] GC(35) Humongous regions: 133->133
[2021-08-25T16:12:03.513-0300][gc,metaspace ] GC(35) Metaspace: 78419K->78419K(1120256K)
[2021-08-25T16:12:03.513-0300][gc           ] GC(35) Pause Young (Normal) (G1 Evacuation Pause) 257M->202M(1024M) 25.222ms
[2021-08-25T16:12:03.513-0300][gc,cpu       ] GC(35) User=0.03s Sys=0.04s Real=0.03s
[2021-08-25T16:12:13.549-0300][gc,start     ] GC(36) Pause Young (Normal) (G1 Evacuation Pause)
[2021-08-25T16:12:13.549-0300][gc,task      ] GC(36) Using 4 workers of 4 for evacuation
[2021-08-25T16:12:13.557-0300][gc,phases    ] GC(36)   Pre Evacuate Collection Set: 0.1ms
[2021-08-25T16:12:13.557-0300][gc,phases    ] GC(36)   Evacuate Collection Set: 7.7ms
[2021-08-25T16:12:13.557-0300][gc,phases    ] GC(36)   Post Evacuate Collection Set: 0.5ms
[2021-08-25T16:12:13.557-0300][gc,phases    ] GC(36)   Other: 0.4ms
[2021-08-25T16:12:13.557-0300][gc,heap      ] GC(36) Eden regions: 49->0(52)
[2021-08-25T16:12:13.557-0300][gc,heap      ] GC(36) Survivor regions: 4->6(7)
[2021-08-25T16:12:13.557-0300][gc,heap      ] GC(36) Old regions: 65->65
[2021-08-25T16:12:13.557-0300][gc,heap      ] GC(36) Archive regions: 2->2
[2021-08-25T16:12:13.557-0300][gc,heap      ] GC(36) Humongous regions: 133->133
[2021-08-25T16:12:13.557-0300][gc,metaspace ] GC(36) Metaspace: 78500K->78500K(1120256K)
[2021-08-25T16:12:13.557-0300][gc           ] GC(36) Pause Young (Normal) (G1 Evacuation Pause) 251M->204M(1024M) 8.836ms
[2021-08-25T16:12:13.558-0300][gc,cpu       ] GC(36) User=0.03s Sys=0.00s Real=0.01s
[2021-08-25T16:13:10.025-0300][gc,start     ] GC(37) Pause Young (Normal) (G1 Evacuation Pause)
[2021-08-25T16:13:10.025-0300][gc,task      ] GC(37) Using 4 workers of 4 for evacuation
[2021-08-25T16:13:10.037-0300][gc,phases    ] GC(37)   Pre Evacuate Collection Set: 0.1ms
[2021-08-25T16:13:10.037-0300][gc,phases    ] GC(37)   Evacuate Collection Set: 10.6ms
[2021-08-25T16:13:10.037-0300][gc,phases    ] GC(37)   Post Evacuate Collection Set: 0.5ms
[2021-08-25T16:13:10.037-0300][gc,phases    ] GC(37)   Other: 0.9ms
[2021-08-25T16:13:10.037-0300][gc,heap      ] GC(37) Eden regions: 52->0(57)
[2021-08-25T16:13:10.037-0300][gc,heap      ] GC(37) Survivor regions: 6->4(8)
[2021-08-25T16:13:10.037-0300][gc,heap      ] GC(37) Old regions: 65->67
[2021-08-25T16:13:10.037-0300][gc,heap      ] GC(37) Archive regions: 2->2
[2021-08-25T16:13:10.037-0300][gc,heap      ] GC(37) Humongous regions: 133->133
[2021-08-25T16:13:10.037-0300][gc,metaspace ] GC(37) Metaspace: 78640K->78640K(1120256K)
[2021-08-25T16:13:10.037-0300][gc           ] GC(37) Pause Young (Normal) (G1 Evacuation Pause) 256M->204M(1024M) 12.336ms
[2021-08-25T16:13:10.037-0300][gc,cpu       ] GC(37) User=0.04s Sys=0.00s Real=0.01s
[2021-08-25T16:14:10.020-0300][gc,start     ] GC(38) Pause Young (Normal) (G1 Evacuation Pause)
[2021-08-25T16:14:10.020-0300][gc,task      ] GC(38) Using 4 workers of 4 for evacuation
[2021-08-25T16:14:10.041-0300][gc,mmu       ] GC(38) MMU target violated: 20.6ms (20.0ms/21.0ms)
[2021-08-25T16:14:10.041-0300][gc,phases    ] GC(38)   Pre Evacuate Collection Set: 0.1ms
[2021-08-25T16:14:10.041-0300][gc,phases    ] GC(38)   Evacuate Collection Set: 16.3ms
[2021-08-25T16:14:10.041-0300][gc,phases    ] GC(38)   Post Evacuate Collection Set: 4.0ms
[2021-08-25T16:14:10.041-0300][gc,phases    ] GC(38)   Other: 0.9ms
[2021-08-25T16:14:10.041-0300][gc,heap      ] GC(38) Eden regions: 54->0(58)
[2021-08-25T16:14:10.041-0300][gc,heap      ] GC(38) Survivor regions: 4->5(8)
[2021-08-25T16:14:10.041-0300][gc,heap      ] GC(38) Old regions: 67->67
[2021-08-25T16:14:10.041-0300][gc,heap      ] GC(38) Archive regions: 2->2
[2021-08-25T16:14:10.041-0300][gc,heap      ] GC(38) Humongous regions: 133->133
[2021-08-25T16:14:10.041-0300][gc,metaspace ] GC(38) Metaspace: 78661K->78661K(1120256K)
[2021-08-25T16:14:10.041-0300][gc           ] GC(38) Pause Young (Normal) (G1 Evacuation Pause) 258M->205M(1024M) 21.385ms
[2021-08-25T16:14:10.041-0300][gc,cpu       ] GC(38) User=0.06s Sys=0.00s Real=0.02s
[2021-08-25T16:15:10.016-0300][gc,start     ] GC(39) Pause Young (Normal) (G1 Evacuation Pause)
[2021-08-25T16:15:10.016-0300][gc,task      ] GC(39) Using 4 workers of 4 for evacuation
[2021-08-25T16:15:10.038-0300][gc,mmu       ] GC(39) MMU target violated: 21.0ms (20.0ms/21.0ms)
[2021-08-25T16:15:10.038-0300][gc,phases    ] GC(39)   Pre Evacuate Collection Set: 0.1ms
[2021-08-25T16:15:10.038-0300][gc,phases    ] GC(39)   Evacuate Collection Set: 20.8ms
[2021-08-25T16:15:10.038-0300][gc,phases    ] GC(39)   Post Evacuate Collection Set: 0.8ms
[2021-08-25T16:15:10.039-0300][gc,phases    ] GC(39)   Other: 0.5ms
[2021-08-25T16:15:10.039-0300][gc,heap      ] GC(39) Eden regions: 58->0(53)
[2021-08-25T16:15:10.039-0300][gc,heap      ] GC(39) Survivor regions: 5->4(8)
[2021-08-25T16:15:10.039-0300][gc,heap      ] GC(39) Old regions: 67->68
[2021-08-25T16:15:10.039-0300][gc,heap      ] GC(39) Archive regions: 2->2
[2021-08-25T16:15:10.039-0300][gc,heap      ] GC(39) Humongous regions: 133->133
[2021-08-25T16:15:10.039-0300][gc,metaspace ] GC(39) Metaspace: 78732K->78732K(1120256K)
[2021-08-25T16:15:10.039-0300][gc           ] GC(39) Pause Young (Normal) (G1 Evacuation Pause) 263M->204M(1024M) 22.637ms
[2021-08-25T16:15:10.039-0300][gc,cpu       ] GC(39) User=0.04s Sys=0.02s Real=0.02s
[2021-08-25T16:15:13.568-0300][gc,start     ] GC(40) Pause Young (Normal) (G1 Evacuation Pause)
[2021-08-25T16:15:13.569-0300][gc,task      ] GC(40) Using 4 workers of 4 for evacuation
[2021-08-25T16:15:13.578-0300][gc,phases    ] GC(40)   Pre Evacuate Collection Set: 0.0ms
[2021-08-25T16:15:13.578-0300][gc,phases    ] GC(40)   Evacuate Collection Set: 8.4ms
[2021-08-25T16:15:13.578-0300][gc,phases    ] GC(40)   Post Evacuate Collection Set: 0.6ms
[2021-08-25T16:15:13.578-0300][gc,phases    ] GC(40)   Other: 0.3ms
[2021-08-25T16:15:13.578-0300][gc,heap      ] GC(40) Eden regions: 48->0(52)
[2021-08-25T16:15:13.578-0300][gc,heap      ] GC(40) Survivor regions: 4->6(7)
[2021-08-25T16:15:13.578-0300][gc,heap      ] GC(40) Old regions: 68->68
[2021-08-25T16:15:13.578-0300][gc,heap      ] GC(40) Archive regions: 2->2
[2021-08-25T16:15:13.578-0300][gc,heap      ] GC(40) Humongous regions: 133->133
[2021-08-25T16:15:13.578-0300][gc,metaspace ] GC(40) Metaspace: 78897K->78897K(1120256K)
[2021-08-25T16:15:13.578-0300][gc           ] GC(40) Pause Young (Normal) (G1 Evacuation Pause) 252M->207M(1024M) 9.515ms
[2021-08-25T16:15:13.578-0300][gc,cpu       ] GC(40) User=0.03s Sys=0.00s Real=0.01s
[2021-08-25T16:16:10.069-0300][gc,start     ] GC(41) Pause Young (Normal) (G1 Evacuation Pause)
[2021-08-25T16:16:10.070-0300][gc,task      ] GC(41) Using 4 workers of 4 for evacuation
[2021-08-25T16:16:10.082-0300][gc,phases    ] GC(41)   Pre Evacuate Collection Set: 0.1ms
[2021-08-25T16:16:10.082-0300][gc,phases    ] GC(41)   Evacuate Collection Set: 11.4ms
[2021-08-25T16:16:10.082-0300][gc,phases    ] GC(41)   Post Evacuate Collection Set: 0.7ms
[2021-08-25T16:16:10.082-0300][gc,phases    ] GC(41)   Other: 0.9ms
[2021-08-25T16:16:10.082-0300][gc,heap      ] GC(41) Eden regions: 52->0(59)
[2021-08-25T16:16:10.082-0300][gc,heap      ] GC(41) Survivor regions: 6->4(8)
[2021-08-25T16:16:10.082-0300][gc,heap      ] GC(41) Old regions: 68->70
[2021-08-25T16:16:10.082-0300][gc,heap      ] GC(41) Archive regions: 2->2
[2021-08-25T16:16:10.082-0300][gc,heap      ] GC(41) Humongous regions: 133->133
[2021-08-25T16:16:10.082-0300][gc,metaspace ] GC(41) Metaspace: 78918K->78918K(1120256K)
[2021-08-25T16:16:10.083-0300][gc           ] GC(41) Pause Young (Normal) (G1 Evacuation Pause) 259M->206M(1024M) 13.479ms
[2021-08-25T16:16:10.083-0300][gc,cpu       ] GC(41) User=0.04s Sys=0.00s Real=0.02s
[2021-08-25T16:17:10.435-0300][gc,start     ] GC(42) Pause Young (Normal) (G1 Evacuation Pause)
[2021-08-25T16:17:10.437-0300][gc,task      ] GC(42) Using 4 workers of 4 for evacuation
[2021-08-25T16:17:10.448-0300][gc,phases    ] GC(42)   Pre Evacuate Collection Set: 0.0ms
[2021-08-25T16:17:10.448-0300][gc,phases    ] GC(42)   Evacuate Collection Set: 9.8ms
[2021-08-25T16:17:10.448-0300][gc,phases    ] GC(42)   Post Evacuate Collection Set: 0.5ms
[2021-08-25T16:17:10.448-0300][gc,phases    ] GC(42)   Other: 2.2ms
[2021-08-25T16:17:10.448-0300][gc,heap      ] GC(42) Eden regions: 59->0(63)
[2021-08-25T16:17:10.448-0300][gc,heap      ] GC(42) Survivor regions: 4->5(8)
[2021-08-25T16:17:10.448-0300][gc,heap      ] GC(42) Old regions: 70->70
[2021-08-25T16:17:10.448-0300][gc,heap      ] GC(42) Archive regions: 2->2
[2021-08-25T16:17:10.448-0300][gc,heap      ] GC(42) Humongous regions: 133->133
[2021-08-25T16:17:10.448-0300][gc,metaspace ] GC(42) Metaspace: 78935K->78935K(1120256K)
[2021-08-25T16:17:10.448-0300][gc           ] GC(42) Pause Young (Normal) (G1 Evacuation Pause) 265M->207M(1024M) 12.658ms
[2021-08-25T16:17:10.448-0300][gc,cpu       ] GC(42) User=0.03s Sys=0.00s Real=0.01s
[2021-08-25T16:18:10.433-0300][gc,start     ] GC(43) Pause Young (Normal) (G1 Evacuation Pause)
[2021-08-25T16:18:10.433-0300][gc,task      ] GC(43) Using 4 workers of 4 for evacuation
[2021-08-25T16:18:10.442-0300][gc,phases    ] GC(43)   Pre Evacuate Collection Set: 0.0ms
[2021-08-25T16:18:10.442-0300][gc,phases    ] GC(43)   Evacuate Collection Set: 8.9ms
[2021-08-25T16:18:10.442-0300][gc,phases    ] GC(43)   Post Evacuate Collection Set: 0.6ms
[2021-08-25T16:18:10.442-0300][gc,phases    ] GC(43)   Other: 0.3ms
[2021-08-25T16:18:10.443-0300][gc,heap      ] GC(43) Eden regions: 58->0(74)
[2021-08-25T16:18:10.443-0300][gc,heap      ] GC(43) Survivor regions: 5->4(8)
[2021-08-25T16:18:10.443-0300][gc,heap      ] GC(43) Old regions: 70->70
[2021-08-25T16:18:10.443-0300][gc,heap      ] GC(43) Archive regions: 2->2
[2021-08-25T16:18:10.443-0300][gc,heap      ] GC(43) Humongous regions: 133->133
[2021-08-25T16:18:10.443-0300][gc,metaspace ] GC(43) Metaspace: 78965K->78965K(1120256K)
[2021-08-25T16:18:10.443-0300][gc           ] GC(43) Pause Young (Normal) (G1 Evacuation Pause) 265M->207M(1024M) 10.033ms
[2021-08-25T16:18:10.443-0300][gc,cpu       ] GC(43) User=0.02s Sys=0.00s Real=0.01s
[2021-08-25T16:19:10.074-0300][gc,start     ] GC(44) Pause Young (Normal) (G1 Evacuation Pause)
[2021-08-25T16:19:10.074-0300][gc,task      ] GC(44) Using 4 workers of 4 for evacuation
[2021-08-25T16:19:10.092-0300][gc,phases    ] GC(44)   Pre Evacuate Collection Set: 0.0ms
[2021-08-25T16:19:10.092-0300][gc,phases    ] GC(44)   Evacuate Collection Set: 16.6ms
[2021-08-25T16:19:10.092-0300][gc,phases    ] GC(44)   Post Evacuate Collection Set: 0.4ms
[2021-08-25T16:19:10.092-0300][gc,phases    ] GC(44)   Other: 0.7ms
[2021-08-25T16:19:10.092-0300][gc,heap      ] GC(44) Eden regions: 74->0(70)
[2021-08-25T16:19:10.092-0300][gc,heap      ] GC(44) Survivor regions: 4->6(10)
[2021-08-25T16:19:10.092-0300][gc,heap      ] GC(44) Old regions: 70->70
[2021-08-25T16:19:10.092-0300][gc,heap      ] GC(44) Archive regions: 2->2
[2021-08-25T16:19:10.092-0300][gc,heap      ] GC(44) Humongous regions: 133->133
[2021-08-25T16:19:10.092-0300][gc,metaspace ] GC(44) Metaspace: 79017K->79017K(1120256K)
[2021-08-25T16:19:10.092-0300][gc           ] GC(44) Pause Young (Normal) (G1 Evacuation Pause) 281M->208M(1024M) 18.358ms
[2021-08-25T16:19:10.092-0300][gc,cpu       ] GC(44) User=0.04s Sys=0.02s Real=0.02s
[2021-08-25T16:20:32.588-0300][gc,start     ] GC(45) Pause Young (Normal) (G1 Evacuation Pause)
[2021-08-25T16:20:32.588-0300][gc,task      ] GC(45) Using 4 workers of 4 for evacuation
[2021-08-25T16:20:32.600-0300][gc,phases    ] GC(45)   Pre Evacuate Collection Set: 0.0ms
[2021-08-25T16:20:32.600-0300][gc,phases    ] GC(45)   Evacuate Collection Set: 11.1ms
[2021-08-25T16:20:32.600-0300][gc,phases    ] GC(45)   Post Evacuate Collection Set: 0.7ms
[2021-08-25T16:20:32.600-0300][gc,phases    ] GC(45)   Other: 0.7ms
[2021-08-25T16:20:32.600-0300][gc,heap      ] GC(45) Eden regions: 70->0(74)
[2021-08-25T16:20:32.600-0300][gc,heap      ] GC(45) Survivor regions: 6->6(10)
[2021-08-25T16:20:32.600-0300][gc,heap      ] GC(45) Old regions: 70->70
[2021-08-25T16:20:32.600-0300][gc,heap      ] GC(45) Archive regions: 2->2
[2021-08-25T16:20:32.600-0300][gc,heap      ] GC(45) Humongous regions: 133->133
[2021-08-25T16:20:32.600-0300][gc,metaspace ] GC(45) Metaspace: 79051K->79051K(1120256K)
[2021-08-25T16:20:32.601-0300][gc           ] GC(45) Pause Young (Normal) (G1 Evacuation Pause) 278M->208M(1024M) 12.778ms
[2021-08-25T16:20:32.601-0300][gc,cpu       ] GC(45) User=0.04s Sys=0.00s Real=0.02s
[2021-08-25T16:21:13.750-0300][gc,start     ] GC(46) Pause Young (Normal) (G1 Evacuation Pause)
[2021-08-25T16:21:13.750-0300][gc,task      ] GC(46) Using 4 workers of 4 for evacuation
[2021-08-25T16:21:13.763-0300][gc,phases    ] GC(46)   Pre Evacuate Collection Set: 0.0ms
[2021-08-25T16:21:13.763-0300][gc,phases    ] GC(46)   Evacuate Collection Set: 12.1ms
[2021-08-25T16:21:13.763-0300][gc,phases    ] GC(46)   Post Evacuate Collection Set: 0.4ms
[2021-08-25T16:21:13.763-0300][gc,phases    ] GC(46)   Other: 0.3ms
[2021-08-25T16:21:13.763-0300][gc,heap      ] GC(46) Eden regions: 74->0(76)
[2021-08-25T16:21:13.763-0300][gc,heap      ] GC(46) Survivor regions: 6->7(10)
[2021-08-25T16:21:13.763-0300][gc,heap      ] GC(46) Old regions: 70->70
[2021-08-25T16:21:13.763-0300][gc,heap      ] GC(46) Archive regions: 2->2
[2021-08-25T16:21:13.763-0300][gc,heap      ] GC(46) Humongous regions: 133->133
[2021-08-25T16:21:13.763-0300][gc,metaspace ] GC(46) Metaspace: 79092K->79092K(1120256K)
[2021-08-25T16:21:13.763-0300][gc           ] GC(46) Pause Young (Normal) (G1 Evacuation Pause) 282M->209M(1024M) 13.049ms
[2021-08-25T16:21:13.763-0300][gc,cpu       ] GC(46) User=0.04s Sys=0.00s Real=0.01s
[2021-08-25T16:23:09.986-0300][gc,start     ] GC(47) Pause Young (Normal) (G1 Evacuation Pause)
[2021-08-25T16:23:09.987-0300][gc,task      ] GC(47) Using 4 workers of 4 for evacuation
[2021-08-25T16:23:10.023-0300][gc,mmu       ] GC(47) MMU target violated: 21.0ms (20.0ms/21.0ms)
[2021-08-25T16:23:10.023-0300][gc,phases    ] GC(47)   Pre Evacuate Collection Set: 0.3ms
[2021-08-25T16:23:10.023-0300][gc,phases    ] GC(47)   Evacuate Collection Set: 33.4ms
[2021-08-25T16:23:10.023-0300][gc,phases    ] GC(47)   Post Evacuate Collection Set: 1.9ms
[2021-08-25T16:23:10.024-0300][gc,phases    ] GC(47)   Other: 1.9ms
[2021-08-25T16:23:10.024-0300][gc,heap      ] GC(47) Eden regions: 74->0(44)
[2021-08-25T16:23:10.024-0300][gc,heap      ] GC(47) Survivor regions: 7->7(11)
[2021-08-25T16:23:10.024-0300][gc,heap      ] GC(47) Old regions: 70->71
[2021-08-25T16:23:10.024-0300][gc,heap      ] GC(47) Archive regions: 2->2
[2021-08-25T16:23:10.024-0300][gc,heap      ] GC(47) Humongous regions: 133->133
[2021-08-25T16:23:10.024-0300][gc,metaspace ] GC(47) Metaspace: 79133K->79133K(1120256K)
[2021-08-25T16:23:10.024-0300][gc           ] GC(47) Pause Young (Normal) (G1 Evacuation Pause) 283M->210M(1024M) 37.810ms
[2021-08-25T16:23:10.024-0300][gc,cpu       ] GC(47) User=0.05s Sys=0.05s Real=0.04s
[2021-08-25T16:23:24.693-0300][gc,start     ] GC(48) Pause Young (Normal) (G1 Evacuation Pause)
[2021-08-25T16:23:24.693-0300][gc,task      ] GC(48) Using 4 workers of 4 for evacuation
[2021-08-25T16:23:24.713-0300][gc,phases    ] GC(48)   Pre Evacuate Collection Set: 0.1ms
[2021-08-25T16:23:24.713-0300][gc,phases    ] GC(48)   Evacuate Collection Set: 19.1ms
[2021-08-25T16:23:24.714-0300][gc,phases    ] GC(48)   Post Evacuate Collection Set: 0.5ms
[2021-08-25T16:23:24.714-0300][gc,phases    ] GC(48)   Other: 0.7ms
[2021-08-25T16:23:24.714-0300][gc,heap      ] GC(48) Eden regions: 44->0(55)
[2021-08-25T16:23:24.714-0300][gc,heap      ] GC(48) Survivor regions: 7->4(7)
[2021-08-25T16:23:24.714-0300][gc,heap      ] GC(48) Old regions: 71->73
[2021-08-25T16:23:24.714-0300][gc,heap      ] GC(48) Archive regions: 2->2
[2021-08-25T16:23:24.714-0300][gc,heap      ] GC(48) Humongous regions: 133->133
[2021-08-25T16:23:24.714-0300][gc,metaspace ] GC(48) Metaspace: 79135K->79135K(1120256K)
[2021-08-25T16:23:24.714-0300][gc           ] GC(48) Pause Young (Normal) (G1 Evacuation Pause) 254M->210M(1024M) 20.644ms
[2021-08-25T16:23:24.714-0300][gc,cpu       ] GC(48) User=0.04s Sys=0.01s Real=0.02s
[2021-08-25T16:24:13.545-0300][gc,start     ] GC(49) Pause Young (Normal) (G1 Evacuation Pause)
[2021-08-25T16:24:13.545-0300][gc,task      ] GC(49) Using 4 workers of 4 for evacuation
[2021-08-25T16:24:13.557-0300][gc,phases    ] GC(49)   Pre Evacuate Collection Set: 0.0ms
[2021-08-25T16:24:13.557-0300][gc,phases    ] GC(49)   Evacuate Collection Set: 11.1ms
[2021-08-25T16:24:13.557-0300][gc,phases    ] GC(49)   Post Evacuate Collection Set: 0.4ms
[2021-08-25T16:24:13.557-0300][gc,phases    ] GC(49)   Other: 0.7ms
[2021-08-25T16:24:13.557-0300][gc,heap      ] GC(49) Eden regions: 55->0(55)
[2021-08-25T16:24:13.557-0300][gc,heap      ] GC(49) Survivor regions: 4->5(8)
[2021-08-25T16:24:13.557-0300][gc,heap      ] GC(49) Old regions: 73->73
[2021-08-25T16:24:13.557-0300][gc,heap      ] GC(49) Archive regions: 2->2
[2021-08-25T16:24:13.557-0300][gc,heap      ] GC(49) Humongous regions: 133->133
[2021-08-25T16:24:13.557-0300][gc,metaspace ] GC(49) Metaspace: 79151K->79151K(1120256K)
[2021-08-25T16:24:13.557-0300][gc           ] GC(49) Pause Young (Normal) (G1 Evacuation Pause) 265M->211M(1024M) 12.389ms
[2021-08-25T16:24:13.557-0300][gc,cpu       ] GC(49) User=0.03s Sys=0.01s Real=0.01s
[2021-08-25T16:25:10.077-0300][gc,start     ] GC(50) Pause Young (Normal) (G1 Evacuation Pause)
[2021-08-25T16:25:10.081-0300][gc,task      ] GC(50) Using 4 workers of 4 for evacuation
[2021-08-25T16:25:10.097-0300][gc,phases    ] GC(50)   Pre Evacuate Collection Set: 0.1ms
[2021-08-25T16:25:10.098-0300][gc,phases    ] GC(50)   Evacuate Collection Set: 14.9ms
[2021-08-25T16:25:10.098-0300][gc,phases    ] GC(50)   Post Evacuate Collection Set: 1.3ms
[2021-08-25T16:25:10.098-0300][gc,phases    ] GC(50)   Other: 4.0ms
[2021-08-25T16:25:10.098-0300][gc,heap      ] GC(50) Eden regions: 55->0(55)
[2021-08-25T16:25:10.098-0300][gc,heap      ] GC(50) Survivor regions: 5->5(8)
[2021-08-25T16:25:10.098-0300][gc,heap      ] GC(50) Old regions: 73->74
[2021-08-25T16:25:10.098-0300][gc,heap      ] GC(50) Archive regions: 2->2
[2021-08-25T16:25:10.098-0300][gc,heap      ] GC(50) Humongous regions: 133->133
[2021-08-25T16:25:10.098-0300][gc,metaspace ] GC(50) Metaspace: 79164K->79164K(1120256K)
[2021-08-25T16:25:10.098-0300][gc           ] GC(50) Pause Young (Normal) (G1 Evacuation Pause) 266M->212M(1024M) 20.534ms
[2021-08-25T16:25:10.098-0300][gc,cpu       ] GC(50) User=0.05s Sys=0.01s Real=0.02s
[2021-08-25T16:26:10.081-0300][gc,start     ] GC(51) Pause Young (Normal) (G1 Evacuation Pause)
[2021-08-25T16:26:10.081-0300][gc,task      ] GC(51) Using 4 workers of 4 for evacuation
[2021-08-25T16:26:10.092-0300][gc,phases    ] GC(51)   Pre Evacuate Collection Set: 0.0ms
[2021-08-25T16:26:10.092-0300][gc,phases    ] GC(51)   Evacuate Collection Set: 10.3ms
[2021-08-25T16:26:10.092-0300][gc,phases    ] GC(51)   Post Evacuate Collection Set: 0.5ms
[2021-08-25T16:26:10.092-0300][gc,phases    ] GC(51)   Other: 0.4ms
[2021-08-25T16:26:10.092-0300][gc,heap      ] GC(51) Eden regions: 55->0(59)
[2021-08-25T16:26:10.092-0300][gc,heap      ] GC(51) Survivor regions: 5->4(8)
[2021-08-25T16:26:10.092-0300][gc,heap      ] GC(51) Old regions: 74->76
[2021-08-25T16:26:10.092-0300][gc,heap      ] GC(51) Archive regions: 2->2
[2021-08-25T16:26:10.092-0300][gc,heap      ] GC(51) Humongous regions: 133->133
[2021-08-25T16:26:10.092-0300][gc,metaspace ] GC(51) Metaspace: 79178K->79178K(1120256K)
[2021-08-25T16:26:10.092-0300][gc           ] GC(51) Pause Young (Normal) (G1 Evacuation Pause) 267M->212M(1024M) 11.466ms
[2021-08-25T16:26:10.092-0300][gc,cpu       ] GC(51) User=0.05s Sys=0.01s Real=0.01s
[2021-08-25T16:27:10.092-0300][gc,start     ] GC(52) Pause Young (Normal) (G1 Evacuation Pause)
[2021-08-25T16:27:10.093-0300][gc,task      ] GC(52) Using 4 workers of 4 for evacuation
[2021-08-25T16:27:10.103-0300][gc,phases    ] GC(52)   Pre Evacuate Collection Set: 0.1ms
[2021-08-25T16:27:10.104-0300][gc,phases    ] GC(52)   Evacuate Collection Set: 10.1ms
[2021-08-25T16:27:10.104-0300][gc,phases    ] GC(52)   Post Evacuate Collection Set: 0.4ms
[2021-08-25T16:27:10.104-0300][gc,phases    ] GC(52)   Other: 0.7ms
[2021-08-25T16:27:10.104-0300][gc,heap      ] GC(52) Eden regions: 59->0(62)
[2021-08-25T16:27:10.104-0300][gc,heap      ] GC(52) Survivor regions: 4->5(8)
[2021-08-25T16:27:10.104-0300][gc,heap      ] GC(52) Old regions: 76->76
[2021-08-25T16:27:10.104-0300][gc,heap      ] GC(52) Archive regions: 2->2
[2021-08-25T16:27:10.104-0300][gc,heap      ] GC(52) Humongous regions: 133->133
[2021-08-25T16:27:10.104-0300][gc,metaspace ] GC(52) Metaspace: 79205K->79205K(1120256K)
[2021-08-25T16:27:10.104-0300][gc           ] GC(52) Pause Young (Normal) (G1 Evacuation Pause) 271M->213M(1024M) 11.475ms
[2021-08-25T16:27:10.104-0300][gc,cpu       ] GC(52) User=0.02s Sys=0.00s Real=0.01s
[2021-08-25T16:28:10.124-0300][gc,start     ] GC(53) Pause Young (Normal) (G1 Evacuation Pause)
[2021-08-25T16:28:10.125-0300][gc,task      ] GC(53) Using 4 workers of 4 for evacuation
[2021-08-25T16:28:10.175-0300][gc,mmu       ] GC(53) MMU target violated: 21.0ms (20.0ms/21.0ms)
[2021-08-25T16:28:10.175-0300][gc,phases    ] GC(53)   Pre Evacuate Collection Set: 0.1ms
[2021-08-25T16:28:10.175-0300][gc,phases    ] GC(53)   Evacuate Collection Set: 44.8ms
[2021-08-25T16:28:10.175-0300][gc,phases    ] GC(53)   Post Evacuate Collection Set: 3.0ms
[2021-08-25T16:28:10.175-0300][gc,phases    ] GC(53)   Other: 3.1ms
[2021-08-25T16:28:10.175-0300][gc,heap      ] GC(53) Eden regions: 62->0(45)
[2021-08-25T16:28:10.175-0300][gc,heap      ] GC(53) Survivor regions: 5->6(9)
[2021-08-25T16:28:10.175-0300][gc,heap      ] GC(53) Old regions: 76->76
[2021-08-25T16:28:10.175-0300][gc,heap      ] GC(53) Archive regions: 2->2
[2021-08-25T16:28:10.175-0300][gc,heap      ] GC(53) Humongous regions: 133->133
[2021-08-25T16:28:10.175-0300][gc,metaspace ] GC(53) Metaspace: 79273K->79273K(1120256K)
[2021-08-25T16:28:10.175-0300][gc           ] GC(53) Pause Young (Normal) (G1 Evacuation Pause) 275M->214M(1024M) 51.173ms
[2021-08-25T16:28:10.175-0300][gc,cpu       ] GC(53) User=0.04s Sys=0.06s Real=0.05s
[2021-08-25T16:28:46.656-0300][gc,start     ] GC(54) Pause Young (Normal) (G1 Evacuation Pause)
[2021-08-25T16:28:46.658-0300][gc,task      ] GC(54) Using 4 workers of 4 for evacuation
[2021-08-25T16:28:46.743-0300][gc,mmu       ] GC(54) MMU target violated: 21.0ms (20.0ms/21.0ms)
[2021-08-25T16:28:46.744-0300][gc,phases    ] GC(54)   Pre Evacuate Collection Set: 0.1ms
[2021-08-25T16:28:46.744-0300][gc,phases    ] GC(54)   Evacuate Collection Set: 83.7ms
[2021-08-25T16:28:46.744-0300][gc,phases    ] GC(54)   Post Evacuate Collection Set: 1.1ms
[2021-08-25T16:28:46.744-0300][gc,phases    ] GC(54)   Other: 3.8ms
[2021-08-25T16:28:46.744-0300][gc,heap      ] GC(54) Eden regions: 45->0(48)
[2021-08-25T16:28:46.744-0300][gc,heap      ] GC(54) Survivor regions: 6->3(7)
[2021-08-25T16:28:46.744-0300][gc,heap      ] GC(54) Old regions: 76->78
[2021-08-25T16:28:46.744-0300][gc,heap      ] GC(54) Archive regions: 2->2
[2021-08-25T16:28:46.744-0300][gc,heap      ] GC(54) Humongous regions: 133->133
[2021-08-25T16:28:46.744-0300][gc,metaspace ] GC(54) Metaspace: 79279K->79279K(1120256K)
[2021-08-25T16:28:46.744-0300][gc           ] GC(54) Pause Young (Normal) (G1 Evacuation Pause) 259M->214M(1024M) 87.971ms
[2021-08-25T16:28:46.744-0300][gc,cpu       ] GC(54) User=0.04s Sys=0.01s Real=0.09s
[2021-08-25T16:29:27.896-0300][gc,start     ] GC(55) Pause Young (Normal) (G1 Evacuation Pause)
[2021-08-25T16:29:27.901-0300][gc,task      ] GC(55) Using 4 workers of 4 for evacuation
[2021-08-25T16:29:27.916-0300][gc,phases    ] GC(55)   Pre Evacuate Collection Set: 0.0ms
[2021-08-25T16:29:27.916-0300][gc,phases    ] GC(55)   Evacuate Collection Set: 13.9ms
[2021-08-25T16:29:27.916-0300][gc,phases    ] GC(55)   Post Evacuate Collection Set: 0.5ms
[2021-08-25T16:29:27.916-0300][gc,phases    ] GC(55)   Other: 5.5ms
[2021-08-25T16:29:27.916-0300][gc,heap      ] GC(55) Eden regions: 48->0(47)
[2021-08-25T16:29:27.916-0300][gc,heap      ] GC(55) Survivor regions: 3->4(7)
[2021-08-25T16:29:27.916-0300][gc,heap      ] GC(55) Old regions: 78->78
[2021-08-25T16:29:27.916-0300][gc,heap      ] GC(55) Archive regions: 2->2
[2021-08-25T16:29:27.916-0300][gc,heap      ] GC(55) Humongous regions: 133->133
[2021-08-25T16:29:27.916-0300][gc,metaspace ] GC(55) Metaspace: 79284K->79284K(1120256K)
[2021-08-25T16:29:27.916-0300][gc           ] GC(55) Pause Young (Normal) (G1 Evacuation Pause) 262M->214M(1024M) 20.028ms
[2021-08-25T16:29:27.916-0300][gc,cpu       ] GC(55) User=0.03s Sys=0.02s Real=0.02s
[2021-08-25T16:30:10.093-0300][gc,start     ] GC(56) Pause Young (Normal) (G1 Evacuation Pause)
[2021-08-25T16:30:10.093-0300][gc,task      ] GC(56) Using 4 workers of 4 for evacuation
[2021-08-25T16:30:10.102-0300][gc,phases    ] GC(56)   Pre Evacuate Collection Set: 0.0ms
[2021-08-25T16:30:10.102-0300][gc,phases    ] GC(56)   Evacuate Collection Set: 7.6ms
[2021-08-25T16:30:10.102-0300][gc,phases    ] GC(56)   Post Evacuate Collection Set: 0.5ms
[2021-08-25T16:30:10.102-0300][gc,phases    ] GC(56)   Other: 1.0ms
[2021-08-25T16:30:10.102-0300][gc,heap      ] GC(56) Eden regions: 47->0(46)
[2021-08-25T16:30:10.102-0300][gc,heap      ] GC(56) Survivor regions: 4->5(7)
[2021-08-25T16:30:10.102-0300][gc,heap      ] GC(56) Old regions: 78->78
[2021-08-25T16:30:10.102-0300][gc,heap      ] GC(56) Archive regions: 2->2
[2021-08-25T16:30:10.102-0300][gc,heap      ] GC(56) Humongous regions: 133->133
[2021-08-25T16:30:10.102-0300][gc,metaspace ] GC(56) Metaspace: 79284K->79284K(1120256K)
[2021-08-25T16:30:10.102-0300][gc           ] GC(56) Pause Young (Normal) (G1 Evacuation Pause) 261M->215M(1024M) 9.287ms
[2021-08-25T16:30:10.102-0300][gc,cpu       ] GC(56) User=0.02s Sys=0.00s Real=0.01s
[2021-08-25T16:31:10.069-0300][gc,start     ] GC(57) Pause Young (Normal) (G1 Evacuation Pause)
[2021-08-25T16:31:10.070-0300][gc,task      ] GC(57) Using 4 workers of 4 for evacuation
[2021-08-25T16:31:10.084-0300][gc,phases    ] GC(57)   Pre Evacuate Collection Set: 0.0ms
[2021-08-25T16:31:10.084-0300][gc,phases    ] GC(57)   Evacuate Collection Set: 12.5ms
[2021-08-25T16:31:10.084-0300][gc,phases    ] GC(57)   Post Evacuate Collection Set: 0.6ms
[2021-08-25T16:31:10.084-0300][gc,phases    ] GC(57)   Other: 1.2ms
[2021-08-25T16:31:10.084-0300][gc,heap      ] GC(57) Eden regions: 46->0(46)
[2021-08-25T16:31:10.084-0300][gc,heap      ] GC(57) Survivor regions: 5->5(7)
[2021-08-25T16:31:10.084-0300][gc,heap      ] GC(57) Old regions: 78->79
[2021-08-25T16:31:10.084-0300][gc,heap      ] GC(57) Archive regions: 2->2
[2021-08-25T16:31:10.084-0300][gc,heap      ] GC(57) Humongous regions: 133->133
[2021-08-25T16:31:10.084-0300][gc,metaspace ] GC(57) Metaspace: 79298K->79298K(1120256K)
[2021-08-25T16:31:10.084-0300][gc           ] GC(57) Pause Young (Normal) (G1 Evacuation Pause) 261M->217M(1024M) 14.537ms
[2021-08-25T16:31:10.084-0300][gc,cpu       ] GC(57) User=0.03s Sys=0.00s Real=0.02s
[2021-08-25T16:31:55.032-0300][gc,start     ] GC(58) Pause Young (Normal) (G1 Evacuation Pause)
[2021-08-25T16:31:55.033-0300][gc,task      ] GC(58) Using 4 workers of 4 for evacuation
[2021-08-25T16:31:55.043-0300][gc,phases    ] GC(58)   Pre Evacuate Collection Set: 0.0ms
[2021-08-25T16:31:55.043-0300][gc,phases    ] GC(58)   Evacuate Collection Set: 9.0ms
[2021-08-25T16:31:55.043-0300][gc,phases    ] GC(58)   Post Evacuate Collection Set: 0.5ms
[2021-08-25T16:31:55.043-0300][gc,phases    ] GC(58)   Other: 2.1ms
[2021-08-25T16:31:55.043-0300][gc,heap      ] GC(58) Eden regions: 46->0(49)
[2021-08-25T16:31:55.043-0300][gc,heap      ] GC(58) Survivor regions: 5->4(7)
[2021-08-25T16:31:55.043-0300][gc,heap      ] GC(58) Old regions: 79->80
[2021-08-25T16:31:55.043-0300][gc,heap      ] GC(58) Archive regions: 2->2
[2021-08-25T16:31:55.043-0300][gc,heap      ] GC(58) Humongous regions: 133->133
[2021-08-25T16:31:55.043-0300][gc,metaspace ] GC(58) Metaspace: 79316K->79316K(1120256K)
[2021-08-25T16:31:55.044-0300][gc           ] GC(58) Pause Young (Normal) (G1 Evacuation Pause) 263M->216M(1024M) 11.837ms
[2021-08-25T16:31:55.044-0300][gc,cpu       ] GC(58) User=0.03s Sys=0.01s Real=0.01s
[2021-08-25T16:32:21.153-0300][gc,start     ] GC(59) Pause Young (Normal) (G1 Evacuation Pause)
[2021-08-25T16:32:21.153-0300][gc,task      ] GC(59) Using 4 workers of 4 for evacuation
[2021-08-25T16:32:21.161-0300][gc,phases    ] GC(59)   Pre Evacuate Collection Set: 0.0ms
[2021-08-25T16:32:21.162-0300][gc,phases    ] GC(59)   Evacuate Collection Set: 7.7ms
[2021-08-25T16:32:21.162-0300][gc,phases    ] GC(59)   Post Evacuate Collection Set: 0.5ms
[2021-08-25T16:32:21.162-0300][gc,phases    ] GC(59)   Other: 0.4ms
[2021-08-25T16:32:21.162-0300][gc,heap      ] GC(59) Eden regions: 47->0(54)
[2021-08-25T16:32:21.162-0300][gc,heap      ] GC(59) Survivor regions: 4->4(7)
[2021-08-25T16:32:21.162-0300][gc,heap      ] GC(59) Old regions: 80->80
[2021-08-25T16:32:21.162-0300][gc,heap      ] GC(59) Archive regions: 2->2
[2021-08-25T16:32:21.162-0300][gc,heap      ] GC(59) Humongous regions: 133->133
[2021-08-25T16:32:21.162-0300][gc,metaspace ] GC(59) Metaspace: 79321K->79321K(1120256K)
[2021-08-25T16:32:21.162-0300][gc           ] GC(59) Pause Young (Normal) (G1 Evacuation Pause) 263M->216M(1024M) 8.693ms
[2021-08-25T16:32:21.162-0300][gc,cpu       ] GC(59) User=0.03s Sys=0.00s Real=0.01s
[2021-08-25T16:33:12.901-0300][gc,start     ] GC(60) Pause Young (Normal) (G1 Evacuation Pause)
[2021-08-25T16:33:12.901-0300][gc,task      ] GC(60) Using 4 workers of 4 for evacuation
[2021-08-25T16:33:12.915-0300][gc,phases    ] GC(60)   Pre Evacuate Collection Set: 0.0ms
[2021-08-25T16:33:12.915-0300][gc,phases    ] GC(60)   Evacuate Collection Set: 12.6ms
[2021-08-25T16:33:12.915-0300][gc,phases    ] GC(60)   Post Evacuate Collection Set: 0.4ms
[2021-08-25T16:33:12.915-0300][gc,phases    ] GC(60)   Other: 0.4ms
[2021-08-25T16:33:12.915-0300][gc,heap      ] GC(60) Eden regions: 54->0(55)
[2021-08-25T16:33:12.915-0300][gc,heap      ] GC(60) Survivor regions: 4->5(8)
[2021-08-25T16:33:12.915-0300][gc,heap      ] GC(60) Old regions: 80->80
[2021-08-25T16:33:12.915-0300][gc,heap      ] GC(60) Archive regions: 2->2
[2021-08-25T16:33:12.915-0300][gc,heap      ] GC(60) Humongous regions: 133->133
[2021-08-25T16:33:12.915-0300][gc,metaspace ] GC(60) Metaspace: 79329K->79329K(1120256K)
[2021-08-25T16:33:12.915-0300][gc           ] GC(60) Pause Young (Normal) (G1 Evacuation Pause) 270M->218M(1024M) 13.625ms
[2021-08-25T16:33:12.915-0300][gc,cpu       ] GC(60) User=0.03s Sys=0.02s Real=0.01s
[2021-08-25T16:34:10.075-0300][gc,start     ] GC(61) Pause Young (Normal) (G1 Evacuation Pause)
[2021-08-25T16:34:10.075-0300][gc,task      ] GC(61) Using 4 workers of 4 for evacuation
[2021-08-25T16:34:10.086-0300][gc,phases    ] GC(61)   Pre Evacuate Collection Set: 0.1ms
[2021-08-25T16:34:10.087-0300][gc,phases    ] GC(61)   Evacuate Collection Set: 10.6ms
[2021-08-25T16:34:10.087-0300][gc,phases    ] GC(61)   Post Evacuate Collection Set: 0.8ms
[2021-08-25T16:34:10.087-0300][gc,phases    ] GC(61)   Other: 0.4ms
[2021-08-25T16:34:10.087-0300][gc,heap      ] GC(61) Eden regions: 55->0(60)
[2021-08-25T16:34:10.087-0300][gc,heap      ] GC(61) Survivor regions: 5->5(8)
[2021-08-25T16:34:10.087-0300][gc,heap      ] GC(61) Old regions: 80->81
[2021-08-25T16:34:10.087-0300][gc,heap      ] GC(61) Archive regions: 2->2
[2021-08-25T16:34:10.087-0300][gc,heap      ] GC(61) Humongous regions: 133->133
[2021-08-25T16:34:10.087-0300][gc,metaspace ] GC(61) Metaspace: 79878K->79878K(1122304K)
[2021-08-25T16:34:10.087-0300][gc           ] GC(61) Pause Young (Normal) (G1 Evacuation Pause) 273M->218M(1024M) 12.094ms
[2021-08-25T16:34:10.087-0300][gc,cpu       ] GC(61) User=0.03s Sys=0.00s Real=0.01s
[2021-08-25T16:35:10.076-0300][gc,start     ] GC(62) Pause Young (Normal) (G1 Evacuation Pause)
[2021-08-25T16:35:10.076-0300][gc,task      ] GC(62) Using 4 workers of 4 for evacuation
[2021-08-25T16:35:10.091-0300][gc,phases    ] GC(62)   Pre Evacuate Collection Set: 0.0ms
[2021-08-25T16:35:10.091-0300][gc,phases    ] GC(62)   Evacuate Collection Set: 13.8ms
[2021-08-25T16:35:10.091-0300][gc,phases    ] GC(62)   Post Evacuate Collection Set: 0.5ms
[2021-08-25T16:35:10.091-0300][gc,phases    ] GC(62)   Other: 0.8ms
[2021-08-25T16:35:10.091-0300][gc,heap      ] GC(62) Eden regions: 58->0(61)
[2021-08-25T16:35:10.091-0300][gc,heap      ] GC(62) Survivor regions: 5->6(8)
[2021-08-25T16:35:10.091-0300][gc,heap      ] GC(62) Old regions: 81->81
[2021-08-25T16:35:10.091-0300][gc,heap      ] GC(62) Archive regions: 2->2
[2021-08-25T16:35:10.091-0300][gc,heap      ] GC(62) Humongous regions: 133->133
[2021-08-25T16:35:10.091-0300][gc,metaspace ] GC(62) Metaspace: 79890K->79890K(1122304K)
[2021-08-25T16:35:10.091-0300][gc           ] GC(62) Pause Young (Normal) (G1 Evacuation Pause) 276M->219M(1024M) 15.304ms
[2021-08-25T16:35:10.091-0300][gc,cpu       ] GC(62) User=0.03s Sys=0.01s Real=0.02s
[2021-08-25T16:36:10.084-0300][gc,start     ] GC(63) Pause Young (Normal) (G1 Evacuation Pause)
[2021-08-25T16:36:10.084-0300][gc,task      ] GC(63) Using 4 workers of 4 for evacuation
[2021-08-25T16:36:10.097-0300][gc,phases    ] GC(63)   Pre Evacuate Collection Set: 0.1ms
[2021-08-25T16:36:10.097-0300][gc,phases    ] GC(63)   Evacuate Collection Set: 11.3ms
[2021-08-25T16:36:10.097-0300][gc,phases    ] GC(63)   Post Evacuate Collection Set: 0.5ms
[2021-08-25T16:36:10.097-0300][gc,phases    ] GC(63)   Other: 0.7ms
[2021-08-25T16:36:10.097-0300][gc,heap      ] GC(63) Eden regions: 58->0(64)
[2021-08-25T16:36:10.097-0300][gc,heap      ] GC(63) Survivor regions: 6->6(8)
[2021-08-25T16:36:10.097-0300][gc,heap      ] GC(63) Old regions: 81->82
[2021-08-25T16:36:10.097-0300][gc,heap      ] GC(63) Archive regions: 2->2
[2021-08-25T16:36:10.097-0300][gc,heap      ] GC(63) Humongous regions: 133->133
[2021-08-25T16:36:10.097-0300][gc,metaspace ] GC(63) Metaspace: 79906K->79906K(1122304K)
[2021-08-25T16:36:10.097-0300][gc           ] GC(63) Pause Young (Normal) (G1 Evacuation Pause) 277M->220M(1024M) 12.699ms
[2021-08-25T16:36:10.097-0300][gc,cpu       ] GC(63) User=0.04s Sys=0.01s Real=0.01s
[2021-08-25T16:36:51.258-0300][gc,start     ] GC(64) Pause Young (Normal) (G1 Evacuation Pause)
[2021-08-25T16:36:51.258-0300][gc,task      ] GC(64) Using 4 workers of 4 for evacuation
[2021-08-25T16:36:51.276-0300][gc,phases    ] GC(64)   Pre Evacuate Collection Set: 0.1ms
[2021-08-25T16:36:51.277-0300][gc,phases    ] GC(64)   Evacuate Collection Set: 15.9ms
[2021-08-25T16:36:51.277-0300][gc,phases    ] GC(64)   Post Evacuate Collection Set: 2.1ms
[2021-08-25T16:36:51.277-0300][gc,phases    ] GC(64)   Other: 0.5ms
[2021-08-25T16:36:51.277-0300][gc,heap      ] GC(64) Eden regions: 61->0(70)
[2021-08-25T16:36:51.277-0300][gc,heap      ] GC(64) Survivor regions: 6->6(9)
[2021-08-25T16:36:51.277-0300][gc,heap      ] GC(64) Old regions: 82->82
[2021-08-25T16:36:51.277-0300][gc,heap      ] GC(64) Archive regions: 2->2
[2021-08-25T16:36:51.277-0300][gc,heap      ] GC(64) Humongous regions: 133->133
[2021-08-25T16:36:51.277-0300][gc,metaspace ] GC(64) Metaspace: 79984K->79984K(1122304K)
[2021-08-25T16:36:51.277-0300][gc           ] GC(64) Pause Young (Normal) (G1 Evacuation Pause) 281M->220M(1024M) 18.808ms
[2021-08-25T16:36:51.277-0300][gc,cpu       ] GC(64) User=0.04s Sys=0.00s Real=0.02s
[2021-08-25T16:38:10.101-0300][gc,start     ] GC(65) Pause Young (Normal) (G1 Evacuation Pause)
[2021-08-25T16:38:10.104-0300][gc,task      ] GC(65) Using 4 workers of 4 for evacuation
[2021-08-25T16:38:10.130-0300][gc,mmu       ] GC(65) MMU target violated: 21.0ms (20.0ms/21.0ms)
[2021-08-25T16:38:10.130-0300][gc,phases    ] GC(65)   Pre Evacuate Collection Set: 0.0ms
[2021-08-25T16:38:10.130-0300][gc,phases    ] GC(65)   Evacuate Collection Set: 25.8ms
[2021-08-25T16:38:10.131-0300][gc,phases    ] GC(65)   Post Evacuate Collection Set: 0.7ms
[2021-08-25T16:38:10.131-0300][gc,phases    ] GC(65)   Other: 2.8ms
[2021-08-25T16:38:10.131-0300][gc,heap      ] GC(65) Eden regions: 70->0(49)
[2021-08-25T16:38:10.131-0300][gc,heap      ] GC(65) Survivor regions: 6->6(10)
[2021-08-25T16:38:10.131-0300][gc,heap      ] GC(65) Old regions: 82->82
[2021-08-25T16:38:10.131-0300][gc,heap      ] GC(65) Archive regions: 2->2
[2021-08-25T16:38:10.131-0300][gc,heap      ] GC(65) Humongous regions: 133->133
[2021-08-25T16:38:10.131-0300][gc,metaspace ] GC(65) Metaspace: 79989K->79989K(1122304K)
[2021-08-25T16:38:10.131-0300][gc           ] GC(65) Pause Young (Normal) (G1 Evacuation Pause) 290M->221M(1024M) 29.608ms
[2021-08-25T16:38:10.131-0300][gc,cpu       ] GC(65) User=0.04s Sys=0.03s Real=0.03s
[2021-08-25T16:39:01.508-0300][gc,start     ] GC(66) Pause Young (Normal) (G1 Evacuation Pause)
[2021-08-25T16:39:01.508-0300][gc,task      ] GC(66) Using 4 workers of 4 for evacuation
[2021-08-25T16:39:01.527-0300][gc,phases    ] GC(66)   Pre Evacuate Collection Set: 0.1ms
[2021-08-25T16:39:01.527-0300][gc,phases    ] GC(66)   Evacuate Collection Set: 17.4ms
[2021-08-25T16:39:01.527-0300][gc,phases    ] GC(66)   Post Evacuate Collection Set: 0.6ms
[2021-08-25T16:39:01.527-0300][gc,phases    ] GC(66)   Other: 1.3ms
[2021-08-25T16:39:01.527-0300][gc,heap      ] GC(66) Eden regions: 45->0(46)
[2021-08-25T16:39:01.527-0300][gc,heap      ] GC(66) Survivor regions: 6->5(7)
[2021-08-25T16:39:01.527-0300][gc,heap      ] GC(66) Old regions: 82->85
[2021-08-25T16:39:01.527-0300][gc,heap      ] GC(66) Archive regions: 2->2
[2021-08-25T16:39:01.527-0300][gc,heap      ] GC(66) Humongous regions: 133->133
[2021-08-25T16:39:01.527-0300][gc,metaspace ] GC(66) Metaspace: 79989K->79989K(1122304K)
[2021-08-25T16:39:01.527-0300][gc           ] GC(66) Pause Young (Normal) (G1 Evacuation Pause) 266M->222M(1024M) 19.642ms
[2021-08-25T16:39:01.527-0300][gc,cpu       ] GC(66) User=0.05s Sys=0.02s Real=0.02s
[2021-08-25T16:39:13.646-0300][gc,start     ] GC(67) Pause Young (Normal) (G1 Evacuation Pause)
[2021-08-25T16:39:13.650-0300][gc,task      ] GC(67) Using 4 workers of 4 for evacuation
[2021-08-25T16:39:13.661-0300][gc,phases    ] GC(67)   Pre Evacuate Collection Set: 0.1ms
[2021-08-25T16:39:13.661-0300][gc,phases    ] GC(67)   Evacuate Collection Set: 9.7ms
[2021-08-25T16:39:13.661-0300][gc,phases    ] GC(67)   Post Evacuate Collection Set: 0.5ms
[2021-08-25T16:39:13.661-0300][gc,phases    ] GC(67)   Other: 4.6ms
[2021-08-25T16:39:13.661-0300][gc,heap      ] GC(67) Eden regions: 46->0(50)
[2021-08-25T16:39:13.661-0300][gc,heap      ] GC(67) Survivor regions: 5->5(7)
[2021-08-25T16:39:13.661-0300][gc,heap      ] GC(67) Old regions: 85->85
[2021-08-25T16:39:13.661-0300][gc,heap      ] GC(67) Archive regions: 2->2
[2021-08-25T16:39:13.661-0300][gc,heap      ] GC(67) Humongous regions: 133->133
[2021-08-25T16:39:13.661-0300][gc,metaspace ] GC(67) Metaspace: 79996K->79996K(1122304K)
[2021-08-25T16:39:13.661-0300][gc           ] GC(67) Pause Young (Normal) (G1 Evacuation Pause) 268M->223M(1024M) 15.416ms
[2021-08-25T16:39:13.661-0300][gc,cpu       ] GC(67) User=0.04s Sys=0.00s Real=0.02s
[2021-08-25T16:40:10.068-0300][gc,start     ] GC(68) Pause Young (Normal) (G1 Evacuation Pause)
[2021-08-25T16:40:10.068-0300][gc,task      ] GC(68) Using 4 workers of 4 for evacuation
[2021-08-25T16:40:10.080-0300][gc,phases    ] GC(68)   Pre Evacuate Collection Set: 0.0ms
[2021-08-25T16:40:10.080-0300][gc,phases    ] GC(68)   Evacuate Collection Set: 10.5ms
[2021-08-25T16:40:10.080-0300][gc,phases    ] GC(68)   Post Evacuate Collection Set: 0.5ms
[2021-08-25T16:40:10.080-0300][gc,phases    ] GC(68)   Other: 0.8ms
[2021-08-25T16:40:10.080-0300][gc,heap      ] GC(68) Eden regions: 50->0(63)
[2021-08-25T16:40:10.080-0300][gc,heap      ] GC(68) Survivor regions: 5->3(7)
[2021-08-25T16:40:10.080-0300][gc,heap      ] GC(68) Old regions: 85->87
[2021-08-25T16:40:10.080-0300][gc,heap      ] GC(68) Archive regions: 2->2
[2021-08-25T16:40:10.080-0300][gc,heap      ] GC(68) Humongous regions: 133->133
[2021-08-25T16:40:10.080-0300][gc,metaspace ] GC(68) Metaspace: 80002K->80002K(1122304K)
[2021-08-25T16:40:10.080-0300][gc           ] GC(68) Pause Young (Normal) (G1 Evacuation Pause) 273M->222M(1024M) 11.978ms
[2021-08-25T16:40:10.080-0300][gc,cpu       ] GC(68) User=0.03s Sys=0.00s Real=0.02s
[2021-08-25T16:41:10.054-0300][gc,start     ] GC(69) Pause Young (Normal) (G1 Evacuation Pause)
[2021-08-25T16:41:10.058-0300][gc,task      ] GC(69) Using 4 workers of 4 for evacuation
[2021-08-25T16:41:10.069-0300][gc,phases    ] GC(69)   Pre Evacuate Collection Set: 0.0ms
[2021-08-25T16:41:10.069-0300][gc,phases    ] GC(69)   Evacuate Collection Set: 9.9ms
[2021-08-25T16:41:10.069-0300][gc,phases    ] GC(69)   Post Evacuate Collection Set: 0.5ms
[2021-08-25T16:41:10.069-0300][gc,phases    ] GC(69)   Other: 4.5ms
[2021-08-25T16:41:10.069-0300][gc,heap      ] GC(69) Eden regions: 57->0(65)
[2021-08-25T16:41:10.069-0300][gc,heap      ] GC(69) Survivor regions: 3->4(8)
[2021-08-25T16:41:10.069-0300][gc,heap      ] GC(69) Old regions: 87->87
[2021-08-25T16:41:10.069-0300][gc,heap      ] GC(69) Archive regions: 2->2
[2021-08-25T16:41:10.069-0300][gc,heap      ] GC(69) Humongous regions: 133->133
[2021-08-25T16:41:10.069-0300][gc,metaspace ] GC(69) Metaspace: 80006K->80006K(1122304K)
[2021-08-25T16:41:10.069-0300][gc           ] GC(69) Pause Young (Normal) (G1 Evacuation Pause) 279M->223M(1024M) 15.041ms
[2021-08-25T16:41:10.069-0300][gc,cpu       ] GC(69) User=0.03s Sys=0.01s Real=0.01s
[2021-08-25T16:42:10.068-0300][gc,start     ] GC(70) Pause Young (Normal) (G1 Evacuation Pause)
[2021-08-25T16:42:10.069-0300][gc,task      ] GC(70) Using 4 workers of 4 for evacuation
[2021-08-25T16:42:10.081-0300][gc,phases    ] GC(70)   Pre Evacuate Collection Set: 0.0ms
[2021-08-25T16:42:10.081-0300][gc,phases    ] GC(70)   Evacuate Collection Set: 11.6ms
[2021-08-25T16:42:10.081-0300][gc,phases    ] GC(70)   Post Evacuate Collection Set: 0.4ms
[2021-08-25T16:42:10.081-0300][gc,phases    ] GC(70)   Other: 0.6ms
[2021-08-25T16:42:10.081-0300][gc,heap      ] GC(70) Eden regions: 61->0(65)
[2021-08-25T16:42:10.081-0300][gc,heap      ] GC(70) Survivor regions: 4->5(9)
[2021-08-25T16:42:10.081-0300][gc,heap      ] GC(70) Old regions: 87->87
[2021-08-25T16:42:10.081-0300][gc,heap      ] GC(70) Archive regions: 2->2
[2021-08-25T16:42:10.081-0300][gc,heap      ] GC(70) Humongous regions: 133->133
[2021-08-25T16:42:10.081-0300][gc,metaspace ] GC(70) Metaspace: 80017K->80017K(1122304K)
[2021-08-25T16:42:10.081-0300][gc           ] GC(70) Pause Young (Normal) (G1 Evacuation Pause) 284M->224M(1024M) 12.821ms
[2021-08-25T16:42:10.081-0300][gc,cpu       ] GC(70) User=0.04s Sys=0.01s Real=0.02s
[2021-08-25T16:43:10.033-0300][gc,start     ] GC(71) Pause Young (Normal) (G1 Evacuation Pause)
[2021-08-25T16:43:10.033-0300][gc,task      ] GC(71) Using 4 workers of 4 for evacuation
[2021-08-25T16:43:10.046-0300][gc,phases    ] GC(71)   Pre Evacuate Collection Set: 0.1ms
[2021-08-25T16:43:10.046-0300][gc,phases    ] GC(71)   Evacuate Collection Set: 11.4ms
[2021-08-25T16:43:10.046-0300][gc,phases    ] GC(71)   Post Evacuate Collection Set: 0.5ms
[2021-08-25T16:43:10.046-0300][gc,phases    ] GC(71)   Other: 0.3ms
[2021-08-25T16:43:10.046-0300][gc,heap      ] GC(71) Eden regions: 65->0(68)
[2021-08-25T16:43:10.046-0300][gc,heap      ] GC(71) Survivor regions: 5->5(9)
[2021-08-25T16:43:10.046-0300][gc,heap      ] GC(71) Old regions: 87->87
[2021-08-25T16:43:10.046-0300][gc,heap      ] GC(71) Archive regions: 2->2
[2021-08-25T16:43:10.046-0300][gc,heap      ] GC(71) Humongous regions: 133->133
[2021-08-25T16:43:10.046-0300][gc,metaspace ] GC(71) Metaspace: 80068K->80068K(1122304K)
[2021-08-25T16:43:10.046-0300][gc           ] GC(71) Pause Young (Normal) (G1 Evacuation Pause) 289M->225M(1024M) 12.568ms
[2021-08-25T16:43:10.046-0300][gc,cpu       ] GC(71) User=0.03s Sys=0.00s Real=0.01s
[2021-08-25T16:44:10.055-0300][gc,start     ] GC(72) Pause Young (Normal) (G1 Evacuation Pause)
[2021-08-25T16:44:10.055-0300][gc,task      ] GC(72) Using 4 workers of 4 for evacuation
[2021-08-25T16:44:10.064-0300][gc,phases    ] GC(72)   Pre Evacuate Collection Set: 0.0ms
[2021-08-25T16:44:10.064-0300][gc,phases    ] GC(72)   Evacuate Collection Set: 8.4ms
[2021-08-25T16:44:10.064-0300][gc,phases    ] GC(72)   Post Evacuate Collection Set: 0.6ms
[2021-08-25T16:44:10.064-0300][gc,phases    ] GC(72)   Other: 0.3ms
[2021-08-25T16:44:10.064-0300][gc,heap      ] GC(72) Eden regions: 68->0(73)
[2021-08-25T16:44:10.064-0300][gc,heap      ] GC(72) Survivor regions: 5->6(10)
[2021-08-25T16:44:10.064-0300][gc,heap      ] GC(72) Old regions: 87->87
[2021-08-25T16:44:10.064-0300][gc,heap      ] GC(72) Archive regions: 2->2
[2021-08-25T16:44:10.064-0300][gc,heap      ] GC(72) Humongous regions: 133->133
[2021-08-25T16:44:10.064-0300][gc,metaspace ] GC(72) Metaspace: 80072K->80072K(1122304K)
[2021-08-25T16:44:10.064-0300][gc           ] GC(72) Pause Young (Normal) (G1 Evacuation Pause) 293M->226M(1024M) 9.496ms
[2021-08-25T16:44:10.064-0300][gc,cpu       ] GC(72) User=0.04s Sys=0.00s Real=0.01s
[2021-08-25T16:44:55.019-0300][gc,start     ] GC(73) Pause Young (Normal) (G1 Evacuation Pause)
[2021-08-25T16:44:55.019-0300][gc,task      ] GC(73) Using 4 workers of 4 for evacuation
[2021-08-25T16:44:55.037-0300][gc,phases    ] GC(73)   Pre Evacuate Collection Set: 0.2ms
[2021-08-25T16:44:55.037-0300][gc,phases    ] GC(73)   Evacuate Collection Set: 16.5ms
[2021-08-25T16:44:55.037-0300][gc,phases    ] GC(73)   Post Evacuate Collection Set: 0.9ms
[2021-08-25T16:44:55.037-0300][gc,phases    ] GC(73)   Other: 0.7ms
[2021-08-25T16:44:55.037-0300][gc,heap      ] GC(73) Eden regions: 67->0(73)
[2021-08-25T16:44:55.037-0300][gc,heap      ] GC(73) Survivor regions: 6->7(10)
[2021-08-25T16:44:55.037-0300][gc,heap      ] GC(73) Old regions: 87->88
[2021-08-25T16:44:55.037-0300][gc,heap      ] GC(73) Archive regions: 2->2
[2021-08-25T16:44:55.037-0300][gc,heap      ] GC(73) Humongous regions: 133->133
[2021-08-25T16:44:55.037-0300][gc,metaspace ] GC(73) Metaspace: 80857K->80857K(1122304K)
[2021-08-25T16:44:55.037-0300][gc           ] GC(73) Pause Young (Normal) (G1 Evacuation Pause) 293M->227M(1024M) 18.527ms
[2021-08-25T16:44:55.037-0300][gc,cpu       ] GC(73) User=0.04s Sys=0.00s Real=0.02s
[2021-08-25T16:45:01.286-0300][gc,start     ] GC(74) Pause Young (Normal) (G1 Evacuation Pause)
[2021-08-25T16:45:01.286-0300][gc,task      ] GC(74) Using 4 workers of 4 for evacuation
[2021-08-25T16:45:01.299-0300][gc,phases    ] GC(74)   Pre Evacuate Collection Set: 0.0ms
[2021-08-25T16:45:01.299-0300][gc,phases    ] GC(74)   Evacuate Collection Set: 12.3ms
[2021-08-25T16:45:01.299-0300][gc,phases    ] GC(74)   Post Evacuate Collection Set: 0.5ms
[2021-08-25T16:45:01.299-0300][gc,phases    ] GC(74)   Other: 0.3ms
[2021-08-25T16:45:01.299-0300][gc,heap      ] GC(74) Eden regions: 70->0(76)
[2021-08-25T16:45:01.299-0300][gc,heap      ] GC(74) Survivor regions: 7->5(10)
[2021-08-25T16:45:01.299-0300][gc,heap      ] GC(74) Old regions: 88->89
[2021-08-25T16:45:01.299-0300][gc,heap      ] GC(74) Archive regions: 2->2
[2021-08-25T16:45:01.299-0300][gc,heap      ] GC(74) Humongous regions: 133->133
[2021-08-25T16:45:01.299-0300][gc,metaspace ] GC(74) Metaspace: 81191K->81191K(1122304K)
[2021-08-25T16:45:01.300-0300][gc           ] GC(74) Pause Young (Normal) (G1 Evacuation Pause) 297M->227M(1024M) 13.568ms
[2021-08-25T16:45:01.300-0300][gc,cpu       ] GC(74) User=0.04s Sys=0.00s Real=0.02s
[2021-08-25T16:45:06.755-0300][gc,start     ] GC(75) Pause Young (Normal) (G1 Evacuation Pause)
[2021-08-25T16:45:06.755-0300][gc,task      ] GC(75) Using 4 workers of 4 for evacuation
[2021-08-25T16:45:06.771-0300][gc,phases    ] GC(75)   Pre Evacuate Collection Set: 0.0ms
[2021-08-25T16:45:06.771-0300][gc,phases    ] GC(75)   Evacuate Collection Set: 14.4ms
[2021-08-25T16:45:06.771-0300][gc,phases    ] GC(75)   Post Evacuate Collection Set: 0.5ms
[2021-08-25T16:45:06.771-0300][gc,phases    ] GC(75)   Other: 0.2ms
[2021-08-25T16:45:06.771-0300][gc,heap      ] GC(75) Eden regions: 76->0(75)
[2021-08-25T16:45:06.771-0300][gc,heap      ] GC(75) Survivor regions: 5->5(11)
[2021-08-25T16:45:06.771-0300][gc,heap      ] GC(75) Old regions: 89->89
[2021-08-25T16:45:06.771-0300][gc,heap      ] GC(75) Archive regions: 2->2
[2021-08-25T16:45:06.771-0300][gc,heap      ] GC(75) Humongous regions: 133->133
[2021-08-25T16:45:06.771-0300][gc,metaspace ] GC(75) Metaspace: 81256K->81256K(1122304K)
[2021-08-25T16:45:06.771-0300][gc           ] GC(75) Pause Young (Normal) (G1 Evacuation Pause) 303M->227M(1024M) 15.500ms
[2021-08-25T16:45:06.771-0300][gc,cpu       ] GC(75) User=0.03s Sys=0.01s Real=0.02s
[2021-08-25T16:45:10.086-0300][gc,start     ] GC(76) Pause Young (Normal) (G1 Evacuation Pause)
[2021-08-25T16:45:10.086-0300][gc,task      ] GC(76) Using 4 workers of 4 for evacuation
[2021-08-25T16:45:10.102-0300][gc,phases    ] GC(76)   Pre Evacuate Collection Set: 0.1ms
[2021-08-25T16:45:10.102-0300][gc,phases    ] GC(76)   Evacuate Collection Set: 14.3ms
[2021-08-25T16:45:10.102-0300][gc,phases    ] GC(76)   Post Evacuate Collection Set: 0.7ms
[2021-08-25T16:45:10.102-0300][gc,phases    ] GC(76)   Other: 0.5ms
[2021-08-25T16:45:10.102-0300][gc,heap      ] GC(76) Eden regions: 75->0(76)
[2021-08-25T16:45:10.102-0300][gc,heap      ] GC(76) Survivor regions: 5->6(10)
[2021-08-25T16:45:10.102-0300][gc,heap      ] GC(76) Old regions: 89->89
[2021-08-25T16:45:10.102-0300][gc,heap      ] GC(76) Archive regions: 2->2
[2021-08-25T16:45:10.102-0300][gc,heap      ] GC(76) Humongous regions: 133->133
[2021-08-25T16:45:10.102-0300][gc,metaspace ] GC(76) Metaspace: 81259K->81259K(1122304K)
[2021-08-25T16:45:10.102-0300][gc           ] GC(76) Pause Young (Normal) (G1 Evacuation Pause) 302M->227M(1024M) 15.861ms
[2021-08-25T16:45:10.102-0300][gc,cpu       ] GC(76) User=0.03s Sys=0.00s Real=0.02s
[2021-08-25T16:45:14.436-0300][gc,heap,exit ] Heap
[2021-08-25T16:45:14.436-0300][gc,heap,exit ]  garbage-first heap   total 1048576K, used 298461K [0x00000007c0000000, 0x0000000800000000)
[2021-08-25T16:45:14.436-0300][gc,heap,exit ]   region size 1024K, 71 young (72704K), 6 survivors (6144K)
[2021-08-25T16:45:14.436-0300][gc,heap,exit ]  Metaspace       used 81354K, capacity 85990K, committed 86220K, reserved 1122304K
[2021-08-25T16:45:14.436-0300][gc,heap,exit ]   class space    used 10568K, capacity 12681K, committed 12800K, reserved 1048576K
