[2021-08-26T22:47:04.228-0300][gc] Using Concurrent Mark Sweep
[2021-08-26T22:47:04.228-0300][gc,heap,coops] Heap address: 0x0000000740000000, size: 3072 MB, Compressed Oops mode: Zero based, Oop shift amount: 3
[2021-08-26T22:47:06.070-0300][gc,start     ] GC(0) Pause Young (Allocation Failure)
[2021-08-26T22:47:06.071-0300][gc,task      ] GC(0) Using 2 workers of 4 for evacuation
[2021-08-26T22:47:06.104-0300][gc,heap      ] GC(0) ParNew: 52480K->6527K(59008K)
[2021-08-26T22:47:06.104-0300][gc,heap      ] GC(0) CMS: 0K->10324K(65536K)
[2021-08-26T22:47:06.104-0300][gc,metaspace ] GC(0) Metaspace: 6159K->6159K(1056768K)
[2021-08-26T22:47:06.104-0300][gc           ] GC(0) Pause Young (Allocation Failure) 51M->16M(121M) 33.407ms
[2021-08-26T22:47:06.104-0300][gc,cpu       ] GC(0) User=0.10s Sys=0.02s Real=0.03s
[2021-08-26T22:47:06.877-0300][gc,start     ] GC(1) Pause Young (Allocation Failure)
[2021-08-26T22:47:06.877-0300][gc,task      ] GC(1) Using 2 workers of 4 for evacuation
[2021-08-26T22:47:06.888-0300][gc,heap      ] GC(1) ParNew: 59007K->2473K(59008K)
[2021-08-26T22:47:06.888-0300][gc,heap      ] GC(1) CMS: 10324K->16832K(65536K)
[2021-08-26T22:47:06.888-0300][gc,metaspace ] GC(1) Metaspace: 13250K->13250K(1060864K)
[2021-08-26T22:47:06.888-0300][gc           ] GC(1) Pause Young (Allocation Failure) 67M->18M(121M) 11.079ms
[2021-08-26T22:47:06.888-0300][gc,cpu       ] GC(1) User=0.02s Sys=0.00s Real=0.01s
[2021-08-26T22:47:07.879-0300][gc,start     ] GC(2) Pause Young (Allocation Failure)
[2021-08-26T22:47:07.879-0300][gc,task      ] GC(2) Using 4 workers of 4 for evacuation
[2021-08-26T22:47:07.885-0300][gc,heap      ] GC(2) ParNew: 54953K->5176K(59008K)
[2021-08-26T22:47:07.885-0300][gc,heap      ] GC(2) CMS: 16832K->16832K(65536K)
[2021-08-26T22:47:07.885-0300][gc,metaspace ] GC(2) Metaspace: 22238K->22238K(1069056K)
[2021-08-26T22:47:07.885-0300][gc           ] GC(2) Pause Young (Allocation Failure) 70M->21M(121M) 6.427ms
[2021-08-26T22:47:07.885-0300][gc,cpu       ] GC(2) User=0.02s Sys=0.00s Real=0.01s
[2021-08-26T22:47:07.885-0300][gc,start     ] GC(3) Pause Initial Mark
[2021-08-26T22:47:07.887-0300][gc           ] GC(3) Pause Initial Mark 21M->21M(121M) 1.512ms
[2021-08-26T22:47:07.887-0300][gc,cpu       ] GC(3) User=0.00s Sys=0.00s Real=0.00s
[2021-08-26T22:47:07.887-0300][gc           ] GC(3) Concurrent Mark
[2021-08-26T22:47:07.915-0300][gc           ] GC(3) Concurrent Mark 27.567ms
[2021-08-26T22:47:07.915-0300][gc,cpu       ] GC(3) User=0.06s Sys=0.01s Real=0.03s
[2021-08-26T22:47:07.915-0300][gc           ] GC(3) Concurrent Preclean
[2021-08-26T22:47:07.916-0300][gc           ] GC(3) Concurrent Preclean 0.704ms
[2021-08-26T22:47:07.916-0300][gc,cpu       ] GC(3) User=0.00s Sys=0.00s Real=0.00s
[2021-08-26T22:47:07.916-0300][gc,start     ] GC(3) Pause Remark
[2021-08-26T22:47:07.916-0300][gc,start     ] GC(4) Pause Young (CMS Final Remark)
[2021-08-26T22:47:07.916-0300][gc,task      ] GC(4) Using 4 workers of 4 for evacuation
[2021-08-26T22:47:07.935-0300][gc,heap      ] GC(4) ParNew: 7184K->4279K(59008K)
[2021-08-26T22:47:07.935-0300][gc,heap      ] GC(4) CMS: 16832K->18605K(65536K)
[2021-08-26T22:47:07.935-0300][gc,metaspace ] GC(4) Metaspace: 22399K->22399K(1069056K)
[2021-08-26T22:47:07.935-0300][gc           ] GC(4) Pause Young (CMS Final Remark) 23M->22M(121M) 19.384ms
[2021-08-26T22:47:07.935-0300][gc,cpu       ] GC(4) User=0.03s Sys=0.00s Real=0.02s
[2021-08-26T22:47:07.943-0300][gc           ] GC(3) Pause Remark 23M->22M(121M) 27.330ms
[2021-08-26T22:47:07.943-0300][gc,cpu       ] GC(3) User=0.05s Sys=0.00s Real=0.03s
[2021-08-26T22:47:07.944-0300][gc           ] GC(3) Concurrent Sweep
[2021-08-26T22:47:07.948-0300][gc           ] GC(3) Concurrent Sweep 4.465ms
[2021-08-26T22:47:07.948-0300][gc,cpu       ] GC(3) User=0.01s Sys=0.00s Real=0.00s
[2021-08-26T22:47:07.948-0300][gc           ] GC(3) Concurrent Reset
[2021-08-26T22:47:07.953-0300][gc           ] GC(3) Concurrent Reset 4.594ms
[2021-08-26T22:47:07.953-0300][gc,cpu       ] GC(3) User=0.01s Sys=0.01s Real=0.01s
[2021-08-26T22:47:07.953-0300][gc,heap      ] GC(3) Old: 16832K->18560K(65536K)
[2021-08-26T22:47:08.533-0300][gc,start     ] GC(5) Pause Young (Allocation Failure)
[2021-08-26T22:47:08.533-0300][gc,task      ] GC(5) Using 4 workers of 4 for evacuation
[2021-08-26T22:47:08.539-0300][gc,heap      ] GC(5) ParNew: 56759K->4379K(59008K)
[2021-08-26T22:47:08.539-0300][gc,heap      ] GC(5) CMS: 18560K->18560K(65536K)
[2021-08-26T22:47:08.539-0300][gc,metaspace ] GC(5) Metaspace: 28347K->28347K(1075200K)
[2021-08-26T22:47:08.539-0300][gc           ] GC(5) Pause Young (Allocation Failure) 73M->22M(121M) 6.652ms
[2021-08-26T22:47:08.539-0300][gc,cpu       ] GC(5) User=0.02s Sys=0.00s Real=0.00s
[2021-08-26T22:47:08.962-0300][gc,start     ] GC(6) Pause Young (Allocation Failure)
[2021-08-26T22:47:08.962-0300][gc,task      ] GC(6) Using 4 workers of 4 for evacuation
[2021-08-26T22:47:08.975-0300][gc,heap      ] GC(6) ParNew: 56859K->3887K(59008K)
[2021-08-26T22:47:08.975-0300][gc,heap      ] GC(6) CMS: 18560K->20895K(65536K)
[2021-08-26T22:47:08.975-0300][gc,metaspace ] GC(6) Metaspace: 30745K->30745K(1077248K)
[2021-08-26T22:47:08.975-0300][gc           ] GC(6) Pause Young (Allocation Failure) 73M->24M(121M) 13.220ms
[2021-08-26T22:47:08.975-0300][gc,cpu       ] GC(6) User=0.03s Sys=0.00s Real=0.01s
[2021-08-26T22:47:09.773-0300][gc,start     ] GC(7) Pause Young (Allocation Failure)
[2021-08-26T22:47:09.773-0300][gc,task      ] GC(7) Using 4 workers of 4 for evacuation
[2021-08-26T22:47:09.779-0300][gc,heap      ] GC(7) ParNew: 56367K->5948K(59008K)
[2021-08-26T22:47:09.779-0300][gc,heap      ] GC(7) CMS: 20895K->20895K(65536K)
[2021-08-26T22:47:09.779-0300][gc,metaspace ] GC(7) Metaspace: 34862K->34862K(1081344K)
[2021-08-26T22:47:09.779-0300][gc           ] GC(7) Pause Young (Allocation Failure) 75M->26M(121M) 5.622ms
[2021-08-26T22:47:09.779-0300][gc,cpu       ] GC(7) User=0.02s Sys=0.00s Real=0.00s
[2021-08-26T22:47:11.128-0300][gc,start     ] GC(8) Pause Young (Allocation Failure)
[2021-08-26T22:47:11.128-0300][gc,task      ] GC(8) Using 4 workers of 4 for evacuation
[2021-08-26T22:47:11.143-0300][gc,heap      ] GC(8) ParNew: 58428K->6303K(59008K)
[2021-08-26T22:47:11.143-0300][gc,heap      ] GC(8) CMS: 20895K->22133K(65536K)
[2021-08-26T22:47:11.143-0300][gc,metaspace ] GC(8) Metaspace: 41469K->41469K(1087488K)
[2021-08-26T22:47:11.143-0300][gc           ] GC(8) Pause Young (Allocation Failure) 77M->27M(121M) 14.599ms
[2021-08-26T22:47:11.143-0300][gc,cpu       ] GC(8) User=0.04s Sys=0.00s Real=0.02s
[2021-08-26T22:47:11.143-0300][gc,start     ] GC(9) Pause Initial Mark
[2021-08-26T22:47:11.146-0300][gc           ] GC(9) Pause Initial Mark 28M->28M(121M) 3.057ms
[2021-08-26T22:47:11.146-0300][gc,cpu       ] GC(9) User=0.01s Sys=0.00s Real=0.00s
[2021-08-26T22:47:11.147-0300][gc           ] GC(9) Concurrent Mark
[2021-08-26T22:47:11.174-0300][gc           ] GC(9) Concurrent Mark 26.413ms
[2021-08-26T22:47:11.174-0300][gc,cpu       ] GC(9) User=0.06s Sys=0.01s Real=0.03s
[2021-08-26T22:47:11.174-0300][gc           ] GC(9) Concurrent Preclean
[2021-08-26T22:47:11.175-0300][gc           ] GC(9) Concurrent Preclean 0.638ms
[2021-08-26T22:47:11.175-0300][gc,cpu       ] GC(9) User=0.00s Sys=0.00s Real=0.00s
[2021-08-26T22:47:11.175-0300][gc           ] GC(9) Concurrent Abortable Preclean
[2021-08-26T22:47:11.802-0300][gc           ] GC(9) Concurrent Abortable Preclean 627.111ms
[2021-08-26T22:47:11.802-0300][gc,cpu       ] GC(9) User=1.40s Sys=0.06s Real=0.63s
[2021-08-26T22:47:11.802-0300][gc,start     ] GC(9) Pause Remark
[2021-08-26T22:47:11.802-0300][gc,start     ] GC(10) Pause Young (CMS Final Remark)
[2021-08-26T22:47:11.802-0300][gc,task      ] GC(10) Using 4 workers of 4 for evacuation
[2021-08-26T22:47:11.813-0300][gc,heap      ] GC(10) ParNew: 34255K->5423K(59008K)
[2021-08-26T22:47:11.813-0300][gc,heap      ] GC(10) CMS: 22133K->24867K(65536K)
[2021-08-26T22:47:11.813-0300][gc,metaspace ] GC(10) Metaspace: 43770K->43770K(1089536K)
[2021-08-26T22:47:11.813-0300][gc           ] GC(10) Pause Young (CMS Final Remark) 55M->29M(121M) 10.386ms
[2021-08-26T22:47:11.813-0300][gc,cpu       ] GC(10) User=0.04s Sys=0.00s Real=0.01s
[2021-08-26T22:47:11.824-0300][gc           ] GC(9) Pause Remark 55M->29M(121M) 22.252ms
[2021-08-26T22:47:11.825-0300][gc,cpu       ] GC(9) User=0.06s Sys=0.00s Real=0.02s
[2021-08-26T22:47:11.825-0300][gc           ] GC(9) Concurrent Sweep
[2021-08-26T22:47:11.835-0300][gc           ] GC(9) Concurrent Sweep 10.816ms
[2021-08-26T22:47:11.836-0300][gc,cpu       ] GC(9) User=0.03s Sys=0.00s Real=0.01s
[2021-08-26T22:47:11.836-0300][gc           ] GC(9) Concurrent Reset
[2021-08-26T22:47:11.837-0300][gc           ] GC(9) Concurrent Reset 1.159ms
[2021-08-26T22:47:11.837-0300][gc,cpu       ] GC(9) User=0.01s Sys=0.00s Real=0.00s
[2021-08-26T22:47:11.837-0300][gc,heap      ] GC(9) Old: 22133K->24755K(65536K)
[2021-08-26T22:48:37.513-0300][gc,start     ] GC(11) Pause Young (Allocation Failure)
[2021-08-26T22:48:37.513-0300][gc,task      ] GC(11) Using 4 workers of 4 for evacuation
[2021-08-26T22:48:37.520-0300][gc,heap      ] GC(11) ParNew: 57903K->6099K(59008K)
[2021-08-26T22:48:37.520-0300][gc,heap      ] GC(11) CMS: 24755K->24755K(65536K)
[2021-08-26T22:48:37.520-0300][gc,metaspace ] GC(11) Metaspace: 49015K->49015K(1093632K)
[2021-08-26T22:48:37.520-0300][gc           ] GC(11) Pause Young (Allocation Failure) 80M->30M(121M) 6.959ms
[2021-08-26T22:48:37.520-0300][gc,cpu       ] GC(11) User=0.02s Sys=0.00s Real=0.01s
[2021-08-26T23:08:26.355-0300][gc,start     ] GC(12) Pause Young (Allocation Failure)
[2021-08-26T23:08:26.357-0300][gc,task      ] GC(12) Using 4 workers of 4 for evacuation
[2021-08-26T23:08:26.408-0300][gc,heap      ] GC(12) ParNew: 58579K->4979K(59008K)
[2021-08-26T23:08:26.409-0300][gc,heap      ] GC(12) CMS: 24755K->26548K(65536K)
[2021-08-26T23:08:26.409-0300][gc,metaspace ] GC(12) Metaspace: 51233K->51233K(1095680K)
[2021-08-26T23:08:26.409-0300][gc           ] GC(12) Pause Young (Allocation Failure) 81M->30M(121M) 54.195ms
[2021-08-26T23:08:26.409-0300][gc,cpu       ] GC(12) User=0.08s Sys=0.04s Real=0.05s
[2021-08-26T23:22:08.630-0300][gc,start     ] GC(13) Pause Young (Allocation Failure)
[2021-08-26T23:22:08.631-0300][gc,task      ] GC(13) Using 4 workers of 4 for evacuation
[2021-08-26T23:22:08.668-0300][gc,heap      ] GC(13) ParNew: 57456K->5211K(59008K)
[2021-08-26T23:22:08.668-0300][gc,heap      ] GC(13) CMS: 26548K->27535K(65536K)
[2021-08-26T23:22:08.668-0300][gc,metaspace ] GC(13) Metaspace: 53778K->53778K(1097728K)
[2021-08-26T23:22:08.669-0300][gc           ] GC(13) Pause Young (Allocation Failure) 82M->31M(121M) 38.580ms
[2021-08-26T23:22:08.669-0300][gc,cpu       ] GC(13) User=0.04s Sys=0.04s Real=0.03s
[2021-08-26T23:22:40.789-0300][gc,start     ] GC(14) Pause Young (Allocation Failure)
[2021-08-26T23:22:40.796-0300][gc,task      ] GC(14) Using 4 workers of 4 for evacuation
[2021-08-26T23:22:40.808-0300][gc,heap      ] GC(14) ParNew: 57691K->5652K(59008K)
[2021-08-26T23:22:40.808-0300][gc,heap      ] GC(14) CMS: 27535K->29411K(65536K)
[2021-08-26T23:22:40.808-0300][gc,metaspace ] GC(14) Metaspace: 57127K->57127K(1101824K)
[2021-08-26T23:22:40.808-0300][gc           ] GC(14) Pause Young (Allocation Failure) 83M->34M(121M) 18.837ms
[2021-08-26T23:22:40.808-0300][gc,cpu       ] GC(14) User=0.03s Sys=0.00s Real=0.02s
[2021-08-26T23:22:49.957-0300][gc,start     ] GC(15) Pause Young (Allocation Failure)
[2021-08-26T23:22:49.958-0300][gc,task      ] GC(15) Using 4 workers of 4 for evacuation
[2021-08-26T23:22:49.986-0300][gc,heap      ] GC(15) ParNew: 58132K->6154K(59008K)
[2021-08-26T23:22:49.986-0300][gc,heap      ] GC(15) CMS: 29411K->29411K(65536K)
[2021-08-26T23:22:49.986-0300][gc,metaspace ] GC(15) Metaspace: 59841K->59841K(1103872K)
[2021-08-26T23:22:49.986-0300][gc           ] GC(15) Pause Young (Allocation Failure) 85M->34M(121M) 28.525ms
[2021-08-26T23:22:49.986-0300][gc,cpu       ] GC(15) User=0.03s Sys=0.01s Real=0.03s
[2021-08-26T23:23:16.880-0300][gc,start     ] GC(16) Pause Young (Allocation Failure)
[2021-08-26T23:23:16.880-0300][gc,task      ] GC(16) Using 4 workers of 4 for evacuation
[2021-08-26T23:23:16.895-0300][gc,heap      ] GC(16) ParNew: 58634K->6528K(59008K)
[2021-08-26T23:23:16.895-0300][gc,heap      ] GC(16) CMS: 29411K->32369K(65536K)
[2021-08-26T23:23:16.895-0300][gc,metaspace ] GC(16) Metaspace: 60194K->60194K(1103872K)
[2021-08-26T23:23:16.895-0300][gc           ] GC(16) Pause Young (Allocation Failure) 85M->37M(121M) 15.251ms
[2021-08-26T23:23:16.895-0300][gc,cpu       ] GC(16) User=0.04s Sys=0.01s Real=0.01s
[2021-08-26T23:26:00.307-0300][gc,start     ] GC(17) Pause Young (Allocation Failure)
[2021-08-26T23:26:00.307-0300][gc,task      ] GC(17) Using 4 workers of 4 for evacuation
[2021-08-26T23:26:00.320-0300][gc,heap      ] GC(17) ParNew: 59008K->3137K(59008K)
[2021-08-26T23:26:00.320-0300][gc,heap      ] GC(17) CMS: 32369K->34281K(65536K)
[2021-08-26T23:26:00.320-0300][gc,metaspace ] GC(17) Metaspace: 60375K->60375K(1103872K)
[2021-08-26T23:26:00.320-0300][gc           ] GC(17) Pause Young (Allocation Failure) 89M->36M(121M) 13.279ms
[2021-08-26T23:26:00.320-0300][gc,cpu       ] GC(17) User=0.02s Sys=0.00s Real=0.02s
[2021-08-26T23:26:50.163-0300][gc,start     ] GC(18) Pause Young (Allocation Failure)
[2021-08-26T23:26:50.165-0300][gc,task      ] GC(18) Using 4 workers of 4 for evacuation
[2021-08-26T23:26:50.173-0300][gc,heap      ] GC(18) ParNew: 55617K->3139K(59008K)
[2021-08-26T23:26:50.173-0300][gc,heap      ] GC(18) CMS: 34281K->34281K(65536K)
[2021-08-26T23:26:50.173-0300][gc,metaspace ] GC(18) Metaspace: 60584K->60584K(1103872K)
[2021-08-26T23:26:50.173-0300][gc           ] GC(18) Pause Young (Allocation Failure) 87M->36M(121M) 9.905ms
[2021-08-26T23:26:50.173-0300][gc,cpu       ] GC(18) User=0.02s Sys=0.01s Real=0.01s
[2021-08-26T23:27:32.263-0300][gc,start     ] GC(19) Pause Young (Allocation Failure)
[2021-08-26T23:27:32.263-0300][gc,task      ] GC(19) Using 4 workers of 4 for evacuation
[2021-08-26T23:27:32.268-0300][gc,heap      ] GC(19) ParNew: 55619K->3393K(59008K)
[2021-08-26T23:27:32.268-0300][gc,heap      ] GC(19) CMS: 34281K->34281K(65536K)
[2021-08-26T23:27:32.268-0300][gc,metaspace ] GC(19) Metaspace: 60708K->60708K(1103872K)
[2021-08-26T23:27:32.268-0300][gc           ] GC(19) Pause Young (Allocation Failure) 87M->36M(121M) 5.627ms
[2021-08-26T23:27:32.268-0300][gc,cpu       ] GC(19) User=0.01s Sys=0.00s Real=0.00s
[2021-08-26T23:29:52.690-0300][gc,start     ] GC(20) Pause Young (Allocation Failure)
[2021-08-26T23:29:52.691-0300][gc,task      ] GC(20) Using 4 workers of 4 for evacuation
[2021-08-26T23:29:52.698-0300][gc,heap      ] GC(20) ParNew: 55873K->4034K(59008K)
[2021-08-26T23:29:52.698-0300][gc,heap      ] GC(20) CMS: 34281K->34281K(65536K)
[2021-08-26T23:29:52.698-0300][gc,metaspace ] GC(20) Metaspace: 60850K->60850K(1105920K)
[2021-08-26T23:29:52.698-0300][gc           ] GC(20) Pause Young (Allocation Failure) 88M->37M(121M) 7.491ms
[2021-08-26T23:29:52.698-0300][gc,cpu       ] GC(20) User=0.02s Sys=0.00s Real=0.00s
[2021-08-26T23:30:50.132-0300][gc,start     ] GC(21) Pause Young (Allocation Failure)
[2021-08-26T23:30:50.133-0300][gc,task      ] GC(21) Using 4 workers of 4 for evacuation
[2021-08-26T23:30:50.138-0300][gc,heap      ] GC(21) ParNew: 56514K->3642K(59008K)
[2021-08-26T23:30:50.138-0300][gc,heap      ] GC(21) CMS: 34281K->34281K(65536K)
[2021-08-26T23:30:50.138-0300][gc,metaspace ] GC(21) Metaspace: 61103K->61103K(1105920K)
[2021-08-26T23:30:50.138-0300][gc           ] GC(21) Pause Young (Allocation Failure) 88M->37M(121M) 5.945ms
[2021-08-26T23:30:50.138-0300][gc,cpu       ] GC(21) User=0.01s Sys=0.00s Real=0.00s
[2021-08-26T23:35:30.241-0300][gc,start     ] GC(22) Pause Young (Allocation Failure)
[2021-08-26T23:35:30.243-0300][gc,task      ] GC(22) Using 4 workers of 4 for evacuation
[2021-08-26T23:35:30.253-0300][gc,heap      ] GC(22) ParNew: 56122K->4296K(59008K)
[2021-08-26T23:35:30.253-0300][gc,heap      ] GC(22) CMS: 34281K->34589K(65536K)
[2021-08-26T23:35:30.253-0300][gc,metaspace ] GC(22) Metaspace: 61211K->61211K(1105920K)
[2021-08-26T23:35:30.253-0300][gc           ] GC(22) Pause Young (Allocation Failure) 88M->37M(121M) 11.564ms
[2021-08-26T23:35:30.253-0300][gc,cpu       ] GC(22) User=0.02s Sys=0.01s Real=0.01s
[2021-08-26T23:38:15.353-0300][gc,start     ] GC(23) Pause Young (Allocation Failure)
[2021-08-26T23:38:15.356-0300][gc,task      ] GC(23) Using 4 workers of 4 for evacuation
[2021-08-26T23:38:15.362-0300][gc,heap      ] GC(23) ParNew: 56776K->3166K(59008K)
[2021-08-26T23:38:15.362-0300][gc,heap      ] GC(23) CMS: 34589K->34723K(65536K)
[2021-08-26T23:38:15.362-0300][gc,metaspace ] GC(23) Metaspace: 61269K->61269K(1105920K)
[2021-08-26T23:38:15.362-0300][gc           ] GC(23) Pause Young (Allocation Failure) 89M->37M(121M) 9.042ms
[2021-08-26T23:38:15.362-0300][gc,cpu       ] GC(23) User=0.01s Sys=0.01s Real=0.01s
[2021-08-26T23:40:57.223-0300][gc,start     ] GC(24) Pause Young (Allocation Failure)
[2021-08-26T23:40:57.233-0300][gc,task      ] GC(24) Using 4 workers of 4 for evacuation
[2021-08-26T23:40:57.256-0300][gc,heap      ] GC(24) ParNew: 55646K->3714K(59008K)
[2021-08-26T23:40:57.256-0300][gc,heap      ] GC(24) CMS: 34723K->34898K(65536K)
[2021-08-26T23:40:57.256-0300][gc,metaspace ] GC(24) Metaspace: 61293K->61293K(1105920K)
[2021-08-26T23:40:57.256-0300][gc           ] GC(24) Pause Young (Allocation Failure) 88M->37M(121M) 33.200ms
[2021-08-26T23:40:57.257-0300][gc,cpu       ] GC(24) User=0.01s Sys=0.04s Real=0.03s
[2021-08-26T23:43:42.712-0300][gc,start     ] GC(25) Pause Young (Allocation Failure)
[2021-08-26T23:43:42.715-0300][gc,task      ] GC(25) Using 4 workers of 4 for evacuation
[2021-08-26T23:43:42.726-0300][gc,heap      ] GC(25) ParNew: 56194K->3323K(59008K)
[2021-08-26T23:43:42.726-0300][gc,heap      ] GC(25) CMS: 34898K->35064K(65536K)
[2021-08-26T23:43:42.726-0300][gc,metaspace ] GC(25) Metaspace: 61293K->61293K(1105920K)
[2021-08-26T23:43:42.726-0300][gc           ] GC(25) Pause Young (Allocation Failure) 88M->37M(121M) 14.320ms
[2021-08-26T23:43:42.726-0300][gc,cpu       ] GC(25) User=0.02s Sys=0.01s Real=0.01s
[2021-08-26T23:46:27.851-0300][gc,start     ] GC(26) Pause Young (Allocation Failure)
[2021-08-26T23:46:27.853-0300][gc,task      ] GC(26) Using 4 workers of 4 for evacuation
[2021-08-26T23:46:27.881-0300][gc,heap      ] GC(26) ParNew: 55803K->2645K(59008K)
[2021-08-26T23:46:27.881-0300][gc,heap      ] GC(26) CMS: 35064K->35103K(65536K)
[2021-08-26T23:46:27.881-0300][gc,metaspace ] GC(26) Metaspace: 61294K->61294K(1105920K)
[2021-08-26T23:46:27.881-0300][gc           ] GC(26) Pause Young (Allocation Failure) 88M->36M(121M) 29.850ms
[2021-08-26T23:46:27.881-0300][gc,cpu       ] GC(26) User=0.02s Sys=0.04s Real=0.03s
[2021-08-26T23:49:13.545-0300][gc,start     ] GC(27) Pause Young (Allocation Failure)
[2021-08-26T23:49:13.551-0300][gc,task      ] GC(27) Using 4 workers of 4 for evacuation
[2021-08-26T23:49:13.557-0300][gc,heap      ] GC(27) ParNew: 55125K->2553K(59008K)
[2021-08-26T23:49:13.557-0300][gc,heap      ] GC(27) CMS: 35103K->35296K(65536K)
[2021-08-26T23:49:13.557-0300][gc,metaspace ] GC(27) Metaspace: 61294K->61294K(1105920K)
[2021-08-26T23:49:13.557-0300][gc           ] GC(27) Pause Young (Allocation Failure) 88M->36M(121M) 11.930ms
[2021-08-26T23:49:13.557-0300][gc,cpu       ] GC(27) User=0.01s Sys=0.01s Real=0.01s
[2021-08-26T23:52:00.043-0300][gc,start     ] GC(28) Pause Young (Allocation Failure)
[2021-08-26T23:52:00.044-0300][gc,task      ] GC(28) Using 4 workers of 4 for evacuation
[2021-08-26T23:52:00.078-0300][gc,heap      ] GC(28) ParNew: 55033K->1880K(59008K)
[2021-08-26T23:52:00.078-0300][gc,heap      ] GC(28) CMS: 35296K->37007K(65536K)
[2021-08-26T23:52:00.078-0300][gc,metaspace ] GC(28) Metaspace: 61294K->61294K(1105920K)
[2021-08-26T23:52:00.078-0300][gc           ] GC(28) Pause Young (Allocation Failure) 88M->37M(121M) 35.149ms
[2021-08-26T23:52:00.078-0300][gc,cpu       ] GC(28) User=0.03s Sys=0.04s Real=0.03s
[2021-08-26T23:54:45.466-0300][gc,start     ] GC(29) Pause Young (Allocation Failure)
[2021-08-26T23:54:45.468-0300][gc,task      ] GC(29) Using 4 workers of 4 for evacuation
[2021-08-26T23:54:45.481-0300][gc,heap      ] GC(29) ParNew: 54360K->375K(59008K)
[2021-08-26T23:54:45.481-0300][gc,heap      ] GC(29) CMS: 37007K->37009K(65536K)
[2021-08-26T23:54:45.481-0300][gc,metaspace ] GC(29) Metaspace: 61310K->61310K(1105920K)
[2021-08-26T23:54:45.481-0300][gc           ] GC(29) Pause Young (Allocation Failure) 89M->36M(121M) 15.097ms
[2021-08-26T23:54:45.481-0300][gc,cpu       ] GC(29) User=0.01s Sys=0.02s Real=0.02s
[2021-08-26T23:57:31.729-0300][gc,start     ] GC(30) Pause Young (Allocation Failure)
[2021-08-26T23:57:31.736-0300][gc,task      ] GC(30) Using 4 workers of 4 for evacuation
[2021-08-26T23:57:31.739-0300][gc,heap      ] GC(30) ParNew: 52855K->185K(59008K)
[2021-08-26T23:57:31.739-0300][gc,heap      ] GC(30) CMS: 37009K->37123K(65536K)
[2021-08-26T23:57:31.739-0300][gc,metaspace ] GC(30) Metaspace: 61335K->61335K(1105920K)
[2021-08-26T23:57:31.739-0300][gc           ] GC(30) Pause Young (Allocation Failure) 87M->36M(121M) 10.420ms
[2021-08-26T23:57:31.739-0300][gc,cpu       ] GC(30) User=0.01s Sys=0.01s Real=0.01s
[2021-08-27T00:00:16.819-0300][gc,start     ] GC(31) Pause Young (Allocation Failure)
[2021-08-27T00:00:16.828-0300][gc,task      ] GC(31) Using 4 workers of 4 for evacuation
[2021-08-27T00:00:16.838-0300][gc,heap      ] GC(31) ParNew: 52665K->88K(59008K)
[2021-08-27T00:00:16.838-0300][gc,heap      ] GC(31) CMS: 37123K->37124K(65536K)
[2021-08-27T00:00:16.838-0300][gc,metaspace ] GC(31) Metaspace: 61341K->61341K(1105920K)
[2021-08-27T00:00:16.838-0300][gc           ] GC(31) Pause Young (Allocation Failure) 87M->36M(121M) 19.262ms
[2021-08-27T00:00:16.838-0300][gc,cpu       ] GC(31) User=0.01s Sys=0.02s Real=0.02s
[2021-08-27T00:01:50.161-0300][gc,start     ] GC(32) Pause Young (Allocation Failure)
[2021-08-27T00:01:50.162-0300][gc,task      ] GC(32) Using 4 workers of 4 for evacuation
[2021-08-27T00:01:50.176-0300][gc,heap      ] GC(32) ParNew: 52568K->103K(59008K)
[2021-08-27T00:01:50.176-0300][gc,heap      ] GC(32) CMS: 37124K->37129K(65536K)
[2021-08-27T00:01:50.177-0300][gc,metaspace ] GC(32) Metaspace: 61421K->61421K(1105920K)
[2021-08-27T00:01:50.177-0300][gc           ] GC(32) Pause Young (Allocation Failure) 87M->36M(121M) 15.282ms
[2021-08-27T00:01:50.177-0300][gc,cpu       ] GC(32) User=0.01s Sys=0.02s Real=0.01s
[2021-08-27T00:02:54.461-0300][gc,heap,exit ] Heap
[2021-08-27T00:02:54.468-0300][gc,heap,exit ]  par new generation   total 59008K, used 24349K [0x0000000740000000, 0x0000000744000000, 0x00000007a0000000)
[2021-08-27T00:02:54.468-0300][gc,heap,exit ]   eden space 52480K,  46% used [0x0000000740000000, 0x00000007417ad7d8, 0x0000000743340000)
[2021-08-27T00:02:54.468-0300][gc,heap,exit ]   from space 6528K,   1% used [0x00000007439a0000, 0x00000007439b9c60, 0x0000000744000000)
[2021-08-27T00:02:54.468-0300][gc,heap,exit ]   to   space 6528K,   0% used [0x0000000743340000, 0x0000000743340000, 0x00000007439a0000)
[2021-08-27T00:02:54.468-0300][gc,heap,exit ]  concurrent mark-sweep generation total 65536K, used 37129K [0x00000007a0000000, 0x00000007a4000000, 0x0000000800000000)
[2021-08-27T00:02:54.468-0300][gc,heap,exit ]  Metaspace       used 61681K, capacity 64361K, committed 64464K, reserved 1105920K
[2021-08-27T00:02:54.468-0300][gc,heap,exit ]   class space    used 7417K, capacity 8457K, committed 8496K, reserved 1048576K
