[2021-08-25T17:34:50.937-0300][gc] Using Concurrent Mark Sweep
[2021-08-25T17:34:50.937-0300][gc,heap,coops] Heap address: 0x0000000740000000, size: 3072 MB, Compressed Oops mode: Zero based, Oop shift amount: 3
[2021-08-25T17:34:51.798-0300][gc,start     ] GC(0) Pause Young (Allocation Failure)
[2021-08-25T17:34:51.798-0300][gc,task      ] GC(0) Using 2 workers of 4 for evacuation
[2021-08-25T17:34:51.827-0300][gc,heap      ] GC(0) ParNew: 52480K->6527K(59008K)
[2021-08-25T17:34:51.827-0300][gc,heap      ] GC(0) CMS: 0K->10326K(65536K)
[2021-08-25T17:34:51.827-0300][gc,metaspace ] GC(0) Metaspace: 6163K->6163K(1056768K)
[2021-08-25T17:34:51.827-0300][gc           ] GC(0) Pause Young (Allocation Failure) 51M->16M(121M) 28.462ms
[2021-08-25T17:34:51.827-0300][gc,cpu       ] GC(0) User=0.07s Sys=0.01s Real=0.03s
[2021-08-25T17:34:52.365-0300][gc,start     ] GC(1) Pause Young (Allocation Failure)
[2021-08-25T17:34:52.365-0300][gc,task      ] GC(1) Using 2 workers of 4 for evacuation
[2021-08-25T17:34:52.377-0300][gc,heap      ] GC(1) ParNew: 59007K->2468K(59008K)
[2021-08-25T17:34:52.378-0300][gc,heap      ] GC(1) CMS: 10326K->16868K(65536K)
[2021-08-25T17:34:52.378-0300][gc,metaspace ] GC(1) Metaspace: 13273K->13273K(1060864K)
[2021-08-25T17:34:52.378-0300][gc           ] GC(1) Pause Young (Allocation Failure) 67M->18M(121M) 12.400ms
[2021-08-25T17:34:52.378-0300][gc,cpu       ] GC(1) User=0.03s Sys=0.01s Real=0.01s
[2021-08-25T17:34:52.919-0300][gc,start     ] GC(2) Pause Young (Allocation Failure)
[2021-08-25T17:34:52.919-0300][gc,task      ] GC(2) Using 4 workers of 4 for evacuation
[2021-08-25T17:34:52.924-0300][gc,heap      ] GC(2) ParNew: 54948K->5201K(59008K)
[2021-08-25T17:34:52.924-0300][gc,heap      ] GC(2) CMS: 16868K->16868K(65536K)
[2021-08-25T17:34:52.924-0300][gc,metaspace ] GC(2) Metaspace: 22348K->22348K(1069056K)
[2021-08-25T17:34:52.924-0300][gc           ] GC(2) Pause Young (Allocation Failure) 70M->21M(121M) 5.061ms
[2021-08-25T17:34:52.924-0300][gc,cpu       ] GC(2) User=0.02s Sys=0.00s Real=0.01s
[2021-08-25T17:34:52.924-0300][gc,start     ] GC(3) Pause Initial Mark
[2021-08-25T17:34:52.926-0300][gc           ] GC(3) Pause Initial Mark 21M->21M(121M) 1.542ms
[2021-08-25T17:34:52.926-0300][gc,cpu       ] GC(3) User=0.00s Sys=0.00s Real=0.00s
[2021-08-25T17:34:52.927-0300][gc           ] GC(3) Concurrent Mark
[2021-08-25T17:34:52.954-0300][gc           ] GC(3) Concurrent Mark 26.536ms
[2021-08-25T17:34:52.954-0300][gc,cpu       ] GC(3) User=0.06s Sys=0.01s Real=0.03s
[2021-08-25T17:34:52.954-0300][gc           ] GC(3) Concurrent Preclean
[2021-08-25T17:34:52.954-0300][gc           ] GC(3) Concurrent Preclean 0.684ms
[2021-08-25T17:34:52.955-0300][gc,cpu       ] GC(3) User=0.00s Sys=0.00s Real=0.00s
[2021-08-25T17:34:52.955-0300][gc           ] GC(3) Concurrent Abortable Preclean
[2021-08-25T17:34:53.171-0300][gc           ] GC(3) Concurrent Abortable Preclean 216.779ms
[2021-08-25T17:34:53.171-0300][gc,cpu       ] GC(3) User=0.43s Sys=0.01s Real=0.22s
[2021-08-25T17:34:53.171-0300][gc,start     ] GC(3) Pause Remark
[2021-08-25T17:34:53.172-0300][gc,start     ] GC(4) Pause Young (CMS Final Remark)
[2021-08-25T17:34:53.172-0300][gc,task      ] GC(4) Using 4 workers of 4 for evacuation
[2021-08-25T17:34:53.179-0300][gc,heap      ] GC(4) ParNew: 35272K->5164K(59008K)
[2021-08-25T17:34:53.179-0300][gc,heap      ] GC(4) CMS: 16868K->18636K(65536K)
[2021-08-25T17:34:53.179-0300][gc,metaspace ] GC(4) Metaspace: 26874K->26874K(1073152K)
[2021-08-25T17:34:53.179-0300][gc           ] GC(4) Pause Young (CMS Final Remark) 50M->23M(121M) 7.467ms
[2021-08-25T17:34:53.179-0300][gc,cpu       ] GC(4) User=0.03s Sys=0.01s Real=0.00s
[2021-08-25T17:34:53.185-0300][gc           ] GC(3) Pause Remark 50M->23M(121M) 13.051ms
[2021-08-25T17:34:53.185-0300][gc,cpu       ] GC(3) User=0.04s Sys=0.01s Real=0.01s
[2021-08-25T17:34:53.185-0300][gc           ] GC(3) Concurrent Sweep
[2021-08-25T17:34:53.189-0300][gc           ] GC(3) Concurrent Sweep 3.845ms
[2021-08-25T17:34:53.189-0300][gc,cpu       ] GC(3) User=0.01s Sys=0.00s Real=0.00s
[2021-08-25T17:34:53.189-0300][gc           ] GC(3) Concurrent Reset
[2021-08-25T17:34:53.192-0300][gc           ] GC(3) Concurrent Reset 3.271ms
[2021-08-25T17:34:53.192-0300][gc,cpu       ] GC(3) User=0.01s Sys=0.00s Real=0.01s
[2021-08-25T17:34:53.192-0300][gc,heap      ] GC(3) Old: 16868K->18590K(65536K)
[2021-08-25T17:34:53.564-0300][gc,start     ] GC(5) Pause Young (Allocation Failure)
[2021-08-25T17:34:53.564-0300][gc,task      ] GC(5) Using 4 workers of 4 for evacuation
[2021-08-25T17:34:53.570-0300][gc,heap      ] GC(5) ParNew: 57644K->5472K(59008K)
[2021-08-25T17:34:53.570-0300][gc,heap      ] GC(5) CMS: 18590K->18590K(65536K)
[2021-08-25T17:34:53.570-0300][gc,metaspace ] GC(5) Metaspace: 30245K->30245K(1077248K)
[2021-08-25T17:34:53.570-0300][gc           ] GC(5) Pause Young (Allocation Failure) 74M->23M(121M) 6.584ms
[2021-08-25T17:34:53.570-0300][gc,cpu       ] GC(5) User=0.03s Sys=0.01s Real=0.01s
[2021-08-25T17:34:53.986-0300][gc,start     ] GC(6) Pause Young (Allocation Failure)
[2021-08-25T17:34:53.986-0300][gc,task      ] GC(6) Using 4 workers of 4 for evacuation
[2021-08-25T17:34:53.997-0300][gc,heap      ] GC(6) ParNew: 57952K->6079K(59008K)
[2021-08-25T17:34:53.998-0300][gc,heap      ] GC(6) CMS: 18590K->20942K(65536K)
[2021-08-25T17:34:53.998-0300][gc,metaspace ] GC(6) Metaspace: 32745K->32745K(1079296K)
[2021-08-25T17:34:53.998-0300][gc           ] GC(6) Pause Young (Allocation Failure) 74M->26M(121M) 11.195ms
[2021-08-25T17:34:53.998-0300][gc,cpu       ] GC(6) User=0.03s Sys=0.01s Real=0.01s
[2021-08-25T17:34:55.073-0300][gc,start     ] GC(7) Pause Young (Allocation Failure)
[2021-08-25T17:34:55.073-0300][gc,task      ] GC(7) Using 4 workers of 4 for evacuation
[2021-08-25T17:34:55.082-0300][gc,heap      ] GC(7) ParNew: 58559K->6528K(59008K)
[2021-08-25T17:34:55.082-0300][gc,heap      ] GC(7) CMS: 20942K->21623K(65536K)
[2021-08-25T17:34:55.082-0300][gc,metaspace ] GC(7) Metaspace: 39278K->39278K(1085440K)
[2021-08-25T17:34:55.082-0300][gc           ] GC(7) Pause Young (Allocation Failure) 77M->27M(121M) 9.558ms
[2021-08-25T17:34:55.082-0300][gc,cpu       ] GC(7) User=0.02s Sys=0.00s Real=0.01s
[2021-08-25T17:34:55.711-0300][gc,start     ] GC(8) Pause Young (Allocation Failure)
[2021-08-25T17:34:55.711-0300][gc,task      ] GC(8) Using 4 workers of 4 for evacuation
[2021-08-25T17:34:55.723-0300][gc,heap      ] GC(8) ParNew: 59008K->6499K(59008K)
[2021-08-25T17:34:55.723-0300][gc,heap      ] GC(8) CMS: 21623K->24118K(65536K)
[2021-08-25T17:34:55.723-0300][gc,metaspace ] GC(8) Metaspace: 44009K->44009K(1089536K)
[2021-08-25T17:34:55.723-0300][gc           ] GC(8) Pause Young (Allocation Failure) 78M->29M(121M) 11.411ms
[2021-08-25T17:34:55.723-0300][gc,cpu       ] GC(8) User=0.03s Sys=0.00s Real=0.01s
[2021-08-25T17:34:57.726-0300][gc,start     ] GC(9) Pause Initial Mark
[2021-08-25T17:34:57.735-0300][gc           ] GC(9) Pause Initial Mark 64M->64M(121M) 8.528ms
[2021-08-25T17:34:57.735-0300][gc,cpu       ] GC(9) User=0.03s Sys=0.00s Real=0.01s
[2021-08-25T17:34:57.735-0300][gc           ] GC(9) Concurrent Mark
[2021-08-25T17:34:57.756-0300][gc           ] GC(9) Concurrent Mark 20.726ms
[2021-08-25T17:34:57.756-0300][gc,cpu       ] GC(9) User=0.02s Sys=0.00s Real=0.02s
[2021-08-25T17:34:57.756-0300][gc           ] GC(9) Concurrent Preclean
[2021-08-25T17:34:57.757-0300][gc           ] GC(9) Concurrent Preclean 1.112ms
[2021-08-25T17:34:57.757-0300][gc,cpu       ] GC(9) User=0.00s Sys=0.00s Real=0.00s
[2021-08-25T17:34:57.757-0300][gc           ] GC(9) Concurrent Abortable Preclean
[2021-08-25T17:35:02.854-0300][gc           ] GC(9) Concurrent Abortable Preclean 5096.536ms
[2021-08-25T17:35:02.854-0300][gc,cpu       ] GC(9) User=0.95s Sys=0.02s Real=5.10s
[2021-08-25T17:35:02.854-0300][gc,start     ] GC(9) Pause Remark
[2021-08-25T17:35:02.854-0300][gc,start     ] GC(10) Pause Young (CMS Final Remark)
[2021-08-25T17:35:02.854-0300][gc,task      ] GC(10) Using 4 workers of 4 for evacuation
[2021-08-25T17:35:02.862-0300][gc,heap      ] GC(10) ParNew: 42111K->3798K(59008K)
[2021-08-25T17:35:02.862-0300][gc,heap      ] GC(10) CMS: 24118K->26199K(65536K)
[2021-08-25T17:35:02.862-0300][gc,metaspace ] GC(10) Metaspace: 47785K->47785K(1091584K)
[2021-08-25T17:35:02.862-0300][gc           ] GC(10) Pause Young (CMS Final Remark) 64M->29M(121M) 8.241ms
[2021-08-25T17:35:02.862-0300][gc,cpu       ] GC(10) User=0.03s Sys=0.00s Real=0.01s
[2021-08-25T17:35:02.870-0300][gc           ] GC(9) Pause Remark 64M->29M(121M) 16.254ms
[2021-08-25T17:35:02.870-0300][gc,cpu       ] GC(9) User=0.04s Sys=0.00s Real=0.02s
[2021-08-25T17:35:02.870-0300][gc           ] GC(9) Concurrent Sweep
[2021-08-25T17:35:02.876-0300][gc           ] GC(9) Concurrent Sweep 5.828ms
[2021-08-25T17:35:02.876-0300][gc,cpu       ] GC(9) User=0.01s Sys=0.00s Real=0.00s
[2021-08-25T17:35:02.876-0300][gc           ] GC(9) Concurrent Reset
[2021-08-25T17:35:02.879-0300][gc           ] GC(9) Concurrent Reset 2.460ms
[2021-08-25T17:35:02.879-0300][gc,cpu       ] GC(9) User=0.00s Sys=0.00s Real=0.00s
[2021-08-25T17:35:02.879-0300][gc,heap      ] GC(9) Old: 24118K->26062K(65536K)
[2021-08-25T17:35:45.004-0300][gc,heap,exit ] Heap
[2021-08-25T17:35:45.004-0300][gc,heap,exit ]  par new generation   total 59008K, used 18466K [0x0000000740000000, 0x0000000744000000, 0x00000007a0000000)
[2021-08-25T17:35:45.004-0300][gc,heap,exit ]   eden space 52480K,  27% used [0x0000000740000000, 0x0000000740e530c0, 0x0000000743340000)
[2021-08-25T17:35:45.004-0300][gc,heap,exit ]   from space 6528K,  58% used [0x00000007439a0000, 0x0000000743d55930, 0x0000000744000000)
[2021-08-25T17:35:45.004-0300][gc,heap,exit ]   to   space 6528K,   0% used [0x0000000743340000, 0x0000000743340000, 0x00000007439a0000)
[2021-08-25T17:35:45.004-0300][gc,heap,exit ]  concurrent mark-sweep generation total 65536K, used 26062K [0x00000007a0000000, 0x00000007a4000000, 0x0000000800000000)
[2021-08-25T17:35:45.004-0300][gc,heap,exit ]  Metaspace       used 49433K, capacity 51096K, committed 51388K, reserved 1093632K
[2021-08-25T17:35:45.004-0300][gc,heap,exit ]   class space    used 6141K, capacity 6799K, committed 6884K, reserved 1048576K
