[2021-08-25T17:32:48.667-0300][gc] Using Concurrent Mark Sweep
[2021-08-25T17:32:48.667-0300][gc,heap,coops] Heap address: 0x0000000740000000, size: 3072 MB, Compressed Oops mode: Zero based, Oop shift amount: 3
[2021-08-25T17:32:49.920-0300][gc,start     ] GC(0) Pause Young (Allocation Failure)
[2021-08-25T17:32:49.920-0300][gc,task      ] GC(0) Using 2 workers of 4 for evacuation
[2021-08-25T17:32:49.968-0300][gc,heap      ] GC(0) ParNew: 52480K->6527K(59008K)
[2021-08-25T17:32:49.968-0300][gc,heap      ] GC(0) CMS: 0K->10326K(65536K)
[2021-08-25T17:32:49.968-0300][gc,metaspace ] GC(0) Metaspace: 6128K->6128K(1056768K)
[2021-08-25T17:32:49.968-0300][gc           ] GC(0) Pause Young (Allocation Failure) 51M->16M(121M) 48.691ms
[2021-08-25T17:32:49.968-0300][gc,cpu       ] GC(0) User=0.07s Sys=0.01s Real=0.04s
[2021-08-25T17:32:50.630-0300][gc,start     ] GC(1) Pause Young (Allocation Failure)
[2021-08-25T17:32:50.630-0300][gc,task      ] GC(1) Using 2 workers of 4 for evacuation
[2021-08-25T17:32:50.642-0300][gc,heap      ] GC(1) ParNew: 59007K->2432K(59008K)
[2021-08-25T17:32:50.642-0300][gc,heap      ] GC(1) CMS: 10326K->16826K(65536K)
[2021-08-25T17:32:50.642-0300][gc,metaspace ] GC(1) Metaspace: 12204K->12204K(1060864K)
[2021-08-25T17:32:50.642-0300][gc           ] GC(1) Pause Young (Allocation Failure) 67M->18M(121M) 12.423ms
[2021-08-25T17:32:50.642-0300][gc,cpu       ] GC(1) User=0.02s Sys=0.01s Real=0.01s
[2021-08-25T17:32:51.273-0300][gc,start     ] GC(2) Pause Young (Allocation Failure)
[2021-08-25T17:32:51.274-0300][gc,task      ] GC(2) Using 4 workers of 4 for evacuation
[2021-08-25T17:32:51.279-0300][gc,heap      ] GC(2) ParNew: 54912K->4117K(59008K)
[2021-08-25T17:32:51.279-0300][gc,heap      ] GC(2) CMS: 16826K->16826K(65536K)
[2021-08-25T17:32:51.279-0300][gc,metaspace ] GC(2) Metaspace: 20876K->20876K(1069056K)
[2021-08-25T17:32:51.279-0300][gc           ] GC(2) Pause Young (Allocation Failure) 70M->20M(121M) 5.784ms
[2021-08-25T17:32:51.279-0300][gc,cpu       ] GC(2) User=0.03s Sys=0.00s Real=0.00s
[2021-08-25T17:32:51.279-0300][gc,start     ] GC(3) Pause Initial Mark
[2021-08-25T17:32:51.281-0300][gc           ] GC(3) Pause Initial Mark 20M->20M(121M) 1.837ms
[2021-08-25T17:32:51.281-0300][gc,cpu       ] GC(3) User=0.00s Sys=0.00s Real=0.01s
[2021-08-25T17:32:51.281-0300][gc           ] GC(3) Concurrent Mark
[2021-08-25T17:32:51.317-0300][gc           ] GC(3) Concurrent Mark 35.813ms
[2021-08-25T17:32:51.317-0300][gc,cpu       ] GC(3) User=0.04s Sys=0.01s Real=0.03s
[2021-08-25T17:32:51.318-0300][gc           ] GC(3) Concurrent Preclean
[2021-08-25T17:32:51.319-0300][gc           ] GC(3) Concurrent Preclean 1.451ms
[2021-08-25T17:32:51.319-0300][gc,cpu       ] GC(3) User=0.00s Sys=0.00s Real=0.00s
[2021-08-25T17:32:51.319-0300][gc           ] GC(3) Concurrent Abortable Preclean
[2021-08-25T17:32:51.561-0300][gc           ] GC(3) Concurrent Abortable Preclean 242.238ms
[2021-08-25T17:32:51.561-0300][gc,cpu       ] GC(3) User=0.52s Sys=0.02s Real=0.25s
[2021-08-25T17:32:51.561-0300][gc,start     ] GC(3) Pause Remark
[2021-08-25T17:32:51.561-0300][gc,start     ] GC(4) Pause Young (CMS Final Remark)
[2021-08-25T17:32:51.561-0300][gc,task      ] GC(4) Using 4 workers of 4 for evacuation
[2021-08-25T17:32:51.569-0300][gc,heap      ] GC(4) ParNew: 31391K->4807K(59008K)
[2021-08-25T17:32:51.569-0300][gc,heap      ] GC(4) CMS: 16826K->18505K(65536K)
[2021-08-25T17:32:51.569-0300][gc,metaspace ] GC(4) Metaspace: 25589K->25589K(1073152K)
[2021-08-25T17:32:51.569-0300][gc           ] GC(4) Pause Young (CMS Final Remark) 47M->22M(121M) 7.889ms
[2021-08-25T17:32:51.569-0300][gc,cpu       ] GC(4) User=0.02s Sys=0.00s Real=0.00s
[2021-08-25T17:32:51.576-0300][gc           ] GC(3) Pause Remark 47M->22M(121M) 14.738ms
[2021-08-25T17:32:51.576-0300][gc,cpu       ] GC(3) User=0.03s Sys=0.00s Real=0.01s
[2021-08-25T17:32:51.576-0300][gc           ] GC(3) Concurrent Sweep
[2021-08-25T17:32:51.579-0300][gc           ] GC(3) Concurrent Sweep 3.013ms
[2021-08-25T17:32:51.579-0300][gc,cpu       ] GC(3) User=0.01s Sys=0.00s Real=0.00s
[2021-08-25T17:32:51.580-0300][gc           ] GC(3) Concurrent Reset
[2021-08-25T17:32:51.582-0300][gc           ] GC(3) Concurrent Reset 2.800ms
[2021-08-25T17:32:51.582-0300][gc,cpu       ] GC(3) User=0.01s Sys=0.00s Real=0.00s
[2021-08-25T17:32:51.582-0300][gc,heap      ] GC(3) Old: 16826K->18461K(65536K)
[2021-08-25T17:32:51.969-0300][gc,start     ] GC(5) Pause Young (Allocation Failure)
[2021-08-25T17:32:51.969-0300][gc,task      ] GC(5) Using 4 workers of 4 for evacuation
[2021-08-25T17:32:51.974-0300][gc,heap      ] GC(5) ParNew: 57287K->5256K(59008K)
[2021-08-25T17:32:51.974-0300][gc,heap      ] GC(5) CMS: 18461K->18461K(65536K)
[2021-08-25T17:32:51.974-0300][gc,metaspace ] GC(5) Metaspace: 29784K->29784K(1077248K)
[2021-08-25T17:32:51.974-0300][gc           ] GC(5) Pause Young (Allocation Failure) 73M->23M(121M) 5.460ms
[2021-08-25T17:32:51.974-0300][gc,cpu       ] GC(5) User=0.02s Sys=0.00s Real=0.01s
[2021-08-25T17:32:52.377-0300][gc,start     ] GC(6) Pause Young (Allocation Failure)
[2021-08-25T17:32:52.377-0300][gc,task      ] GC(6) Using 4 workers of 4 for evacuation
[2021-08-25T17:32:52.390-0300][gc,heap      ] GC(6) ParNew: 57736K->5673K(59008K)
[2021-08-25T17:32:52.390-0300][gc,heap      ] GC(6) CMS: 18461K->20625K(65536K)
[2021-08-25T17:32:52.390-0300][gc,metaspace ] GC(6) Metaspace: 32227K->32227K(1079296K)
[2021-08-25T17:32:52.390-0300][gc           ] GC(6) Pause Young (Allocation Failure) 74M->25M(121M) 12.450ms
[2021-08-25T17:32:52.390-0300][gc,cpu       ] GC(6) User=0.03s Sys=0.01s Real=0.02s
[2021-08-25T17:32:53.600-0300][gc,start     ] GC(7) Pause Young (Allocation Failure)
[2021-08-25T17:32:53.600-0300][gc,task      ] GC(7) Using 4 workers of 4 for evacuation
[2021-08-25T17:32:53.608-0300][gc,heap      ] GC(7) ParNew: 58153K->6314K(59008K)
[2021-08-25T17:32:53.608-0300][gc,heap      ] GC(7) CMS: 20625K->21401K(65536K)
[2021-08-25T17:32:53.608-0300][gc,metaspace ] GC(7) Metaspace: 37900K->37900K(1083392K)
[2021-08-25T17:32:53.608-0300][gc           ] GC(7) Pause Young (Allocation Failure) 76M->27M(121M) 8.236ms
[2021-08-25T17:32:53.608-0300][gc,cpu       ] GC(7) User=0.03s Sys=0.00s Real=0.00s
[2021-08-25T17:32:54.330-0300][gc,start     ] GC(8) Pause Young (Allocation Failure)
[2021-08-25T17:32:54.330-0300][gc,task      ] GC(8) Using 4 workers of 4 for evacuation
[2021-08-25T17:32:54.342-0300][gc,heap      ] GC(8) ParNew: 58794K->5210K(59008K)
[2021-08-25T17:32:54.342-0300][gc,heap      ] GC(8) CMS: 21401K->22539K(65536K)
[2021-08-25T17:32:54.342-0300][gc,metaspace ] GC(8) Metaspace: 43016K->43016K(1087488K)
[2021-08-25T17:32:54.342-0300][gc           ] GC(8) Pause Young (Allocation Failure) 78M->27M(121M) 11.786ms
[2021-08-25T17:32:54.342-0300][gc,cpu       ] GC(8) User=0.03s Sys=0.01s Real=0.01s
[2021-08-25T17:32:54.348-0300][gc,start     ] GC(9) Pause Initial Mark
[2021-08-25T17:32:54.351-0300][gc           ] GC(9) Pause Initial Mark 27M->27M(121M) 3.025ms
[2021-08-25T17:32:54.351-0300][gc,cpu       ] GC(9) User=0.01s Sys=0.00s Real=0.01s
[2021-08-25T17:32:54.353-0300][gc           ] GC(9) Concurrent Mark
[2021-08-25T17:32:54.378-0300][gc           ] GC(9) Concurrent Mark 24.604ms
[2021-08-25T17:32:54.378-0300][gc,cpu       ] GC(9) User=0.07s Sys=0.00s Real=0.02s
[2021-08-25T17:32:54.378-0300][gc           ] GC(9) Concurrent Preclean
[2021-08-25T17:32:54.379-0300][gc           ] GC(9) Concurrent Preclean 0.488ms
[2021-08-25T17:32:54.379-0300][gc,cpu       ] GC(9) User=0.00s Sys=0.00s Real=0.00s
[2021-08-25T17:32:54.379-0300][gc           ] GC(9) Concurrent Abortable Preclean
[2021-08-25T17:32:54.605-0300][gc           ] GC(9) Concurrent Abortable Preclean 226.242ms
[2021-08-25T17:32:54.605-0300][gc,cpu       ] GC(9) User=0.62s Sys=0.02s Real=0.23s
[2021-08-25T17:32:54.605-0300][gc,start     ] GC(9) Pause Remark
[2021-08-25T17:32:54.605-0300][gc,start     ] GC(10) Pause Young (CMS Final Remark)
[2021-08-25T17:32:54.605-0300][gc,task      ] GC(10) Using 4 workers of 4 for evacuation
[2021-08-25T17:32:54.616-0300][gc,heap      ] GC(10) ParNew: 34754K->5638K(59008K)
[2021-08-25T17:32:54.616-0300][gc,heap      ] GC(10) CMS: 22539K->25816K(65536K)
[2021-08-25T17:32:54.616-0300][gc,metaspace ] GC(10) Metaspace: 44790K->44790K(1089536K)
[2021-08-25T17:32:54.616-0300][gc           ] GC(10) Pause Young (CMS Final Remark) 55M->30M(121M) 11.061ms
[2021-08-25T17:32:54.616-0300][gc,cpu       ] GC(10) User=0.03s Sys=0.00s Real=0.01s
[2021-08-25T17:32:54.625-0300][gc           ] GC(9) Pause Remark 55M->30M(121M) 20.172ms
[2021-08-25T17:32:54.625-0300][gc,cpu       ] GC(9) User=0.05s Sys=0.00s Real=0.02s
[2021-08-25T17:32:54.626-0300][gc           ] GC(9) Concurrent Sweep
[2021-08-25T17:32:54.634-0300][gc           ] GC(9) Concurrent Sweep 7.904ms
[2021-08-25T17:32:54.634-0300][gc,cpu       ] GC(9) User=0.02s Sys=0.01s Real=0.01s
[2021-08-25T17:32:54.634-0300][gc           ] GC(9) Concurrent Reset
[2021-08-25T17:32:54.635-0300][gc           ] GC(9) Concurrent Reset 1.295ms
[2021-08-25T17:32:54.636-0300][gc,cpu       ] GC(9) User=0.01s Sys=0.00s Real=0.00s
[2021-08-25T17:32:54.636-0300][gc,heap      ] GC(9) Old: 22539K->25706K(65536K)
[2021-08-25T17:34:43.815-0300][gc,heap,exit ] Heap
[2021-08-25T17:34:43.816-0300][gc,heap,exit ]  par new generation   total 59008K, used 32120K [0x0000000740000000, 0x0000000744000000, 0x00000007a0000000)
[2021-08-25T17:34:43.816-0300][gc,heap,exit ]   eden space 52480K,  50% used [0x0000000740000000, 0x00000007419dcb50, 0x0000000743340000)
[2021-08-25T17:34:43.816-0300][gc,heap,exit ]   from space 6528K,  86% used [0x00000007439a0000, 0x0000000743f218a8, 0x0000000744000000)
[2021-08-25T17:34:43.816-0300][gc,heap,exit ]   to   space 6528K,   0% used [0x0000000743340000, 0x0000000743340000, 0x00000007439a0000)
[2021-08-25T17:34:43.816-0300][gc,heap,exit ]  concurrent mark-sweep generation total 65536K, used 25706K [0x00000007a0000000, 0x00000007a4000000, 0x0000000800000000)
[2021-08-25T17:34:43.816-0300][gc,heap,exit ]  Metaspace       used 48368K, capacity 49960K, committed 50236K, reserved 1093632K
[2021-08-25T17:34:43.816-0300][gc,heap,exit ]   class space    used 5974K, capacity 6607K, committed 6680K, reserved 1048576K
