[2021-08-26T21:01:33.914-0300][gc,heap      ] GC(160) CMS: 46046K->46046K(65536K)
[2021-08-26T21:01:33.914-0300][gc,metaspace ] GC(160) Metaspace: 63117K->63117K(1107968K)
[2021-08-26T21:01:33.914-0300][gc           ] GC(160) Pause Young (Allocation Failure) 96M->44M(121M) 1.850ms
[2021-08-26T21:01:33.914-0300][gc,cpu       ] GC(160) User=0.01s Sys=0.00s Real=0.00s
[2021-08-26T21:01:35.486-0300][gc,start     ] GC(161) Pause Young (Allocation Failure)
[2021-08-26T21:01:35.486-0300][gc,task      ] GC(161) Using 4 workers of 4 for evacuation
[2021-08-26T21:01:35.487-0300][gc,heap      ] GC(161) ParNew: 52492K->14K(59008K)
[2021-08-26T21:01:35.487-0300][gc,heap      ] GC(161) CMS: 46046K->46046K(65536K)
[2021-08-26T21:01:35.487-0300][gc,metaspace ] GC(161) Metaspace: 63117K->63117K(1107968K)
[2021-08-26T21:01:35.487-0300][gc           ] GC(161) Pause Young (Allocation Failure) 96M->44M(121M) 1.265ms
[2021-08-26T21:01:35.487-0300][gc,cpu       ] GC(161) User=0.00s Sys=0.00s Real=0.00s
[2021-08-26T21:01:36.844-0300][gc,start     ] GC(162) Pause Young (Allocation Failure)
[2021-08-26T21:01:36.844-0300][gc,task      ] GC(162) Using 4 workers of 4 for evacuation
[2021-08-26T21:01:36.845-0300][gc,heap      ] GC(162) ParNew: 52494K->12K(59008K)
[2021-08-26T21:01:36.845-0300][gc,heap      ] GC(162) CMS: 46046K->46046K(65536K)
[2021-08-26T21:01:36.845-0300][gc,metaspace ] GC(162) Metaspace: 63117K->63117K(1107968K)
[2021-08-26T21:01:36.845-0300][gc           ] GC(162) Pause Young (Allocation Failure) 96M->44M(121M) 1.607ms
[2021-08-26T21:01:36.845-0300][gc,cpu       ] GC(162) User=0.00s Sys=0.00s Real=0.00s
[2021-08-26T21:01:38.499-0300][gc,start     ] GC(163) Pause Young (Allocation Failure)
[2021-08-26T21:01:38.499-0300][gc,task      ] GC(163) Using 4 workers of 4 for evacuation
[2021-08-26T21:01:38.500-0300][gc,heap      ] GC(163) ParNew: 52492K->12K(59008K)
[2021-08-26T21:01:38.500-0300][gc,heap      ] GC(163) CMS: 46046K->46046K(65536K)
[2021-08-26T21:01:38.500-0300][gc,metaspace ] GC(163) Metaspace: 63117K->63117K(1107968K)
[2021-08-26T21:01:38.500-0300][gc           ] GC(163) Pause Young (Allocation Failure) 96M->44M(121M) 1.303ms
[2021-08-26T21:01:38.500-0300][gc,cpu       ] GC(163) User=0.00s Sys=0.00s Real=0.01s
[2021-08-26T21:01:41.470-0300][gc,start     ] GC(164) Pause Young (Allocation Failure)
[2021-08-26T21:01:41.470-0300][gc,task      ] GC(164) Using 4 workers of 4 for evacuation
[2021-08-26T21:01:41.471-0300][gc,heap      ] GC(164) ParNew: 52492K->10K(59008K)
[2021-08-26T21:01:41.471-0300][gc,heap      ] GC(164) CMS: 46046K->46046K(65536K)
[2021-08-26T21:01:41.471-0300][gc,metaspace ] GC(164) Metaspace: 63117K->63117K(1107968K)
[2021-08-26T21:01:41.472-0300][gc           ] GC(164) Pause Young (Allocation Failure) 96M->44M(121M) 1.706ms
[2021-08-26T21:01:41.472-0300][gc,cpu       ] GC(164) User=0.00s Sys=0.00s Real=0.00s
[2021-08-26T21:01:43.471-0300][gc,start     ] GC(165) Pause Young (Allocation Failure)
[2021-08-26T21:01:43.471-0300][gc,task      ] GC(165) Using 4 workers of 4 for evacuation
[2021-08-26T21:01:43.472-0300][gc,heap      ] GC(165) ParNew: 52490K->12K(59008K)
[2021-08-26T21:01:43.472-0300][gc,heap      ] GC(165) CMS: 46046K->46046K(65536K)
[2021-08-26T21:01:43.472-0300][gc,metaspace ] GC(165) Metaspace: 63117K->63117K(1107968K)
[2021-08-26T21:01:43.472-0300][gc           ] GC(165) Pause Young (Allocation Failure) 96M->44M(121M) 1.400ms
[2021-08-26T21:01:43.472-0300][gc,cpu       ] GC(165) User=0.00s Sys=0.00s Real=0.00s
[2021-08-26T21:01:44.902-0300][gc,start     ] GC(166) Pause Young (Allocation Failure)
[2021-08-26T21:01:44.902-0300][gc,task      ] GC(166) Using 4 workers of 4 for evacuation
[2021-08-26T21:01:44.904-0300][gc,heap      ] GC(166) ParNew: 52492K->10K(59008K)
[2021-08-26T21:01:44.904-0300][gc,heap      ] GC(166) CMS: 46046K->46046K(65536K)
[2021-08-26T21:01:44.904-0300][gc,metaspace ] GC(166) Metaspace: 63117K->63117K(1107968K)
[2021-08-26T21:01:44.904-0300][gc           ] GC(166) Pause Young (Allocation Failure) 96M->44M(121M) 1.359ms
[2021-08-26T21:01:44.904-0300][gc,cpu       ] GC(166) User=0.00s Sys=0.00s Real=0.00s
[2021-08-26T21:01:46.887-0300][gc,start     ] GC(167) Pause Young (Allocation Failure)
[2021-08-26T21:01:46.888-0300][gc,task      ] GC(167) Using 4 workers of 4 for evacuation
[2021-08-26T21:01:46.889-0300][gc,heap      ] GC(167) ParNew: 52490K->16K(59008K)
[2021-08-26T21:01:46.889-0300][gc,heap      ] GC(167) CMS: 46046K->46046K(65536K)
[2021-08-26T21:01:46.889-0300][gc,metaspace ] GC(167) Metaspace: 63117K->63117K(1107968K)
[2021-08-26T21:01:46.889-0300][gc           ] GC(167) Pause Young (Allocation Failure) 96M->44M(121M) 1.360ms
[2021-08-26T21:01:46.889-0300][gc,cpu       ] GC(167) User=0.00s Sys=0.00s Real=0.00s
[2021-08-26T21:01:48.378-0300][gc,start     ] GC(168) Pause Young (Allocation Failure)
[2021-08-26T21:01:48.378-0300][gc,task      ] GC(168) Using 4 workers of 4 for evacuation
[2021-08-26T21:01:48.380-0300][gc,heap      ] GC(168) ParNew: 52496K->15K(59008K)
[2021-08-26T21:01:48.380-0300][gc,heap      ] GC(168) CMS: 46046K->46046K(65536K)
[2021-08-26T21:01:48.380-0300][gc,metaspace ] GC(168) Metaspace: 63117K->63117K(1107968K)
[2021-08-26T21:01:48.380-0300][gc           ] GC(168) Pause Young (Allocation Failure) 96M->44M(121M) 1.380ms
[2021-08-26T21:01:48.380-0300][gc,cpu       ] GC(168) User=0.00s Sys=0.00s Real=0.01s
[2021-08-26T21:01:49.995-0300][gc,start     ] GC(169) Pause Young (Allocation Failure)
[2021-08-26T21:01:49.995-0300][gc,task      ] GC(169) Using 4 workers of 4 for evacuation
[2021-08-26T21:01:49.996-0300][gc,heap      ] GC(169) ParNew: 52495K->22K(59008K)
[2021-08-26T21:01:49.996-0300][gc,heap      ] GC(169) CMS: 46046K->46046K(65536K)
[2021-08-26T21:01:49.996-0300][gc,metaspace ] GC(169) Metaspace: 63181K->63181K(1107968K)
[2021-08-26T21:01:49.996-0300][gc           ] GC(169) Pause Young (Allocation Failure) 96M->44M(121M) 1.562ms
[2021-08-26T21:01:49.996-0300][gc,cpu       ] GC(169) User=0.00s Sys=0.00s Real=0.00s
[2021-08-26T21:01:52.372-0300][gc,start     ] GC(170) Pause Young (Allocation Failure)
[2021-08-26T21:01:52.372-0300][gc,task      ] GC(170) Using 4 workers of 4 for evacuation
[2021-08-26T21:01:52.374-0300][gc,heap      ] GC(170) ParNew: 52502K->22K(59008K)
[2021-08-26T21:01:52.374-0300][gc,heap      ] GC(170) CMS: 46046K->46046K(65536K)
[2021-08-26T21:01:52.374-0300][gc,metaspace ] GC(170) Metaspace: 63184K->63184K(1107968K)
[2021-08-26T21:01:52.374-0300][gc           ] GC(170) Pause Young (Allocation Failure) 96M->44M(121M) 1.479ms
[2021-08-26T21:01:52.374-0300][gc,cpu       ] GC(170) User=0.00s Sys=0.00s Real=0.00s
[2021-08-26T21:01:54.569-0300][gc,start     ] GC(171) Pause Young (Allocation Failure)
[2021-08-26T21:01:54.569-0300][gc,task      ] GC(171) Using 4 workers of 4 for evacuation
[2021-08-26T21:01:54.571-0300][gc,heap      ] GC(171) ParNew: 52502K->25K(59008K)
[2021-08-26T21:01:54.571-0300][gc,heap      ] GC(171) CMS: 46046K->46046K(65536K)
[2021-08-26T21:01:54.571-0300][gc,metaspace ] GC(171) Metaspace: 63184K->63184K(1107968K)
[2021-08-26T21:01:54.571-0300][gc           ] GC(171) Pause Young (Allocation Failure) 96M->44M(121M) 1.319ms
[2021-08-26T21:01:54.571-0300][gc,cpu       ] GC(171) User=0.00s Sys=0.01s Real=0.01s
[2021-08-26T21:01:56.086-0300][gc,start     ] GC(172) Pause Young (Allocation Failure)
[2021-08-26T21:01:56.086-0300][gc,task      ] GC(172) Using 4 workers of 4 for evacuation
[2021-08-26T21:01:56.088-0300][gc,heap      ] GC(172) ParNew: 52505K->26K(59008K)
[2021-08-26T21:01:56.088-0300][gc,heap      ] GC(172) CMS: 46046K->46046K(65536K)
[2021-08-26T21:01:56.088-0300][gc,metaspace ] GC(172) Metaspace: 63184K->63184K(1107968K)
[2021-08-26T21:01:56.088-0300][gc           ] GC(172) Pause Young (Allocation Failure) 96M->44M(121M) 1.756ms
[2021-08-26T21:01:56.088-0300][gc,cpu       ] GC(172) User=0.01s Sys=0.00s Real=0.00s
[2021-08-26T21:01:57.756-0300][gc,start     ] GC(173) Pause Young (Allocation Failure)
[2021-08-26T21:01:57.756-0300][gc,task      ] GC(173) Using 4 workers of 4 for evacuation
[2021-08-26T21:01:57.758-0300][gc,heap      ] GC(173) ParNew: 52506K->26K(59008K)
[2021-08-26T21:01:57.758-0300][gc,heap      ] GC(173) CMS: 46046K->46047K(65536K)
[2021-08-26T21:01:57.758-0300][gc,metaspace ] GC(173) Metaspace: 63184K->63184K(1107968K)
[2021-08-26T21:01:57.758-0300][gc           ] GC(173) Pause Young (Allocation Failure) 96M->44M(121M) 1.825ms
[2021-08-26T21:01:57.758-0300][gc,cpu       ] GC(173) User=0.00s Sys=0.00s Real=0.00s
[2021-08-26T21:01:59.447-0300][gc,start     ] GC(174) Pause Young (Allocation Failure)
[2021-08-26T21:01:59.447-0300][gc,task      ] GC(174) Using 4 workers of 4 for evacuation
[2021-08-26T21:01:59.448-0300][gc,heap      ] GC(174) ParNew: 52506K->22K(59008K)
[2021-08-26T21:01:59.448-0300][gc,heap      ] GC(174) CMS: 46047K->46047K(65536K)
[2021-08-26T21:01:59.448-0300][gc,metaspace ] GC(174) Metaspace: 63184K->63184K(1107968K)
[2021-08-26T21:01:59.448-0300][gc           ] GC(174) Pause Young (Allocation Failure) 96M->44M(121M) 1.309ms
[2021-08-26T21:01:59.448-0300][gc,cpu       ] GC(174) User=0.01s Sys=0.00s Real=0.00s
[2021-08-26T21:02:00.983-0300][gc,start     ] GC(175) Pause Young (Allocation Failure)
[2021-08-26T21:02:00.983-0300][gc,task      ] GC(175) Using 4 workers of 4 for evacuation
[2021-08-26T21:02:00.984-0300][gc,heap      ] GC(175) ParNew: 52502K->17K(59008K)
[2021-08-26T21:02:00.984-0300][gc,heap      ] GC(175) CMS: 46047K->46054K(65536K)
[2021-08-26T21:02:00.984-0300][gc,metaspace ] GC(175) Metaspace: 63184K->63184K(1107968K)
[2021-08-26T21:02:00.985-0300][gc           ] GC(175) Pause Young (Allocation Failure) 96M->44M(121M) 1.300ms
[2021-08-26T21:02:00.985-0300][gc,cpu       ] GC(175) User=0.01s Sys=0.00s Real=0.00s
[2021-08-26T21:02:02.529-0300][gc,start     ] GC(176) Pause Young (Allocation Failure)
[2021-08-26T21:02:02.530-0300][gc,task      ] GC(176) Using 4 workers of 4 for evacuation
[2021-08-26T21:02:02.531-0300][gc,heap      ] GC(176) ParNew: 52497K->18K(59008K)
[2021-08-26T21:02:02.531-0300][gc,heap      ] GC(176) CMS: 46054K->46056K(65536K)
[2021-08-26T21:02:02.531-0300][gc,metaspace ] GC(176) Metaspace: 63184K->63184K(1107968K)
[2021-08-26T21:02:02.531-0300][gc           ] GC(176) Pause Young (Allocation Failure) 96M->44M(121M) 1.400ms
[2021-08-26T21:02:02.531-0300][gc,cpu       ] GC(176) User=0.00s Sys=0.00s Real=0.01s
[2021-08-26T21:02:04.128-0300][gc,start     ] GC(177) Pause Young (Allocation Failure)
[2021-08-26T21:02:04.128-0300][gc,task      ] GC(177) Using 4 workers of 4 for evacuation
[2021-08-26T21:02:04.129-0300][gc,heap      ] GC(177) ParNew: 52498K->14K(59008K)
[2021-08-26T21:02:04.129-0300][gc,heap      ] GC(177) CMS: 46056K->46056K(65536K)
[2021-08-26T21:02:04.129-0300][gc,metaspace ] GC(177) Metaspace: 63184K->63184K(1107968K)
[2021-08-26T21:02:04.129-0300][gc           ] GC(177) Pause Young (Allocation Failure) 96M->44M(121M) 1.759ms
[2021-08-26T21:02:04.130-0300][gc,cpu       ] GC(177) User=0.01s Sys=0.00s Real=0.01s
[2021-08-26T21:02:05.543-0300][gc,start     ] GC(178) Pause Young (Allocation Failure)
[2021-08-26T21:02:05.543-0300][gc,task      ] GC(178) Using 4 workers of 4 for evacuation
[2021-08-26T21:02:05.544-0300][gc,heap      ] GC(178) ParNew: 52494K->14K(59008K)
[2021-08-26T21:02:05.544-0300][gc,heap      ] GC(178) CMS: 46056K->46056K(65536K)
[2021-08-26T21:02:05.544-0300][gc,metaspace ] GC(178) Metaspace: 63184K->63184K(1107968K)
[2021-08-26T21:02:05.544-0300][gc           ] GC(178) Pause Young (Allocation Failure) 96M->44M(121M) 1.314ms
[2021-08-26T21:02:05.544-0300][gc,cpu       ] GC(178) User=0.01s Sys=0.00s Real=0.00s
[2021-08-26T21:02:06.864-0300][gc,start     ] GC(179) Pause Young (Allocation Failure)
[2021-08-26T21:02:06.864-0300][gc,task      ] GC(179) Using 4 workers of 4 for evacuation
[2021-08-26T21:02:06.865-0300][gc,heap      ] GC(179) ParNew: 52494K->14K(59008K)
[2021-08-26T21:02:06.865-0300][gc,heap      ] GC(179) CMS: 46056K->46056K(65536K)
[2021-08-26T21:02:06.865-0300][gc,metaspace ] GC(179) Metaspace: 63184K->63184K(1107968K)
[2021-08-26T21:02:06.865-0300][gc           ] GC(179) Pause Young (Allocation Failure) 96M->44M(121M) 1.780ms
[2021-08-26T21:02:06.866-0300][gc,cpu       ] GC(179) User=0.00s Sys=0.00s Real=0.00s
[2021-08-26T21:02:08.768-0300][gc,start     ] GC(180) Pause Young (Allocation Failure)
[2021-08-26T21:02:08.768-0300][gc,task      ] GC(180) Using 4 workers of 4 for evacuation
[2021-08-26T21:02:08.770-0300][gc,heap      ] GC(180) ParNew: 52494K->12K(59008K)
[2021-08-26T21:02:08.770-0300][gc,heap      ] GC(180) CMS: 46056K->46057K(65536K)
[2021-08-26T21:02:08.770-0300][gc,metaspace ] GC(180) Metaspace: 63184K->63184K(1107968K)
[2021-08-26T21:02:08.770-0300][gc           ] GC(180) Pause Young (Allocation Failure) 96M->44M(121M) 1.391ms
[2021-08-26T21:02:08.770-0300][gc,cpu       ] GC(180) User=0.00s Sys=0.00s Real=0.01s
[2021-08-26T21:02:11.977-0300][gc,start     ] GC(181) Pause Young (Allocation Failure)
[2021-08-26T21:02:11.977-0300][gc,task      ] GC(181) Using 4 workers of 4 for evacuation
[2021-08-26T21:02:11.979-0300][gc,heap      ] GC(181) ParNew: 52492K->13K(59008K)
[2021-08-26T21:02:11.979-0300][gc,heap      ] GC(181) CMS: 46057K->46057K(65536K)
[2021-08-26T21:02:11.979-0300][gc,metaspace ] GC(181) Metaspace: 63184K->63184K(1107968K)
[2021-08-26T21:02:11.979-0300][gc           ] GC(181) Pause Young (Allocation Failure) 96M->44M(121M) 1.798ms
[2021-08-26T21:02:11.979-0300][gc,cpu       ] GC(181) User=0.00s Sys=0.00s Real=0.00s
[2021-08-26T21:02:14.060-0300][gc,start     ] GC(182) Pause Young (Allocation Failure)
[2021-08-26T21:02:14.060-0300][gc,task      ] GC(182) Using 4 workers of 4 for evacuation
[2021-08-26T21:02:14.062-0300][gc,heap      ] GC(182) ParNew: 52493K->12K(59008K)
[2021-08-26T21:02:14.062-0300][gc,heap      ] GC(182) CMS: 46057K->46057K(65536K)
[2021-08-26T21:02:14.062-0300][gc,metaspace ] GC(182) Metaspace: 63184K->63184K(1107968K)
[2021-08-26T21:02:14.062-0300][gc           ] GC(182) Pause Young (Allocation Failure) 96M->44M(121M) 1.801ms
[2021-08-26T21:02:14.062-0300][gc,cpu       ] GC(182) User=0.00s Sys=0.00s Real=0.00s
[2021-08-26T21:02:16.080-0300][gc,start     ] GC(183) Pause Young (Allocation Failure)
[2021-08-26T21:02:16.080-0300][gc,task      ] GC(183) Using 4 workers of 4 for evacuation
[2021-08-26T21:02:16.081-0300][gc,heap      ] GC(183) ParNew: 52492K->15K(59008K)
[2021-08-26T21:02:16.082-0300][gc,heap      ] GC(183) CMS: 46057K->46057K(65536K)
[2021-08-26T21:02:16.082-0300][gc,metaspace ] GC(183) Metaspace: 63184K->63184K(1107968K)
[2021-08-26T21:02:16.082-0300][gc           ] GC(183) Pause Young (Allocation Failure) 96M->44M(121M) 1.412ms
[2021-08-26T21:02:16.082-0300][gc,cpu       ] GC(183) User=0.00s Sys=0.00s Real=0.00s
[2021-08-26T21:02:18.002-0300][gc,start     ] GC(184) Pause Young (Allocation Failure)
[2021-08-26T21:02:18.002-0300][gc,task      ] GC(184) Using 4 workers of 4 for evacuation
[2021-08-26T21:02:18.003-0300][gc,heap      ] GC(184) ParNew: 52495K->12K(59008K)
[2021-08-26T21:02:18.003-0300][gc,heap      ] GC(184) CMS: 46057K->46057K(65536K)
[2021-08-26T21:02:18.003-0300][gc,metaspace ] GC(184) Metaspace: 63184K->63184K(1107968K)
[2021-08-26T21:02:18.003-0300][gc           ] GC(184) Pause Young (Allocation Failure) 96M->44M(121M) 1.429ms
[2021-08-26T21:02:18.003-0300][gc,cpu       ] GC(184) User=0.00s Sys=0.00s Real=0.00s
[2021-08-26T21:02:20.128-0300][gc,start     ] GC(185) Pause Young (Allocation Failure)
[2021-08-26T21:02:20.128-0300][gc,task      ] GC(185) Using 4 workers of 4 for evacuation
[2021-08-26T21:02:20.129-0300][gc,heap      ] GC(185) ParNew: 52492K->14K(59008K)
[2021-08-26T21:02:20.129-0300][gc,heap      ] GC(185) CMS: 46057K->46057K(65536K)
[2021-08-26T21:02:20.129-0300][gc,metaspace ] GC(185) Metaspace: 63184K->63184K(1107968K)
[2021-08-26T21:02:20.129-0300][gc           ] GC(185) Pause Young (Allocation Failure) 96M->44M(121M) 1.250ms
[2021-08-26T21:02:20.129-0300][gc,cpu       ] GC(185) User=0.01s Sys=0.00s Real=0.00s
[2021-08-26T21:02:22.128-0300][gc,start     ] GC(186) Pause Young (Allocation Failure)
[2021-08-26T21:02:22.128-0300][gc,task      ] GC(186) Using 4 workers of 4 for evacuation
[2021-08-26T21:02:22.130-0300][gc,heap      ] GC(186) ParNew: 52494K->16K(59008K)
[2021-08-26T21:02:22.130-0300][gc,heap      ] GC(186) CMS: 46057K->46057K(65536K)
[2021-08-26T21:02:22.130-0300][gc,metaspace ] GC(186) Metaspace: 63184K->63184K(1107968K)
[2021-08-26T21:02:22.130-0300][gc           ] GC(186) Pause Young (Allocation Failure) 96M->44M(121M) 1.481ms
[2021-08-26T21:02:22.130-0300][gc,cpu       ] GC(186) User=0.01s Sys=0.00s Real=0.01s
[2021-08-26T21:02:24.372-0300][gc,start     ] GC(187) Pause Young (Allocation Failure)
[2021-08-26T21:02:24.372-0300][gc,task      ] GC(187) Using 4 workers of 4 for evacuation
[2021-08-26T21:02:24.374-0300][gc,heap      ] GC(187) ParNew: 52496K->14K(59008K)
[2021-08-26T21:02:24.374-0300][gc,heap      ] GC(187) CMS: 46057K->46057K(65536K)
[2021-08-26T21:02:24.374-0300][gc,metaspace ] GC(187) Metaspace: 63184K->63184K(1107968K)
[2021-08-26T21:02:24.374-0300][gc           ] GC(187) Pause Young (Allocation Failure) 96M->44M(121M) 1.352ms
[2021-08-26T21:02:24.374-0300][gc,cpu       ] GC(187) User=0.00s Sys=0.00s Real=0.00s
[2021-08-26T21:02:27.988-0300][gc,start     ] GC(188) Pause Young (Allocation Failure)
[2021-08-26T21:02:27.988-0300][gc,task      ] GC(188) Using 4 workers of 4 for evacuation
[2021-08-26T21:02:27.989-0300][gc,heap      ] GC(188) ParNew: 52494K->14K(59008K)
[2021-08-26T21:02:27.989-0300][gc,heap      ] GC(188) CMS: 46057K->46058K(65536K)
[2021-08-26T21:02:27.989-0300][gc,metaspace ] GC(188) Metaspace: 63184K->63184K(1107968K)
[2021-08-26T21:02:27.989-0300][gc           ] GC(188) Pause Young (Allocation Failure) 96M->44M(121M) 1.662ms
[2021-08-26T21:02:27.990-0300][gc,cpu       ] GC(188) User=0.00s Sys=0.00s Real=0.01s
[2021-08-26T21:02:31.205-0300][gc,start     ] GC(189) Pause Young (Allocation Failure)
[2021-08-26T21:02:31.205-0300][gc,task      ] GC(189) Using 4 workers of 4 for evacuation
[2021-08-26T21:02:31.207-0300][gc,heap      ] GC(189) ParNew: 52494K->13K(59008K)
[2021-08-26T21:02:31.207-0300][gc,heap      ] GC(189) CMS: 46058K->46058K(65536K)
[2021-08-26T21:02:31.207-0300][gc,metaspace ] GC(189) Metaspace: 63184K->63184K(1107968K)
[2021-08-26T21:02:31.207-0300][gc           ] GC(189) Pause Young (Allocation Failure) 96M->44M(121M) 1.298ms
[2021-08-26T21:02:31.207-0300][gc,cpu       ] GC(189) User=0.00s Sys=0.00s Real=0.00s
[2021-08-26T21:02:33.859-0300][gc,start     ] GC(190) Pause Young (Allocation Failure)
[2021-08-26T21:02:33.859-0300][gc,task      ] GC(190) Using 4 workers of 4 for evacuation
[2021-08-26T21:02:33.860-0300][gc,heap      ] GC(190) ParNew: 52493K->13K(59008K)
[2021-08-26T21:02:33.860-0300][gc,heap      ] GC(190) CMS: 46058K->46059K(65536K)
[2021-08-26T21:02:33.860-0300][gc,metaspace ] GC(190) Metaspace: 63184K->63184K(1107968K)
[2021-08-26T21:02:33.860-0300][gc           ] GC(190) Pause Young (Allocation Failure) 96M->44M(121M) 1.465ms
[2021-08-26T21:02:33.860-0300][gc,cpu       ] GC(190) User=0.00s Sys=0.00s Real=0.01s
[2021-08-26T21:02:37.773-0300][gc,start     ] GC(191) Pause Young (Allocation Failure)
[2021-08-26T21:02:37.773-0300][gc,task      ] GC(191) Using 4 workers of 4 for evacuation
[2021-08-26T21:02:37.774-0300][gc,heap      ] GC(191) ParNew: 52493K->10K(59008K)
[2021-08-26T21:02:37.774-0300][gc,heap      ] GC(191) CMS: 46059K->46059K(65536K)
[2021-08-26T21:02:37.774-0300][gc,metaspace ] GC(191) Metaspace: 63184K->63184K(1107968K)
[2021-08-26T21:02:37.774-0300][gc           ] GC(191) Pause Young (Allocation Failure) 96M->44M(121M) 1.496ms
[2021-08-26T21:02:37.774-0300][gc,cpu       ] GC(191) User=0.00s Sys=0.01s Real=0.00s
[2021-08-26T21:02:41.018-0300][gc,start     ] GC(192) Pause Young (Allocation Failure)
[2021-08-26T21:02:41.018-0300][gc,task      ] GC(192) Using 4 workers of 4 for evacuation
[2021-08-26T21:02:41.019-0300][gc,heap      ] GC(192) ParNew: 52490K->14K(59008K)
[2021-08-26T21:02:41.019-0300][gc,heap      ] GC(192) CMS: 46059K->46059K(65536K)
[2021-08-26T21:02:41.019-0300][gc,metaspace ] GC(192) Metaspace: 63184K->63184K(1107968K)
[2021-08-26T21:02:41.019-0300][gc           ] GC(192) Pause Young (Allocation Failure) 96M->44M(121M) 1.292ms
[2021-08-26T21:02:41.019-0300][gc,cpu       ] GC(192) User=0.00s Sys=0.00s Real=0.00s
[2021-08-26T21:02:45.081-0300][gc,start     ] GC(193) Pause Young (Allocation Failure)
[2021-08-26T21:02:45.082-0300][gc,task      ] GC(193) Using 4 workers of 4 for evacuation
[2021-08-26T21:02:45.083-0300][gc,heap      ] GC(193) ParNew: 52494K->13K(59008K)
[2021-08-26T21:02:45.083-0300][gc,heap      ] GC(193) CMS: 46059K->46059K(65536K)
[2021-08-26T21:02:45.083-0300][gc,metaspace ] GC(193) Metaspace: 63184K->63184K(1107968K)
[2021-08-26T21:02:45.083-0300][gc           ] GC(193) Pause Young (Allocation Failure) 96M->44M(121M) 1.988ms
[2021-08-26T21:02:45.084-0300][gc,cpu       ] GC(193) User=0.00s Sys=0.00s Real=0.00s
[2021-08-26T21:02:47.208-0300][gc,start     ] GC(194) Pause Young (Allocation Failure)
[2021-08-26T21:02:47.208-0300][gc,task      ] GC(194) Using 4 workers of 4 for evacuation
[2021-08-26T21:02:47.209-0300][gc,heap      ] GC(194) ParNew: 52493K->15K(59008K)
[2021-08-26T21:02:47.209-0300][gc,heap      ] GC(194) CMS: 46059K->46059K(65536K)
[2021-08-26T21:02:47.209-0300][gc,metaspace ] GC(194) Metaspace: 63185K->63185K(1107968K)
[2021-08-26T21:02:47.210-0300][gc           ] GC(194) Pause Young (Allocation Failure) 96M->44M(121M) 1.220ms
[2021-08-26T21:02:47.210-0300][gc,cpu       ] GC(194) User=0.00s Sys=0.00s Real=0.01s
[2021-08-26T21:02:48.730-0300][gc,start     ] GC(195) Pause Young (Allocation Failure)
[2021-08-26T21:02:48.730-0300][gc,task      ] GC(195) Using 4 workers of 4 for evacuation
[2021-08-26T21:02:48.731-0300][gc,heap      ] GC(195) ParNew: 52495K->14K(59008K)
[2021-08-26T21:02:48.731-0300][gc,heap      ] GC(195) CMS: 46059K->46059K(65536K)
[2021-08-26T21:02:48.731-0300][gc,metaspace ] GC(195) Metaspace: 63185K->63185K(1107968K)
[2021-08-26T21:02:48.731-0300][gc           ] GC(195) Pause Young (Allocation Failure) 96M->44M(121M) 1.305ms
[2021-08-26T21:02:48.731-0300][gc,cpu       ] GC(195) User=0.00s Sys=0.00s Real=0.00s
[2021-08-26T21:02:50.491-0300][gc,start     ] GC(196) Pause Young (Allocation Failure)
[2021-08-26T21:02:50.491-0300][gc,task      ] GC(196) Using 4 workers of 4 for evacuation
[2021-08-26T21:02:50.492-0300][gc,heap      ] GC(196) ParNew: 52494K->14K(59008K)
[2021-08-26T21:02:50.492-0300][gc,heap      ] GC(196) CMS: 46059K->46059K(65536K)
[2021-08-26T21:02:50.492-0300][gc,metaspace ] GC(196) Metaspace: 63185K->63185K(1107968K)
[2021-08-26T21:02:50.492-0300][gc           ] GC(196) Pause Young (Allocation Failure) 96M->44M(121M) 1.372ms
[2021-08-26T21:02:50.492-0300][gc,cpu       ] GC(196) User=0.00s Sys=0.00s Real=0.00s
[2021-08-26T21:02:52.284-0300][gc,start     ] GC(197) Pause Young (Allocation Failure)
[2021-08-26T21:02:52.284-0300][gc,task      ] GC(197) Using 4 workers of 4 for evacuation
[2021-08-26T21:02:52.285-0300][gc,heap      ] GC(197) ParNew: 52494K->13K(59008K)
[2021-08-26T21:02:52.285-0300][gc,heap      ] GC(197) CMS: 46059K->46059K(65536K)
[2021-08-26T21:02:52.285-0300][gc,metaspace ] GC(197) Metaspace: 63185K->63185K(1107968K)
[2021-08-26T21:02:52.285-0300][gc           ] GC(197) Pause Young (Allocation Failure) 96M->44M(121M) 1.373ms
[2021-08-26T21:02:52.285-0300][gc,cpu       ] GC(197) User=0.00s Sys=0.00s Real=0.00s
[2021-08-26T21:02:54.602-0300][gc,start     ] GC(198) Pause Young (Allocation Failure)
[2021-08-26T21:02:54.602-0300][gc,task      ] GC(198) Using 4 workers of 4 for evacuation
[2021-08-26T21:02:54.604-0300][gc,heap      ] GC(198) ParNew: 52493K->12K(59008K)
[2021-08-26T21:02:54.604-0300][gc,heap      ] GC(198) CMS: 46059K->46059K(65536K)
[2021-08-26T21:02:54.604-0300][gc,metaspace ] GC(198) Metaspace: 63185K->63185K(1107968K)
[2021-08-26T21:02:54.604-0300][gc           ] GC(198) Pause Young (Allocation Failure) 96M->44M(121M) 1.657ms
[2021-08-26T21:02:54.604-0300][gc,cpu       ] GC(198) User=0.00s Sys=0.00s Real=0.00s
[2021-08-26T21:02:57.858-0300][gc,start     ] GC(199) Pause Young (Allocation Failure)
[2021-08-26T21:02:57.858-0300][gc,task      ] GC(199) Using 4 workers of 4 for evacuation
[2021-08-26T21:02:57.860-0300][gc,heap      ] GC(199) ParNew: 52492K->16K(59008K)
[2021-08-26T21:02:57.860-0300][gc,heap      ] GC(199) CMS: 46059K->46059K(65536K)
[2021-08-26T21:02:57.860-0300][gc,metaspace ] GC(199) Metaspace: 63185K->63185K(1107968K)
[2021-08-26T21:02:57.860-0300][gc           ] GC(199) Pause Young (Allocation Failure) 96M->44M(121M) 1.497ms
[2021-08-26T21:02:57.860-0300][gc,cpu       ] GC(199) User=0.00s Sys=0.00s Real=0.01s
[2021-08-26T21:03:00.883-0300][gc,start     ] GC(200) Pause Young (Allocation Failure)
[2021-08-26T21:03:00.883-0300][gc,task      ] GC(200) Using 4 workers of 4 for evacuation
[2021-08-26T21:03:00.884-0300][gc,heap      ] GC(200) ParNew: 52496K->15K(59008K)
[2021-08-26T21:03:00.884-0300][gc,heap      ] GC(200) CMS: 46059K->46060K(65536K)
[2021-08-26T21:03:00.884-0300][gc,metaspace ] GC(200) Metaspace: 63185K->63185K(1107968K)
[2021-08-26T21:03:00.884-0300][gc           ] GC(200) Pause Young (Allocation Failure) 96M->44M(121M) 1.296ms
[2021-08-26T21:03:00.884-0300][gc,cpu       ] GC(200) User=0.00s Sys=0.00s Real=0.00s
[2021-08-26T21:03:02.710-0300][gc,start     ] GC(201) Pause Young (Allocation Failure)
[2021-08-26T21:03:02.710-0300][gc,task      ] GC(201) Using 4 workers of 4 for evacuation
[2021-08-26T21:03:02.711-0300][gc,heap      ] GC(201) ParNew: 52495K->12K(59008K)
[2021-08-26T21:03:02.711-0300][gc,heap      ] GC(201) CMS: 46060K->46060K(65536K)
[2021-08-26T21:03:02.711-0300][gc,metaspace ] GC(201) Metaspace: 63185K->63185K(1107968K)
[2021-08-26T21:03:02.711-0300][gc           ] GC(201) Pause Young (Allocation Failure) 96M->44M(121M) 1.208ms
[2021-08-26T21:03:02.711-0300][gc,cpu       ] GC(201) User=0.00s Sys=0.00s Real=0.00s
[2021-08-26T21:03:03.997-0300][gc,start     ] GC(202) Pause Young (Allocation Failure)
[2021-08-26T21:03:03.997-0300][gc,task      ] GC(202) Using 4 workers of 4 for evacuation
[2021-08-26T21:03:03.998-0300][gc,heap      ] GC(202) ParNew: 52492K->14K(59008K)
[2021-08-26T21:03:03.998-0300][gc,heap      ] GC(202) CMS: 46060K->46060K(65536K)
[2021-08-26T21:03:03.998-0300][gc,metaspace ] GC(202) Metaspace: 63185K->63185K(1107968K)
[2021-08-26T21:03:03.998-0300][gc           ] GC(202) Pause Young (Allocation Failure) 96M->44M(121M) 1.212ms
[2021-08-26T21:03:03.998-0300][gc,cpu       ] GC(202) User=0.00s Sys=0.00s Real=0.00s
[2021-08-26T21:03:06.390-0300][gc,start     ] GC(203) Pause Young (Allocation Failure)
[2021-08-26T21:03:06.390-0300][gc,task      ] GC(203) Using 4 workers of 4 for evacuation
[2021-08-26T21:03:06.391-0300][gc,heap      ] GC(203) ParNew: 52494K->13K(59008K)
[2021-08-26T21:03:06.392-0300][gc,heap      ] GC(203) CMS: 46060K->46060K(65536K)
[2021-08-26T21:03:06.392-0300][gc,metaspace ] GC(203) Metaspace: 63185K->63185K(1107968K)
[2021-08-26T21:03:06.392-0300][gc           ] GC(203) Pause Young (Allocation Failure) 96M->44M(121M) 1.463ms
[2021-08-26T21:03:06.392-0300][gc,cpu       ] GC(203) User=0.00s Sys=0.00s Real=0.00s
[2021-08-26T21:03:08.661-0300][gc,start     ] GC(204) Pause Young (Allocation Failure)
[2021-08-26T21:03:08.662-0300][gc,task      ] GC(204) Using 4 workers of 4 for evacuation
[2021-08-26T21:03:08.663-0300][gc,heap      ] GC(204) ParNew: 52493K->13K(59008K)
[2021-08-26T21:03:08.663-0300][gc,heap      ] GC(204) CMS: 46060K->46060K(65536K)
[2021-08-26T21:03:08.663-0300][gc,metaspace ] GC(204) Metaspace: 63185K->63185K(1107968K)
[2021-08-26T21:03:08.663-0300][gc           ] GC(204) Pause Young (Allocation Failure) 96M->44M(121M) 1.310ms
[2021-08-26T21:03:08.663-0300][gc,cpu       ] GC(204) User=0.00s Sys=0.00s Real=0.00s
[2021-08-26T21:03:10.716-0300][gc,start     ] GC(205) Pause Young (Allocation Failure)
[2021-08-26T21:03:10.716-0300][gc,task      ] GC(205) Using 4 workers of 4 for evacuation
[2021-08-26T21:03:10.717-0300][gc,heap      ] GC(205) ParNew: 52493K->15K(59008K)
[2021-08-26T21:03:10.717-0300][gc,heap      ] GC(205) CMS: 46060K->46060K(65536K)
[2021-08-26T21:03:10.717-0300][gc,metaspace ] GC(205) Metaspace: 63185K->63185K(1107968K)
[2021-08-26T21:03:10.717-0300][gc           ] GC(205) Pause Young (Allocation Failure) 96M->44M(121M) 1.227ms
[2021-08-26T21:03:10.717-0300][gc,cpu       ] GC(205) User=0.00s Sys=0.00s Real=0.00s
