[2021-08-24T21:06:50.364-0300][gc] Using Concurrent Mark Sweep
[2021-08-24T21:06:50.364-0300][gc,heap,coops] Heap address: 0x0000000740000000, size: 3072 MB, Compressed Oops mode: Zero based, Oop shift amount: 3
[2021-08-24T21:06:51.362-0300][gc,start     ] GC(0) Pause Young (Allocation Failure)
[2021-08-24T21:06:51.363-0300][gc,task      ] GC(0) Using 2 workers of 4 for evacuation
[2021-08-24T21:06:51.406-0300][gc,heap      ] GC(0) ParNew: 52480K->6527K(59008K)
[2021-08-24T21:06:51.406-0300][gc,heap      ] GC(0) CMS: 0K->10464K(65536K)
[2021-08-24T21:06:51.406-0300][gc,metaspace ] GC(0) Metaspace: 6162K->6162K(1056768K)
[2021-08-24T21:06:51.406-0300][gc           ] GC(0) Pause Young (Allocation Failure) 51M->16M(121M) 43.596ms
[2021-08-24T21:06:51.406-0300][gc,cpu       ] GC(0) User=0.07s Sys=0.01s Real=0.04s
[2021-08-24T21:06:51.904-0300][gc,start     ] GC(1) Pause Young (Allocation Failure)
[2021-08-24T21:06:51.904-0300][gc,task      ] GC(1) Using 2 workers of 4 for evacuation
[2021-08-24T21:06:51.913-0300][gc,heap      ] GC(1) ParNew: 59007K->2099K(59008K)
[2021-08-24T21:06:51.913-0300][gc,heap      ] GC(1) CMS: 10464K->16977K(65536K)
[2021-08-24T21:06:51.913-0300][gc,metaspace ] GC(1) Metaspace: 13275K->13275K(1060864K)
[2021-08-24T21:06:51.913-0300][gc           ] GC(1) Pause Young (Allocation Failure) 67M->18M(121M) 9.545ms
[2021-08-24T21:06:51.913-0300][gc,cpu       ] GC(1) User=0.02s Sys=0.01s Real=0.01s
[2021-08-24T21:06:52.461-0300][gc,start     ] GC(2) Pause Young (Allocation Failure)
[2021-08-24T21:06:52.461-0300][gc,task      ] GC(2) Using 4 workers of 4 for evacuation
[2021-08-24T21:06:52.466-0300][gc,heap      ] GC(2) ParNew: 54579K->4851K(59008K)
[2021-08-24T21:06:52.466-0300][gc,heap      ] GC(2) CMS: 16977K->16977K(65536K)
[2021-08-24T21:06:52.466-0300][gc,metaspace ] GC(2) Metaspace: 22343K->22343K(1069056K)
[2021-08-24T21:06:52.466-0300][gc           ] GC(2) Pause Young (Allocation Failure) 69M->21M(121M) 5.526ms
[2021-08-24T21:06:52.467-0300][gc,cpu       ] GC(2) User=0.01s Sys=0.00s Real=0.00s
[2021-08-24T21:06:52.467-0300][gc,start     ] GC(3) Pause Initial Mark
[2021-08-24T21:06:52.469-0300][gc           ] GC(3) Pause Initial Mark 21M->21M(121M) 1.939ms
[2021-08-24T21:06:52.469-0300][gc,cpu       ] GC(3) User=0.01s Sys=0.00s Real=0.00s
[2021-08-24T21:06:52.470-0300][gc           ] GC(3) Concurrent Mark
[2021-08-24T21:06:52.503-0300][gc           ] GC(3) Concurrent Mark 32.719ms
[2021-08-24T21:06:52.503-0300][gc,cpu       ] GC(3) User=0.06s Sys=0.01s Real=0.03s
[2021-08-24T21:06:52.503-0300][gc           ] GC(3) Concurrent Preclean
[2021-08-24T21:06:52.504-0300][gc           ] GC(3) Concurrent Preclean 0.702ms
[2021-08-24T21:06:52.504-0300][gc,cpu       ] GC(3) User=0.00s Sys=0.00s Real=0.00s
[2021-08-24T21:06:52.504-0300][gc           ] GC(3) Concurrent Abortable Preclean
[2021-08-24T21:06:52.712-0300][gc           ] GC(3) Concurrent Abortable Preclean 208.499ms
[2021-08-24T21:06:52.712-0300][gc,cpu       ] GC(3) User=0.44s Sys=0.01s Real=0.21s
[2021-08-24T21:06:52.713-0300][gc,start     ] GC(3) Pause Remark
[2021-08-24T21:06:52.713-0300][gc,start     ] GC(4) Pause Young (CMS Final Remark)
[2021-08-24T21:06:52.713-0300][gc,task      ] GC(4) Using 4 workers of 4 for evacuation
[2021-08-24T21:06:52.720-0300][gc,heap      ] GC(4) ParNew: 33159K->4227K(59008K)
[2021-08-24T21:06:52.720-0300][gc,heap      ] GC(4) CMS: 16977K->18750K(65536K)
[2021-08-24T21:06:52.720-0300][gc,metaspace ] GC(4) Metaspace: 26660K->26660K(1073152K)
[2021-08-24T21:06:52.720-0300][gc           ] GC(4) Pause Young (CMS Final Remark) 48M->22M(121M) 7.535ms
[2021-08-24T21:06:52.720-0300][gc,cpu       ] GC(4) User=0.02s Sys=0.01s Real=0.01s
[2021-08-24T21:06:52.725-0300][gc           ] GC(3) Pause Remark 48M->22M(121M) 12.381ms
[2021-08-24T21:06:52.725-0300][gc,cpu       ] GC(3) User=0.03s Sys=0.01s Real=0.01s
[2021-08-24T21:06:52.725-0300][gc           ] GC(3) Concurrent Sweep
[2021-08-24T21:06:52.728-0300][gc           ] GC(3) Concurrent Sweep 3.338ms
[2021-08-24T21:06:52.728-0300][gc,cpu       ] GC(3) User=0.01s Sys=0.00s Real=0.00s
[2021-08-24T21:06:52.728-0300][gc           ] GC(3) Concurrent Reset
[2021-08-24T21:06:52.731-0300][gc           ] GC(3) Concurrent Reset 2.619ms
[2021-08-24T21:06:52.731-0300][gc,cpu       ] GC(3) User=0.00s Sys=0.00s Real=0.01s
[2021-08-24T21:06:52.731-0300][gc,heap      ] GC(3) Old: 16977K->18693K(65536K)
[2021-08-24T21:06:53.119-0300][gc,start     ] GC(5) Pause Young (Allocation Failure)
[2021-08-24T21:06:53.119-0300][gc,task      ] GC(5) Using 4 workers of 4 for evacuation
[2021-08-24T21:06:53.124-0300][gc,heap      ] GC(5) ParNew: 56707K->6098K(59008K)
[2021-08-24T21:06:53.124-0300][gc,heap      ] GC(5) CMS: 18693K->18693K(65536K)
[2021-08-24T21:06:53.124-0300][gc,metaspace ] GC(5) Metaspace: 30149K->30149K(1077248K)
[2021-08-24T21:06:53.124-0300][gc           ] GC(5) Pause Young (Allocation Failure) 73M->24M(121M) 5.376ms
[2021-08-24T21:06:53.124-0300][gc,cpu       ] GC(5) User=0.02s Sys=0.01s Real=0.01s
[2021-08-24T21:06:53.503-0300][gc,start     ] GC(6) Pause Young (Allocation Failure)
[2021-08-24T21:06:53.503-0300][gc,task      ] GC(6) Using 4 workers of 4 for evacuation
[2021-08-24T21:06:53.515-0300][gc,heap      ] GC(6) ParNew: 58578K->5304K(59008K)
[2021-08-24T21:06:53.515-0300][gc,heap      ] GC(6) CMS: 18693K->21039K(65536K)
[2021-08-24T21:06:53.515-0300][gc,metaspace ] GC(6) Metaspace: 32520K->32520K(1079296K)
[2021-08-24T21:06:53.516-0300][gc           ] GC(6) Pause Young (Allocation Failure) 75M->25M(121M) 12.537ms
[2021-08-24T21:06:53.516-0300][gc,cpu       ] GC(6) User=0.03s Sys=0.00s Real=0.01s
[2021-08-24T21:06:54.959-0300][gc,start     ] GC(7) Pause Young (Allocation Failure)
[2021-08-24T21:06:54.959-0300][gc,task      ] GC(7) Using 4 workers of 4 for evacuation
[2021-08-24T21:06:54.970-0300][gc,heap      ] GC(7) ParNew: 57784K->6408K(59008K)
[2021-08-24T21:06:54.970-0300][gc,heap      ] GC(7) CMS: 21039K->21611K(65536K)
[2021-08-24T21:06:54.970-0300][gc,metaspace ] GC(7) Metaspace: 38852K->38852K(1085440K)
[2021-08-24T21:06:54.970-0300][gc           ] GC(7) Pause Young (Allocation Failure) 76M->27M(121M) 10.615ms
[2021-08-24T21:06:54.970-0300][gc,cpu       ] GC(7) User=0.03s Sys=0.00s Real=0.02s
[2021-08-24T21:06:55.694-0300][gc,start     ] GC(8) Pause Young (Allocation Failure)
[2021-08-24T21:06:55.694-0300][gc,task      ] GC(8) Using 4 workers of 4 for evacuation
[2021-08-24T21:06:55.704-0300][gc,heap      ] GC(8) ParNew: 58888K->5395K(59008K)
[2021-08-24T21:06:55.704-0300][gc,heap      ] GC(8) CMS: 21611K->23902K(65536K)
[2021-08-24T21:06:55.704-0300][gc,metaspace ] GC(8) Metaspace: 43699K->43699K(1089536K)
[2021-08-24T21:06:55.704-0300][gc           ] GC(8) Pause Young (Allocation Failure) 78M->28M(121M) 10.688ms
[2021-08-24T21:06:55.704-0300][gc,cpu       ] GC(8) User=0.03s Sys=0.00s Real=0.01s
[2021-08-24T21:06:57.704-0300][gc,start     ] GC(9) Pause Initial Mark
[2021-08-24T21:06:57.711-0300][gc           ] GC(9) Pause Initial Mark 61M->61M(121M) 6.975ms
[2021-08-24T21:06:57.711-0300][gc,cpu       ] GC(9) User=0.02s Sys=0.00s Real=0.01s
[2021-08-24T21:06:57.711-0300][gc           ] GC(9) Concurrent Mark
[2021-08-24T21:06:57.740-0300][gc           ] GC(9) Concurrent Mark 29.480ms
[2021-08-24T21:06:57.741-0300][gc,cpu       ] GC(9) User=0.09s Sys=0.00s Real=0.03s
[2021-08-24T21:06:57.741-0300][gc           ] GC(9) Concurrent Preclean
[2021-08-24T21:06:57.742-0300][gc           ] GC(9) Concurrent Preclean 1.368ms
[2021-08-24T21:06:57.742-0300][gc,cpu       ] GC(9) User=0.01s Sys=0.00s Real=0.00s
[2021-08-24T21:06:57.742-0300][gc           ] GC(9) Concurrent Abortable Preclean
[2021-08-24T21:07:02.860-0300][gc           ] GC(9) Concurrent Abortable Preclean 5118.284ms
[2021-08-24T21:07:02.861-0300][gc,cpu       ] GC(9) User=1.52s Sys=0.04s Real=5.12s
[2021-08-24T21:07:02.861-0300][gc,start     ] GC(9) Pause Remark
[2021-08-24T21:07:02.861-0300][gc,start     ] GC(10) Pause Young (CMS Final Remark)
[2021-08-24T21:07:02.861-0300][gc,task      ] GC(10) Using 4 workers of 4 for evacuation
[2021-08-24T21:07:02.869-0300][gc,heap      ] GC(10) ParNew: 43327K->4970K(59008K)
[2021-08-24T21:07:02.870-0300][gc,heap      ] GC(10) CMS: 23902K->26174K(65536K)
[2021-08-24T21:07:02.870-0300][gc,metaspace ] GC(10) Metaspace: 47667K->47667K(1091584K)
[2021-08-24T21:07:02.870-0300][gc           ] GC(10) Pause Young (CMS Final Remark) 65M->30M(121M) 8.816ms
[2021-08-24T21:07:02.870-0300][gc,cpu       ] GC(10) User=0.02s Sys=0.00s Real=0.01s
[2021-08-24T21:07:02.878-0300][gc           ] GC(9) Pause Remark 65M->30M(121M) 17.306ms
[2021-08-24T21:07:02.878-0300][gc,cpu       ] GC(9) User=0.04s Sys=0.00s Real=0.01s
[2021-08-24T21:07:02.878-0300][gc           ] GC(9) Concurrent Sweep
[2021-08-24T21:07:02.884-0300][gc           ] GC(9) Concurrent Sweep 5.933ms
[2021-08-24T21:07:02.884-0300][gc,cpu       ] GC(9) User=0.01s Sys=0.00s Real=0.01s
[2021-08-24T21:07:02.884-0300][gc           ] GC(9) Concurrent Reset
[2021-08-24T21:07:02.885-0300][gc           ] GC(9) Concurrent Reset 0.971ms
[2021-08-24T21:07:02.885-0300][gc,cpu       ] GC(9) User=0.00s Sys=0.00s Real=0.00s
[2021-08-24T21:07:02.885-0300][gc,heap      ] GC(9) Old: 23902K->26022K(65536K)
[2021-08-24T21:07:38.051-0300][gc,heap,exit ] Heap
[2021-08-24T21:07:38.051-0300][gc,heap,exit ]  par new generation   total 59008K, used 22230K [0x0000000740000000, 0x0000000744000000, 0x00000007a0000000)
[2021-08-24T21:07:38.051-0300][gc,heap,exit ]   eden space 52480K,  32% used [0x0000000740000000, 0x00000007410db088, 0x0000000743340000)
[2021-08-24T21:07:38.051-0300][gc,heap,exit ]   from space 6528K,  76% used [0x00000007439a0000, 0x0000000743e7aa68, 0x0000000744000000)
[2021-08-24T21:07:38.051-0300][gc,heap,exit ]   to   space 6528K,   0% used [0x0000000743340000, 0x0000000743340000, 0x00000007439a0000)
[2021-08-24T21:07:38.051-0300][gc,heap,exit ]  concurrent mark-sweep generation total 65536K, used 26022K [0x00000007a0000000, 0x00000007a4000000, 0x0000000800000000)
[2021-08-24T21:07:38.051-0300][gc,heap,exit ]  Metaspace       used 49773K, capacity 51442K, committed 51552K, reserved 1093632K
[2021-08-24T21:07:38.051-0300][gc,heap,exit ]   class space    used 6165K, capacity 6809K, committed 6884K, reserved 1048576K
