[2021-08-27T22:27:09.200-0300][gc] Using Concurrent Mark Sweep
[2021-08-27T22:27:09.200-0300][gc,heap,coops] Heap address: 0x0000000740000000, size: 3072 MB, Compressed Oops mode: Zero based, Oop shift amount: 3
[2021-08-27T22:27:10.193-0300][gc,start     ] GC(0) Pause Young (Allocation Failure)
[2021-08-27T22:27:10.193-0300][gc,task      ] GC(0) Using 2 workers of 4 for evacuation
[2021-08-27T22:27:10.229-0300][gc,heap      ] GC(0) ParNew: 52480K->6527K(59008K)
[2021-08-27T22:27:10.229-0300][gc,heap      ] GC(0) CMS: 0K->10318K(65536K)
[2021-08-27T22:27:10.229-0300][gc,metaspace ] GC(0) Metaspace: 6159K->6159K(1056768K)
[2021-08-27T22:27:10.229-0300][gc           ] GC(0) Pause Young (Allocation Failure) 51M->16M(121M) 35.374ms
[2021-08-27T22:27:10.229-0300][gc,cpu       ] GC(0) User=0.08s Sys=0.01s Real=0.03s
[2021-08-27T22:27:10.875-0300][gc,start     ] GC(1) Pause Young (Allocation Failure)
[2021-08-27T22:27:10.875-0300][gc,task      ] GC(1) Using 2 workers of 4 for evacuation
[2021-08-27T22:27:10.893-0300][gc,heap      ] GC(1) ParNew: 59007K->2508K(59008K)
[2021-08-27T22:27:10.893-0300][gc,heap      ] GC(1) CMS: 10318K->16843K(65536K)
[2021-08-27T22:27:10.893-0300][gc,metaspace ] GC(1) Metaspace: 12360K->12360K(1060864K)
[2021-08-27T22:27:10.893-0300][gc           ] GC(1) Pause Young (Allocation Failure) 67M->18M(121M) 18.418ms
[2021-08-27T22:27:10.893-0300][gc,cpu       ] GC(1) User=0.04s Sys=0.01s Real=0.02s
[2021-08-27T22:27:11.571-0300][gc,start     ] GC(2) Pause Young (Allocation Failure)
[2021-08-27T22:27:11.571-0300][gc,task      ] GC(2) Using 4 workers of 4 for evacuation
[2021-08-27T22:27:11.576-0300][gc,heap      ] GC(2) ParNew: 54988K->4665K(59008K)
[2021-08-27T22:27:11.576-0300][gc,heap      ] GC(2) CMS: 16843K->16843K(65536K)
[2021-08-27T22:27:11.576-0300][gc,metaspace ] GC(2) Metaspace: 21252K->21252K(1069056K)
[2021-08-27T22:27:11.576-0300][gc           ] GC(2) Pause Young (Allocation Failure) 70M->21M(121M) 5.336ms
[2021-08-27T22:27:11.576-0300][gc,cpu       ] GC(2) User=0.01s Sys=0.00s Real=0.00s
[2021-08-27T22:27:11.577-0300][gc,start     ] GC(3) Pause Initial Mark
[2021-08-27T22:27:11.578-0300][gc           ] GC(3) Pause Initial Mark 21M->21M(121M) 1.478ms
[2021-08-27T22:27:11.578-0300][gc,cpu       ] GC(3) User=0.01s Sys=0.00s Real=0.00s
[2021-08-27T22:27:11.579-0300][gc           ] GC(3) Concurrent Mark
[2021-08-27T22:27:11.616-0300][gc           ] GC(3) Concurrent Mark 37.220ms
[2021-08-27T22:27:11.616-0300][gc,cpu       ] GC(3) User=0.05s Sys=0.01s Real=0.04s
[2021-08-27T22:27:11.617-0300][gc           ] GC(3) Concurrent Preclean
[2021-08-27T22:27:11.618-0300][gc           ] GC(3) Concurrent Preclean 1.754ms
[2021-08-27T22:27:11.618-0300][gc,cpu       ] GC(3) User=0.00s Sys=0.00s Real=0.00s
[2021-08-27T22:27:11.618-0300][gc           ] GC(3) Concurrent Abortable Preclean
[2021-08-27T22:27:11.940-0300][gc           ] GC(3) Concurrent Abortable Preclean 321.312ms
[2021-08-27T22:27:11.940-0300][gc,cpu       ] GC(3) User=0.64s Sys=0.03s Real=0.33s
[2021-08-27T22:27:11.940-0300][gc,start     ] GC(3) Pause Remark
[2021-08-27T22:27:11.940-0300][gc,start     ] GC(4) Pause Young (CMS Final Remark)
[2021-08-27T22:27:11.940-0300][gc,task      ] GC(4) Using 4 workers of 4 for evacuation
[2021-08-27T22:27:11.951-0300][gc,heap      ] GC(4) ParNew: 33166K->4017K(59008K)
[2021-08-27T22:27:11.951-0300][gc,heap      ] GC(4) CMS: 16843K->18514K(65536K)
[2021-08-27T22:27:11.951-0300][gc,metaspace ] GC(4) Metaspace: 26155K->26155K(1073152K)
[2021-08-27T22:27:11.951-0300][gc           ] GC(4) Pause Young (CMS Final Remark) 48M->22M(121M) 11.380ms
[2021-08-27T22:27:11.951-0300][gc,cpu       ] GC(4) User=0.02s Sys=0.00s Real=0.01s
[2021-08-27T22:27:11.960-0300][gc           ] GC(3) Pause Remark 48M->22M(121M) 19.713ms
[2021-08-27T22:27:11.960-0300][gc,cpu       ] GC(3) User=0.03s Sys=0.00s Real=0.02s
[2021-08-27T22:27:11.960-0300][gc           ] GC(3) Concurrent Sweep
[2021-08-27T22:27:11.964-0300][gc           ] GC(3) Concurrent Sweep 3.599ms
[2021-08-27T22:27:11.964-0300][gc,cpu       ] GC(3) User=0.01s Sys=0.00s Real=0.00s
[2021-08-27T22:27:11.964-0300][gc           ] GC(3) Concurrent Reset
[2021-08-27T22:27:11.969-0300][gc           ] GC(3) Concurrent Reset 5.742ms
[2021-08-27T22:27:11.970-0300][gc,cpu       ] GC(3) User=0.01s Sys=0.00s Real=0.01s
[2021-08-27T22:27:11.970-0300][gc,heap      ] GC(3) Old: 16843K->18469K(65536K)
[2021-08-27T22:27:12.444-0300][gc,start     ] GC(5) Pause Young (Allocation Failure)
[2021-08-27T22:27:12.444-0300][gc,task      ] GC(5) Using 4 workers of 4 for evacuation
[2021-08-27T22:27:12.453-0300][gc,heap      ] GC(5) ParNew: 56497K->6074K(59008K)
[2021-08-27T22:27:12.453-0300][gc,heap      ] GC(5) CMS: 18469K->18469K(65536K)
[2021-08-27T22:27:12.453-0300][gc,metaspace ] GC(5) Metaspace: 30162K->30162K(1077248K)
[2021-08-27T22:27:12.453-0300][gc           ] GC(5) Pause Young (Allocation Failure) 73M->23M(121M) 8.971ms
[2021-08-27T22:27:12.453-0300][gc,cpu       ] GC(5) User=0.02s Sys=0.00s Real=0.01s
[2021-08-27T22:27:12.889-0300][gc,start     ] GC(6) Pause Young (Allocation Failure)
[2021-08-27T22:27:12.889-0300][gc,task      ] GC(6) Using 4 workers of 4 for evacuation
[2021-08-27T22:27:12.899-0300][gc,heap      ] GC(6) ParNew: 58554K->6159K(59008K)
[2021-08-27T22:27:12.900-0300][gc,heap      ] GC(6) CMS: 18469K->20755K(65536K)
[2021-08-27T22:27:12.900-0300][gc,metaspace ] GC(6) Metaspace: 32642K->32642K(1079296K)
[2021-08-27T22:27:12.900-0300][gc           ] GC(6) Pause Young (Allocation Failure) 75M->26M(121M) 11.139ms
[2021-08-27T22:27:12.900-0300][gc,cpu       ] GC(6) User=0.03s Sys=0.00s Real=0.02s
[2021-08-27T22:27:14.169-0300][gc,start     ] GC(7) Pause Young (Allocation Failure)
[2021-08-27T22:27:14.169-0300][gc,task      ] GC(7) Using 4 workers of 4 for evacuation
[2021-08-27T22:27:14.177-0300][gc,heap      ] GC(7) ParNew: 58639K->6528K(59008K)
[2021-08-27T22:27:14.177-0300][gc,heap      ] GC(7) CMS: 20755K->21531K(65536K)
[2021-08-27T22:27:14.177-0300][gc,metaspace ] GC(7) Metaspace: 39071K->39071K(1085440K)
[2021-08-27T22:27:14.177-0300][gc           ] GC(7) Pause Young (Allocation Failure) 77M->27M(121M) 7.911ms
[2021-08-27T22:27:14.177-0300][gc,cpu       ] GC(7) User=0.03s Sys=0.00s Real=0.01s
[2021-08-27T22:27:15.552-0300][gc,start     ] GC(8) Pause Young (Allocation Failure)
[2021-08-27T22:27:15.552-0300][gc,task      ] GC(8) Using 4 workers of 4 for evacuation
[2021-08-27T22:27:15.565-0300][gc,heap      ] GC(8) ParNew: 59008K->5517K(59008K)
[2021-08-27T22:27:15.565-0300][gc,heap      ] GC(8) CMS: 21531K->23873K(65536K)
[2021-08-27T22:27:15.565-0300][gc,metaspace ] GC(8) Metaspace: 43748K->43748K(1089536K)
[2021-08-27T22:27:15.565-0300][gc           ] GC(8) Pause Young (Allocation Failure) 78M->28M(121M) 13.515ms
[2021-08-27T22:27:15.565-0300][gc,cpu       ] GC(8) User=0.04s Sys=0.00s Real=0.01s
[2021-08-27T22:27:15.566-0300][gc,start     ] GC(9) Pause Initial Mark
[2021-08-27T22:27:15.569-0300][gc           ] GC(9) Pause Initial Mark 29M->29M(121M) 2.874ms
[2021-08-27T22:27:15.569-0300][gc,cpu       ] GC(9) User=0.00s Sys=0.00s Real=0.00s
[2021-08-27T22:27:15.569-0300][gc           ] GC(9) Concurrent Mark
[2021-08-27T22:27:15.666-0300][gc           ] GC(9) Concurrent Mark 97.172ms
[2021-08-27T22:27:15.666-0300][gc,cpu       ] GC(9) User=0.11s Sys=0.01s Real=0.10s
[2021-08-27T22:27:15.666-0300][gc           ] GC(9) Concurrent Preclean
[2021-08-27T22:27:15.667-0300][gc           ] GC(9) Concurrent Preclean 1.031ms
[2021-08-27T22:27:15.667-0300][gc,cpu       ] GC(9) User=0.00s Sys=0.00s Real=0.00s
[2021-08-27T22:27:15.668-0300][gc           ] GC(9) Concurrent Abortable Preclean
[2021-08-27T22:27:16.009-0300][gc           ] GC(9) Concurrent Abortable Preclean 341.864ms
[2021-08-27T22:27:16.132-0300][gc,cpu       ] GC(9) User=0.85s Sys=0.04s Real=0.47s
[2021-08-27T22:27:16.133-0300][gc,start     ] GC(9) Pause Remark
[2021-08-27T22:27:16.133-0300][gc,start     ] GC(10) Pause Young (CMS Final Remark)
[2021-08-27T22:27:16.133-0300][gc,task      ] GC(10) Using 4 workers of 4 for evacuation
[2021-08-27T22:27:16.146-0300][gc,heap      ] GC(10) ParNew: 47830K->4945K(59008K)
[2021-08-27T22:27:16.146-0300][gc,heap      ] GC(10) CMS: 23873K->26178K(65536K)
[2021-08-27T22:27:16.146-0300][gc,metaspace ] GC(10) Metaspace: 46433K->46433K(1091584K)
[2021-08-27T22:27:16.146-0300][gc           ] GC(10) Pause Young (CMS Final Remark) 70M->30M(121M) 13.558ms
[2021-08-27T22:27:16.146-0300][gc,cpu       ] GC(10) User=0.03s Sys=0.01s Real=0.01s
[2021-08-27T22:27:16.156-0300][gc           ] GC(9) Pause Remark 70M->30M(121M) 23.399ms
[2021-08-27T22:27:16.156-0300][gc,cpu       ] GC(9) User=0.05s Sys=0.01s Real=0.02s
[2021-08-27T22:27:16.157-0300][gc           ] GC(9) Concurrent Sweep
[2021-08-27T22:27:16.164-0300][gc           ] GC(9) Concurrent Sweep 7.103ms
[2021-08-27T22:27:16.164-0300][gc,cpu       ] GC(9) User=0.02s Sys=0.00s Real=0.01s
[2021-08-27T22:27:16.164-0300][gc           ] GC(9) Concurrent Reset
[2021-08-27T22:27:16.166-0300][gc           ] GC(9) Concurrent Reset 1.849ms
[2021-08-27T22:27:16.166-0300][gc,cpu       ] GC(9) User=0.00s Sys=0.00s Real=0.00s
[2021-08-27T22:27:16.166-0300][gc,heap      ] GC(9) Old: 23873K->26068K(65536K)
[2021-08-27T22:31:08.533-0300][gc,start     ] GC(11) Pause Young (Allocation Failure)
[2021-08-27T22:31:08.533-0300][gc,task      ] GC(11) Using 4 workers of 4 for evacuation
[2021-08-27T22:31:08.556-0300][gc,heap      ] GC(11) ParNew: 57425K->6436K(59008K)
[2021-08-27T22:31:08.557-0300][gc,heap      ] GC(11) CMS: 26068K->26198K(65536K)
[2021-08-27T22:31:08.557-0300][gc,metaspace ] GC(11) Metaspace: 53177K->53177K(1097728K)
[2021-08-27T22:31:08.557-0300][gc           ] GC(11) Pause Young (Allocation Failure) 81M->31M(121M) 23.775ms
[2021-08-27T22:31:08.557-0300][gc,cpu       ] GC(11) User=0.02s Sys=0.05s Real=0.02s
[2021-08-27T22:31:09.143-0300][gc,start     ] GC(12) Pause Young (Allocation Failure)
[2021-08-27T22:31:09.143-0300][gc,task      ] GC(12) Using 4 workers of 4 for evacuation
[2021-08-27T22:31:09.158-0300][gc,heap      ] GC(12) ParNew: 58916K->5272K(59008K)
[2021-08-27T22:31:09.158-0300][gc,heap      ] GC(12) CMS: 26198K->29138K(65536K)
[2021-08-27T22:31:09.158-0300][gc,metaspace ] GC(12) Metaspace: 56784K->56784K(1101824K)
[2021-08-27T22:31:09.158-0300][gc           ] GC(12) Pause Young (Allocation Failure) 83M->33M(121M) 15.187ms
[2021-08-27T22:31:09.158-0300][gc,cpu       ] GC(12) User=0.04s Sys=0.01s Real=0.01s
[2021-08-27T22:32:41.897-0300][gc,start     ] GC(13) Pause Young (Allocation Failure)
[2021-08-27T22:32:41.899-0300][gc,task      ] GC(13) Using 4 workers of 4 for evacuation
[2021-08-27T22:32:41.909-0300][gc,heap      ] GC(13) ParNew: 57752K->3817K(59008K)
[2021-08-27T22:32:41.909-0300][gc,heap      ] GC(13) CMS: 29138K->31265K(65536K)
[2021-08-27T22:32:41.909-0300][gc,metaspace ] GC(13) Metaspace: 58219K->58219K(1101824K)
[2021-08-27T22:32:41.909-0300][gc           ] GC(13) Pause Young (Allocation Failure) 84M->34M(121M) 12.079ms
[2021-08-27T22:32:41.909-0300][gc,cpu       ] GC(13) User=0.03s Sys=0.01s Real=0.01s
[2021-08-27T22:35:23.903-0300][gc,start     ] GC(14) Pause Young (Allocation Failure)
[2021-08-27T22:35:23.904-0300][gc,task      ] GC(14) Using 4 workers of 4 for evacuation
[2021-08-27T22:35:23.924-0300][gc,heap      ] GC(14) ParNew: 56297K->4448K(59008K)
[2021-08-27T22:35:23.924-0300][gc,heap      ] GC(14) CMS: 31265K->31265K(65536K)
[2021-08-27T22:35:23.924-0300][gc,metaspace ] GC(14) Metaspace: 58405K->58405K(1101824K)
[2021-08-27T22:35:23.924-0300][gc           ] GC(14) Pause Young (Allocation Failure) 85M->34M(121M) 21.809ms
[2021-08-27T22:35:23.924-0300][gc,cpu       ] GC(14) User=0.02s Sys=0.04s Real=0.02s
[2021-08-27T22:47:13.052-0300][gc,start     ] GC(15) Pause Young (Allocation Failure)
[2021-08-27T22:47:13.053-0300][gc,task      ] GC(15) Using 4 workers of 4 for evacuation
[2021-08-27T22:47:13.074-0300][gc,heap      ] GC(15) ParNew: 56928K->3463K(59008K)
[2021-08-27T22:47:13.074-0300][gc,heap      ] GC(15) CMS: 31265K->31265K(65536K)
[2021-08-27T22:47:13.074-0300][gc,metaspace ] GC(15) Metaspace: 58489K->58489K(1101824K)
[2021-08-27T22:47:13.074-0300][gc           ] GC(15) Pause Young (Allocation Failure) 86M->33M(121M) 22.174ms
[2021-08-27T22:47:13.074-0300][gc,cpu       ] GC(15) User=0.02s Sys=0.05s Real=0.02s
[2021-08-27T22:49:56.144-0300][gc,start     ] GC(16) Pause Young (Allocation Failure)
[2021-08-27T22:49:56.144-0300][gc,task      ] GC(16) Using 4 workers of 4 for evacuation
[2021-08-27T22:49:56.156-0300][gc,heap      ] GC(16) ParNew: 55943K->3507K(59008K)
[2021-08-27T22:49:56.156-0300][gc,heap      ] GC(16) CMS: 31265K->31265K(65536K)
[2021-08-27T22:49:56.156-0300][gc,metaspace ] GC(16) Metaspace: 58524K->58524K(1101824K)
[2021-08-27T22:49:56.156-0300][gc           ] GC(16) Pause Young (Allocation Failure) 85M->33M(121M) 12.274ms
[2021-08-27T22:49:56.156-0300][gc,cpu       ] GC(16) User=0.01s Sys=0.01s Real=0.01s
[2021-08-27T22:52:37.749-0300][gc,start     ] GC(17) Pause Young (Allocation Failure)
[2021-08-27T22:52:37.750-0300][gc,task      ] GC(17) Using 4 workers of 4 for evacuation
[2021-08-27T22:52:37.810-0300][gc,heap      ] GC(17) ParNew: 55987K->4196K(59008K)
[2021-08-27T22:52:37.810-0300][gc,heap      ] GC(17) CMS: 31265K->31265K(65536K)
[2021-08-27T22:52:37.810-0300][gc,metaspace ] GC(17) Metaspace: 58545K->58545K(1101824K)
[2021-08-27T22:52:37.810-0300][gc           ] GC(17) Pause Young (Allocation Failure) 85M->34M(121M) 60.465ms
[2021-08-27T22:52:37.810-0300][gc,cpu       ] GC(17) User=0.02s Sys=0.04s Real=0.07s
[2021-08-27T22:54:32.370-0300][gc,start     ] GC(18) Pause Young (Allocation Failure)
[2021-08-27T22:54:32.371-0300][gc,task      ] GC(18) Using 4 workers of 4 for evacuation
[2021-08-27T22:54:32.391-0300][gc,heap      ] GC(18) ParNew: 56676K->2798K(59008K)
[2021-08-27T22:54:32.391-0300][gc,heap      ] GC(18) CMS: 31265K->32722K(65536K)
[2021-08-27T22:54:32.391-0300][gc,metaspace ] GC(18) Metaspace: 59095K->59095K(1103872K)
[2021-08-27T22:54:32.391-0300][gc           ] GC(18) Pause Young (Allocation Failure) 85M->34M(121M) 20.984ms
[2021-08-27T22:54:32.391-0300][gc,cpu       ] GC(18) User=0.03s Sys=0.02s Real=0.02s
[2021-08-27T22:56:11.927-0300][gc,start     ] GC(19) Pause Young (Allocation Failure)
[2021-08-27T22:56:11.927-0300][gc,task      ] GC(19) Using 4 workers of 4 for evacuation
[2021-08-27T22:56:11.937-0300][gc,heap      ] GC(19) ParNew: 55278K->2777K(59008K)
[2021-08-27T22:56:11.937-0300][gc,heap      ] GC(19) CMS: 32722K->33598K(65536K)
[2021-08-27T22:56:11.937-0300][gc,metaspace ] GC(19) Metaspace: 59170K->59170K(1103872K)
[2021-08-27T22:56:11.937-0300][gc           ] GC(19) Pause Young (Allocation Failure) 85M->35M(121M) 10.445ms
[2021-08-27T22:56:11.937-0300][gc,cpu       ] GC(19) User=0.02s Sys=0.01s Real=0.01s
[2021-08-27T22:59:00.443-0300][gc,start     ] GC(20) Pause Young (Allocation Failure)
[2021-08-27T22:59:00.445-0300][gc,task      ] GC(20) Using 4 workers of 4 for evacuation
[2021-08-27T22:59:00.468-0300][gc,heap      ] GC(20) ParNew: 55257K->2872K(59008K)
[2021-08-27T22:59:00.468-0300][gc,heap      ] GC(20) CMS: 33598K->33633K(65536K)
[2021-08-27T22:59:00.468-0300][gc,metaspace ] GC(20) Metaspace: 59208K->59208K(1103872K)
[2021-08-27T22:59:00.468-0300][gc           ] GC(20) Pause Young (Allocation Failure) 86M->35M(121M) 25.543ms
[2021-08-27T22:59:00.469-0300][gc,cpu       ] GC(20) User=0.02s Sys=0.05s Real=0.02s
[2021-08-27T23:01:42.209-0300][gc,start     ] GC(21) Pause Young (Allocation Failure)
[2021-08-27T23:01:42.210-0300][gc,task      ] GC(21) Using 4 workers of 4 for evacuation
[2021-08-27T23:01:42.233-0300][gc,heap      ] GC(21) ParNew: 55352K->3091K(59008K)
[2021-08-27T23:01:42.233-0300][gc,heap      ] GC(21) CMS: 33633K->33756K(65536K)
[2021-08-27T23:01:42.233-0300][gc,metaspace ] GC(21) Metaspace: 59251K->59251K(1103872K)
[2021-08-27T23:01:42.233-0300][gc           ] GC(21) Pause Young (Allocation Failure) 86M->35M(121M) 24.032ms
[2021-08-27T23:01:42.233-0300][gc,cpu       ] GC(21) User=0.02s Sys=0.05s Real=0.03s
[2021-08-27T23:04:27.128-0300][gc,start     ] GC(22) Pause Young (Allocation Failure)
[2021-08-27T23:04:27.129-0300][gc,task      ] GC(22) Using 4 workers of 4 for evacuation
[2021-08-27T23:04:27.136-0300][gc,heap      ] GC(22) ParNew: 55571K->3168K(59008K)
[2021-08-27T23:04:27.136-0300][gc,heap      ] GC(22) CMS: 33756K->33772K(65536K)
[2021-08-27T23:04:27.136-0300][gc,metaspace ] GC(22) Metaspace: 59252K->59252K(1103872K)
[2021-08-27T23:04:27.136-0300][gc           ] GC(22) Pause Young (Allocation Failure) 87M->36M(121M) 8.371ms
[2021-08-27T23:04:27.136-0300][gc,cpu       ] GC(22) User=0.01s Sys=0.00s Real=0.01s
[2021-08-27T23:07:10.855-0300][gc,start     ] GC(23) Pause Young (Allocation Failure)
[2021-08-27T23:07:10.858-0300][gc,task      ] GC(23) Using 4 workers of 4 for evacuation
[2021-08-27T23:07:10.877-0300][gc,heap      ] GC(23) ParNew: 55648K->3663K(59008K)
[2021-08-27T23:07:10.877-0300][gc,heap      ] GC(23) CMS: 33772K->33782K(65536K)
[2021-08-27T23:07:10.877-0300][gc,metaspace ] GC(23) Metaspace: 59260K->59260K(1103872K)
[2021-08-27T23:07:10.877-0300][gc           ] GC(23) Pause Young (Allocation Failure) 87M->36M(121M) 21.276ms
[2021-08-27T23:07:10.877-0300][gc,cpu       ] GC(23) User=0.02s Sys=0.05s Real=0.02s
[2021-08-27T23:09:54.690-0300][gc,start     ] GC(24) Pause Young (Allocation Failure)
[2021-08-27T23:09:54.691-0300][gc,task      ] GC(24) Using 4 workers of 4 for evacuation
[2021-08-27T23:09:54.710-0300][gc,heap      ] GC(24) ParNew: 56143K->2280K(59008K)
[2021-08-27T23:09:54.710-0300][gc,heap      ] GC(24) CMS: 33782K->34092K(65536K)
[2021-08-27T23:09:54.710-0300][gc,metaspace ] GC(24) Metaspace: 59293K->59293K(1103872K)
[2021-08-27T23:09:54.710-0300][gc           ] GC(24) Pause Young (Allocation Failure) 87M->35M(121M) 19.223ms
[2021-08-27T23:09:54.710-0300][gc,cpu       ] GC(24) User=0.01s Sys=0.04s Real=0.02s
[2021-08-27T23:12:37.672-0300][gc,start     ] GC(25) Pause Young (Allocation Failure)
[2021-08-27T23:12:37.672-0300][gc,task      ] GC(25) Using 4 workers of 4 for evacuation
[2021-08-27T23:12:37.682-0300][gc,heap      ] GC(25) ParNew: 54760K->1660K(59008K)
[2021-08-27T23:12:37.682-0300][gc,heap      ] GC(25) CMS: 34092K->35714K(65536K)
[2021-08-27T23:12:37.682-0300][gc,metaspace ] GC(25) Metaspace: 59294K->59294K(1103872K)
[2021-08-27T23:12:37.682-0300][gc           ] GC(25) Pause Young (Allocation Failure) 86M->36M(121M) 10.173ms
[2021-08-27T23:12:37.682-0300][gc,cpu       ] GC(25) User=0.02s Sys=0.01s Real=0.01s
[2021-08-27T23:14:49.584-0300][gc,start     ] GC(26) Pause Young (Allocation Failure)
[2021-08-27T23:14:49.586-0300][gc,task      ] GC(26) Using 4 workers of 4 for evacuation
[2021-08-27T23:14:49.594-0300][gc,heap      ] GC(26) ParNew: 54140K->791K(59008K)
[2021-08-27T23:14:49.594-0300][gc,heap      ] GC(26) CMS: 35714K->35717K(65536K)
[2021-08-27T23:14:49.594-0300][gc,metaspace ] GC(26) Metaspace: 60242K->60242K(1103872K)
[2021-08-27T23:14:49.594-0300][gc           ] GC(26) Pause Young (Allocation Failure) 87M->35M(121M) 10.421ms
[2021-08-27T23:14:49.594-0300][gc,cpu       ] GC(26) User=0.01s Sys=0.02s Real=0.01s
[2021-08-27T23:17:32.774-0300][gc,start     ] GC(27) Pause Young (Allocation Failure)
[2021-08-27T23:17:32.774-0300][gc,task      ] GC(27) Using 4 workers of 4 for evacuation
[2021-08-27T23:17:32.794-0300][gc,heap      ] GC(27) ParNew: 53271K->714K(59008K)
[2021-08-27T23:17:32.794-0300][gc,heap      ] GC(27) CMS: 35717K->35855K(65536K)
[2021-08-27T23:17:32.794-0300][gc,metaspace ] GC(27) Metaspace: 60242K->60242K(1103872K)
[2021-08-27T23:17:32.794-0300][gc           ] GC(27) Pause Young (Allocation Failure) 86M->35M(121M) 20.744ms
[2021-08-27T23:17:32.794-0300][gc,cpu       ] GC(27) User=0.01s Sys=0.01s Real=0.02s
[2021-08-27T23:20:14.245-0300][gc,start     ] GC(28) Pause Young (Allocation Failure)
[2021-08-27T23:20:14.247-0300][gc,task      ] GC(28) Using 4 workers of 4 for evacuation
[2021-08-27T23:20:14.265-0300][gc,heap      ] GC(28) ParNew: 53194K->723K(59008K)
[2021-08-27T23:20:14.265-0300][gc,heap      ] GC(28) CMS: 35855K->35861K(65536K)
[2021-08-27T23:20:14.265-0300][gc,metaspace ] GC(28) Metaspace: 60296K->60296K(1103872K)
[2021-08-27T23:20:14.265-0300][gc           ] GC(28) Pause Young (Allocation Failure) 86M->35M(121M) 19.357ms
[2021-08-27T23:20:14.265-0300][gc,cpu       ] GC(28) User=0.01s Sys=0.03s Real=0.02s
[2021-08-27T23:22:21.603-0300][gc,heap,exit ] Heap
[2021-08-27T23:22:21.609-0300][gc,heap,exit ]  par new generation   total 59008K, used 50269K [0x0000000740000000, 0x0000000744000000, 0x00000007a0000000)
[2021-08-27T23:22:21.609-0300][gc,heap,exit ]   eden space 52480K,  94% used [0x0000000740000000, 0x00000007430627e8, 0x0000000743340000)
[2021-08-27T23:22:21.609-0300][gc,heap,exit ]   from space 6528K,  11% used [0x00000007439a0000, 0x0000000743a54ea0, 0x0000000744000000)
[2021-08-27T23:22:21.609-0300][gc,heap,exit ]   to   space 6528K,   0% used [0x0000000743340000, 0x0000000743340000, 0x00000007439a0000)
[2021-08-27T23:22:21.609-0300][gc,heap,exit ]  concurrent mark-sweep generation total 65536K, used 35861K [0x00000007a0000000, 0x00000007a4000000, 0x0000000800000000)
[2021-08-27T23:22:21.609-0300][gc,heap,exit ]  Metaspace       used 60517K, capacity 62865K, committed 63104K, reserved 1103872K
[2021-08-27T23:22:21.609-0300][gc,heap,exit ]   class space    used 7318K, capacity 8255K, committed 8292K, reserved 1048576K
