[2021-08-25T17:35:48.418-0300][gc] Using Concurrent Mark Sweep
[2021-08-25T17:35:48.418-0300][gc,heap,coops] Heap address: 0x0000000740000000, size: 3072 MB, Compressed Oops mode: Zero based, Oop shift amount: 3
[2021-08-25T17:35:49.255-0300][gc,start     ] GC(0) Pause Young (Allocation Failure)
[2021-08-25T17:35:49.256-0300][gc,task      ] GC(0) Using 2 workers of 4 for evacuation
[2021-08-25T17:35:49.284-0300][gc,heap      ] GC(0) ParNew: 52480K->6526K(59008K)
[2021-08-25T17:35:49.284-0300][gc,heap      ] GC(0) CMS: 0K->10321K(65536K)
[2021-08-25T17:35:49.284-0300][gc,metaspace ] GC(0) Metaspace: 6160K->6160K(1056768K)
[2021-08-25T17:35:49.284-0300][gc           ] GC(0) Pause Young (Allocation Failure) 51M->16M(121M) 28.647ms
[2021-08-25T17:35:49.284-0300][gc,cpu       ] GC(0) User=0.05s Sys=0.01s Real=0.03s
[2021-08-25T17:35:49.873-0300][gc,start     ] GC(1) Pause Young (Allocation Failure)
[2021-08-25T17:35:49.873-0300][gc,task      ] GC(1) Using 2 workers of 4 for evacuation
[2021-08-25T17:35:49.884-0300][gc,heap      ] GC(1) ParNew: 59006K->2492K(59008K)
[2021-08-25T17:35:49.884-0300][gc,heap      ] GC(1) CMS: 10321K->16851K(65536K)
[2021-08-25T17:35:49.884-0300][gc,metaspace ] GC(1) Metaspace: 13283K->13283K(1060864K)
[2021-08-25T17:35:49.884-0300][gc           ] GC(1) Pause Young (Allocation Failure) 67M->18M(121M) 11.734ms
[2021-08-25T17:35:49.884-0300][gc,cpu       ] GC(1) User=0.01s Sys=0.01s Real=0.01s
[2021-08-25T17:35:50.521-0300][gc,start     ] GC(2) Pause Young (Allocation Failure)
[2021-08-25T17:35:50.522-0300][gc,task      ] GC(2) Using 4 workers of 4 for evacuation
[2021-08-25T17:35:50.526-0300][gc,heap      ] GC(2) ParNew: 54972K->5238K(59008K)
[2021-08-25T17:35:50.526-0300][gc,heap      ] GC(2) CMS: 16851K->16851K(65536K)
[2021-08-25T17:35:50.526-0300][gc,metaspace ] GC(2) Metaspace: 22357K->22357K(1069056K)
[2021-08-25T17:35:50.527-0300][gc           ] GC(2) Pause Young (Allocation Failure) 70M->21M(121M) 5.046ms
[2021-08-25T17:35:50.527-0300][gc,cpu       ] GC(2) User=0.02s Sys=0.00s Real=0.00s
[2021-08-25T17:35:50.527-0300][gc,start     ] GC(3) Pause Initial Mark
[2021-08-25T17:35:50.528-0300][gc           ] GC(3) Pause Initial Mark 21M->21M(121M) 1.552ms
[2021-08-25T17:35:50.528-0300][gc,cpu       ] GC(3) User=0.01s Sys=0.00s Real=0.00s
[2021-08-25T17:35:50.530-0300][gc           ] GC(3) Concurrent Mark
[2021-08-25T17:35:50.555-0300][gc           ] GC(3) Concurrent Mark 25.022ms
[2021-08-25T17:35:50.555-0300][gc,cpu       ] GC(3) User=0.05s Sys=0.01s Real=0.02s
[2021-08-25T17:35:50.555-0300][gc           ] GC(3) Concurrent Preclean
[2021-08-25T17:35:50.555-0300][gc           ] GC(3) Concurrent Preclean 0.490ms
[2021-08-25T17:35:50.555-0300][gc,cpu       ] GC(3) User=0.00s Sys=0.00s Real=0.00s
[2021-08-25T17:35:50.555-0300][gc           ] GC(3) Concurrent Abortable Preclean
[2021-08-25T17:35:50.779-0300][gc           ] GC(3) Concurrent Abortable Preclean 224.019ms
[2021-08-25T17:35:50.780-0300][gc,cpu       ] GC(3) User=0.42s Sys=0.01s Real=0.23s
[2021-08-25T17:35:50.780-0300][gc,start     ] GC(3) Pause Remark
[2021-08-25T17:35:50.780-0300][gc,start     ] GC(4) Pause Young (CMS Final Remark)
[2021-08-25T17:35:50.780-0300][gc,task      ] GC(4) Using 4 workers of 4 for evacuation
[2021-08-25T17:35:50.787-0300][gc,heap      ] GC(4) ParNew: 35500K->5168K(59008K)
[2021-08-25T17:35:50.787-0300][gc,heap      ] GC(4) CMS: 16851K->18626K(65536K)
[2021-08-25T17:35:50.787-0300][gc,metaspace ] GC(4) Metaspace: 26873K->26873K(1073152K)
[2021-08-25T17:35:50.787-0300][gc           ] GC(4) Pause Young (CMS Final Remark) 51M->23M(121M) 6.931ms
[2021-08-25T17:35:50.787-0300][gc,cpu       ] GC(4) User=0.02s Sys=0.00s Real=0.00s
[2021-08-25T17:35:50.793-0300][gc           ] GC(3) Pause Remark 51M->23M(121M) 12.793ms
[2021-08-25T17:35:50.793-0300][gc,cpu       ] GC(3) User=0.03s Sys=0.00s Real=0.01s
[2021-08-25T17:35:50.793-0300][gc           ] GC(3) Concurrent Sweep
[2021-08-25T17:35:50.797-0300][gc           ] GC(3) Concurrent Sweep 4.351ms
[2021-08-25T17:35:50.797-0300][gc,cpu       ] GC(3) User=0.02s Sys=0.00s Real=0.00s
[2021-08-25T17:35:50.797-0300][gc           ] GC(3) Concurrent Reset
[2021-08-25T17:35:50.800-0300][gc           ] GC(3) Concurrent Reset 2.850ms
[2021-08-25T17:35:50.800-0300][gc,cpu       ] GC(3) User=0.00s Sys=0.00s Real=0.01s
[2021-08-25T17:35:50.800-0300][gc,heap      ] GC(3) Old: 16851K->18580K(65536K)
[2021-08-25T17:35:51.188-0300][gc,start     ] GC(5) Pause Young (Allocation Failure)
[2021-08-25T17:35:51.189-0300][gc,task      ] GC(5) Using 4 workers of 4 for evacuation
[2021-08-25T17:35:51.196-0300][gc,heap      ] GC(5) ParNew: 57648K->5472K(59008K)
[2021-08-25T17:35:51.196-0300][gc,heap      ] GC(5) CMS: 18580K->18580K(65536K)
[2021-08-25T17:35:51.196-0300][gc,metaspace ] GC(5) Metaspace: 30213K->30213K(1077248K)
[2021-08-25T17:35:51.197-0300][gc           ] GC(5) Pause Young (Allocation Failure) 74M->23M(121M) 8.017ms
[2021-08-25T17:35:51.197-0300][gc,cpu       ] GC(5) User=0.02s Sys=0.00s Real=0.01s
[2021-08-25T17:35:51.697-0300][gc,start     ] GC(6) Pause Young (Allocation Failure)
[2021-08-25T17:35:51.697-0300][gc,task      ] GC(6) Using 4 workers of 4 for evacuation
[2021-08-25T17:35:51.706-0300][gc,heap      ] GC(6) ParNew: 57952K->4986K(59008K)
[2021-08-25T17:35:51.706-0300][gc,heap      ] GC(6) CMS: 18580K->20931K(65536K)
[2021-08-25T17:35:51.706-0300][gc,metaspace ] GC(6) Metaspace: 32693K->32693K(1079296K)
[2021-08-25T17:35:51.706-0300][gc           ] GC(6) Pause Young (Allocation Failure) 74M->25M(121M) 9.718ms
[2021-08-25T17:35:51.706-0300][gc,cpu       ] GC(6) User=0.03s Sys=0.01s Real=0.01s
[2021-08-25T17:35:52.519-0300][gc,start     ] GC(7) Pause Young (Allocation Failure)
[2021-08-25T17:35:52.519-0300][gc,task      ] GC(7) Using 4 workers of 4 for evacuation
[2021-08-25T17:35:52.526-0300][gc,heap      ] GC(7) ParNew: 57466K->5600K(59008K)
[2021-08-25T17:35:52.526-0300][gc,heap      ] GC(7) CMS: 20931K->21567K(65536K)
[2021-08-25T17:35:52.526-0300][gc,metaspace ] GC(7) Metaspace: 39049K->39049K(1085440K)
[2021-08-25T17:35:52.526-0300][gc           ] GC(7) Pause Young (Allocation Failure) 76M->26M(121M) 6.905ms
[2021-08-25T17:35:52.526-0300][gc,cpu       ] GC(7) User=0.02s Sys=0.00s Real=0.01s
[2021-08-25T17:35:53.181-0300][gc,start     ] GC(8) Pause Young (Allocation Failure)
[2021-08-25T17:35:53.181-0300][gc,task      ] GC(8) Using 4 workers of 4 for evacuation
[2021-08-25T17:35:53.195-0300][gc,heap      ] GC(8) ParNew: 58080K->5413K(59008K)
[2021-08-25T17:35:53.196-0300][gc,heap      ] GC(8) CMS: 21567K->24016K(65536K)
[2021-08-25T17:35:53.196-0300][gc,metaspace ] GC(8) Metaspace: 43889K->43889K(1089536K)
[2021-08-25T17:35:53.196-0300][gc           ] GC(8) Pause Young (Allocation Failure) 77M->28M(121M) 14.704ms
[2021-08-25T17:35:53.196-0300][gc,cpu       ] GC(8) User=0.04s Sys=0.00s Real=0.01s
[2021-08-25T17:35:55.199-0300][gc,start     ] GC(9) Pause Initial Mark
[2021-08-25T17:35:55.210-0300][gc           ] GC(9) Pause Initial Mark 64M->64M(121M) 10.817ms
[2021-08-25T17:35:55.210-0300][gc,cpu       ] GC(9) User=0.03s Sys=0.00s Real=0.02s
[2021-08-25T17:35:55.210-0300][gc           ] GC(9) Concurrent Mark
[2021-08-25T17:35:55.235-0300][gc           ] GC(9) Concurrent Mark 25.130ms
[2021-08-25T17:35:55.235-0300][gc,cpu       ] GC(9) User=0.04s Sys=0.00s Real=0.02s
[2021-08-25T17:35:55.236-0300][gc           ] GC(9) Concurrent Preclean
[2021-08-25T17:35:55.237-0300][gc           ] GC(9) Concurrent Preclean 1.229ms
[2021-08-25T17:35:55.237-0300][gc,cpu       ] GC(9) User=0.00s Sys=0.00s Real=0.00s
[2021-08-25T17:35:55.237-0300][gc           ] GC(9) Concurrent Abortable Preclean
[2021-08-25T17:36:00.348-0300][gc           ] GC(9) Concurrent Abortable Preclean 5111.525ms
[2021-08-25T17:36:00.348-0300][gc,cpu       ] GC(9) User=1.12s Sys=0.03s Real=5.11s
[2021-08-25T17:36:00.349-0300][gc,start     ] GC(9) Pause Remark
[2021-08-25T17:36:00.349-0300][gc,start     ] GC(10) Pause Young (CMS Final Remark)
[2021-08-25T17:36:00.349-0300][gc,task      ] GC(10) Using 4 workers of 4 for evacuation
[2021-08-25T17:36:00.360-0300][gc,heap      ] GC(10) ParNew: 42021K->4852K(59008K)
[2021-08-25T17:36:00.360-0300][gc,heap      ] GC(10) CMS: 24016K->26152K(65536K)
[2021-08-25T17:36:00.360-0300][gc,metaspace ] GC(10) Metaspace: 47731K->47731K(1091584K)
[2021-08-25T17:36:00.360-0300][gc           ] GC(10) Pause Young (CMS Final Remark) 64M->30M(121M) 11.405ms
[2021-08-25T17:36:00.360-0300][gc,cpu       ] GC(10) User=0.03s Sys=0.00s Real=0.02s
[2021-08-25T17:36:00.369-0300][gc           ] GC(9) Pause Remark 64M->30M(121M) 20.365ms
[2021-08-25T17:36:00.369-0300][gc,cpu       ] GC(9) User=0.05s Sys=0.00s Real=0.02s
[2021-08-25T17:36:00.369-0300][gc           ] GC(9) Concurrent Sweep
[2021-08-25T17:36:00.376-0300][gc           ] GC(9) Concurrent Sweep 6.945ms
[2021-08-25T17:36:00.376-0300][gc,cpu       ] GC(9) User=0.01s Sys=0.00s Real=0.01s
[2021-08-25T17:36:00.376-0300][gc           ] GC(9) Concurrent Reset
[2021-08-25T17:36:00.377-0300][gc           ] GC(9) Concurrent Reset 1.306ms
[2021-08-25T17:36:00.377-0300][gc,cpu       ] GC(9) User=0.00s Sys=0.00s Real=0.00s
[2021-08-25T17:36:00.377-0300][gc,heap      ] GC(9) Old: 24016K->26014K(65536K)
[2021-08-25T17:47:11.328-0300][gc,start     ] GC(11) Pause Young (Allocation Failure)
[2021-08-25T17:47:11.329-0300][gc,task      ] GC(11) Using 4 workers of 4 for evacuation
[2021-08-25T17:47:11.354-0300][gc,heap      ] GC(11) ParNew: 57332K->6117K(59008K)
[2021-08-25T17:47:11.354-0300][gc,heap      ] GC(11) CMS: 26014K->26014K(65536K)
[2021-08-25T17:47:11.354-0300][gc,metaspace ] GC(11) Metaspace: 52150K->52150K(1095680K)
[2021-08-25T17:47:11.354-0300][gc           ] GC(11) Pause Young (Allocation Failure) 81M->31M(121M) 26.325ms
[2021-08-25T17:47:11.354-0300][gc,cpu       ] GC(11) User=0.02s Sys=0.04s Real=0.03s
[2021-08-25T17:48:47.689-0300][gc,start     ] GC(12) Pause Young (Allocation Failure)
[2021-08-25T17:48:47.691-0300][gc,task      ] GC(12) Using 4 workers of 4 for evacuation
[2021-08-25T17:48:47.707-0300][gc,heap      ] GC(12) ParNew: 58597K->6528K(59008K)
[2021-08-25T17:48:47.707-0300][gc,heap      ] GC(12) CMS: 26014K->27311K(65536K)
[2021-08-25T17:48:47.707-0300][gc,metaspace ] GC(12) Metaspace: 55853K->55853K(1099776K)
[2021-08-25T17:48:47.707-0300][gc           ] GC(12) Pause Young (Allocation Failure) 82M->33M(121M) 17.758ms
[2021-08-25T17:48:47.707-0300][gc,cpu       ] GC(12) User=0.04s Sys=0.01s Real=0.02s
[2021-08-25T17:48:48.278-0300][gc,start     ] GC(13) Pause Young (Allocation Failure)
[2021-08-25T17:48:48.278-0300][gc,task      ] GC(13) Using 4 workers of 4 for evacuation
[2021-08-25T17:48:48.307-0300][gc,heap      ] GC(13) ParNew: 59008K->6528K(59008K)
[2021-08-25T17:48:48.307-0300][gc,heap      ] GC(13) CMS: 27311K->29164K(65536K)
[2021-08-25T17:48:48.307-0300][gc,metaspace ] GC(13) Metaspace: 58733K->58733K(1101824K)
[2021-08-25T17:48:48.307-0300][gc           ] GC(13) Pause Young (Allocation Failure) 84M->34M(121M) 28.541ms
[2021-08-25T17:48:48.307-0300][gc,cpu       ] GC(13) User=0.03s Sys=0.00s Real=0.03s
[2021-08-25T17:49:08.317-0300][gc,start     ] GC(14) Pause Young (Allocation Failure)
[2021-08-25T17:49:08.319-0300][gc,task      ] GC(14) Using 4 workers of 4 for evacuation
[2021-08-25T17:49:08.337-0300][gc,heap      ] GC(14) ParNew: 59008K->5921K(59008K)
[2021-08-25T17:49:08.337-0300][gc,heap      ] GC(14) CMS: 29164K->31995K(65536K)
[2021-08-25T17:49:08.337-0300][gc,metaspace ] GC(14) Metaspace: 59919K->59919K(1103872K)
[2021-08-25T17:49:08.337-0300][gc           ] GC(14) Pause Young (Allocation Failure) 86M->37M(121M) 19.420ms
[2021-08-25T17:49:08.337-0300][gc,cpu       ] GC(14) User=0.04s Sys=0.01s Real=0.02s
[2021-08-25T17:50:40.386-0300][gc,start     ] GC(15) Pause Young (Allocation Failure)
[2021-08-25T17:50:40.388-0300][gc,task      ] GC(15) Using 4 workers of 4 for evacuation
[2021-08-25T17:50:40.399-0300][gc,heap      ] GC(15) ParNew: 58401K->4175K(59008K)
[2021-08-25T17:50:40.399-0300][gc,heap      ] GC(15) CMS: 31995K->33879K(65536K)
[2021-08-25T17:50:40.399-0300][gc,metaspace ] GC(15) Metaspace: 60282K->60282K(1103872K)
[2021-08-25T17:50:40.399-0300][gc           ] GC(15) Pause Young (Allocation Failure) 88M->37M(121M) 13.319ms
[2021-08-25T17:50:40.399-0300][gc,cpu       ] GC(15) User=0.03s Sys=0.00s Real=0.01s
[2021-08-25T17:52:34.023-0300][gc,start     ] GC(16) Pause Young (Allocation Failure)
[2021-08-25T17:52:34.025-0300][gc,task      ] GC(16) Using 4 workers of 4 for evacuation
[2021-08-25T17:52:34.059-0300][gc,heap      ] GC(16) ParNew: 56655K->3256K(59008K)
[2021-08-25T17:52:34.059-0300][gc,heap      ] GC(16) CMS: 33879K->33879K(65536K)
[2021-08-25T17:52:34.059-0300][gc,metaspace ] GC(16) Metaspace: 60816K->60816K(1103872K)
[2021-08-25T17:52:34.059-0300][gc           ] GC(16) Pause Young (Allocation Failure) 88M->36M(121M) 36.594ms
[2021-08-25T17:52:34.059-0300][gc,cpu       ] GC(16) User=0.03s Sys=0.08s Real=0.03s
[2021-08-25T17:55:17.486-0300][gc,start     ] GC(17) Pause Young (Allocation Failure)
[2021-08-25T17:55:17.488-0300][gc,task      ] GC(17) Using 4 workers of 4 for evacuation
[2021-08-25T17:55:17.497-0300][gc,heap      ] GC(17) ParNew: 55736K->3432K(59008K)
[2021-08-25T17:55:17.497-0300][gc,heap      ] GC(17) CMS: 33879K->33879K(65536K)
[2021-08-25T17:55:17.497-0300][gc,metaspace ] GC(17) Metaspace: 60941K->60941K(1103872K)
[2021-08-25T17:55:17.497-0300][gc           ] GC(17) Pause Young (Allocation Failure) 87M->36M(121M) 10.758ms
[2021-08-25T17:55:17.497-0300][gc,cpu       ] GC(17) User=0.02s Sys=0.01s Real=0.01s
[2021-08-25T17:57:58.989-0300][gc,start     ] GC(18) Pause Young (Allocation Failure)
[2021-08-25T17:57:58.991-0300][gc,task      ] GC(18) Using 4 workers of 4 for evacuation
[2021-08-25T17:57:58.999-0300][gc,heap      ] GC(18) ParNew: 55912K->3745K(59008K)
[2021-08-25T17:57:58.999-0300][gc,heap      ] GC(18) CMS: 33879K->33879K(65536K)
[2021-08-25T17:57:58.999-0300][gc,metaspace ] GC(18) Metaspace: 61037K->61037K(1105920K)
[2021-08-25T17:57:58.999-0300][gc           ] GC(18) Pause Young (Allocation Failure) 87M->36M(121M) 10.459ms
[2021-08-25T17:57:59.000-0300][gc,cpu       ] GC(18) User=0.02s Sys=0.01s Real=0.01s
[2021-08-25T18:00:42.435-0300][gc,start     ] GC(19) Pause Young (Allocation Failure)
[2021-08-25T18:00:42.436-0300][gc,task      ] GC(19) Using 4 workers of 4 for evacuation
[2021-08-25T18:00:42.444-0300][gc,heap      ] GC(19) ParNew: 56225K->3943K(59008K)
[2021-08-25T18:00:42.444-0300][gc,heap      ] GC(19) CMS: 33879K->33879K(65536K)
[2021-08-25T18:00:42.444-0300][gc,metaspace ] GC(19) Metaspace: 61057K->61057K(1105920K)
[2021-08-25T18:00:42.444-0300][gc           ] GC(19) Pause Young (Allocation Failure) 87M->36M(121M) 9.345ms
[2021-08-25T18:00:42.444-0300][gc,cpu       ] GC(19) User=0.01s Sys=0.01s Real=0.01s
[2021-08-25T18:21:12.726-0300][gc,start     ] GC(20) Pause Young (Allocation Failure)
[2021-08-25T18:21:12.728-0300][gc,task      ] GC(20) Using 4 workers of 4 for evacuation
[2021-08-25T18:21:12.750-0300][gc,heap      ] GC(20) ParNew: 56423K->3968K(59008K)
[2021-08-25T18:21:12.750-0300][gc,heap      ] GC(20) CMS: 33879K->34359K(65536K)
[2021-08-25T18:21:12.750-0300][gc,metaspace ] GC(20) Metaspace: 61064K->61064K(1105920K)
[2021-08-25T18:21:12.750-0300][gc           ] GC(20) Pause Young (Allocation Failure) 88M->37M(121M) 24.342ms
[2021-08-25T18:21:12.750-0300][gc,cpu       ] GC(20) User=0.02s Sys=0.05s Real=0.03s
[2021-08-25T18:35:38.984-0300][gc,start     ] GC(21) Pause Young (Allocation Failure)
[2021-08-25T18:35:38.986-0300][gc,task      ] GC(21) Using 4 workers of 4 for evacuation
[2021-08-25T18:35:38.992-0300][gc,heap      ] GC(21) ParNew: 56448K->1839K(59008K)
[2021-08-25T18:35:38.992-0300][gc,heap      ] GC(21) CMS: 34359K->35423K(65536K)
[2021-08-25T18:35:38.992-0300][gc,metaspace ] GC(21) Metaspace: 61147K->61147K(1105920K)
[2021-08-25T18:35:38.992-0300][gc           ] GC(21) Pause Young (Allocation Failure) 88M->36M(121M) 8.097ms
[2021-08-25T18:35:38.992-0300][gc,cpu       ] GC(21) User=0.02s Sys=0.00s Real=0.01s
[2021-08-25T18:42:19.126-0300][gc,start     ] GC(22) Pause Young (Allocation Failure)
[2021-08-25T18:42:19.127-0300][gc,task      ] GC(22) Using 4 workers of 4 for evacuation
[2021-08-25T18:42:19.158-0300][gc,heap      ] GC(22) ParNew: 54319K->1217K(59008K)
[2021-08-25T18:42:19.158-0300][gc,heap      ] GC(22) CMS: 35423K->36316K(65536K)
[2021-08-25T18:42:19.158-0300][gc,metaspace ] GC(22) Metaspace: 61167K->61167K(1105920K)
[2021-08-25T18:42:19.158-0300][gc           ] GC(22) Pause Young (Allocation Failure) 87M->36M(121M) 32.065ms
[2021-08-25T18:42:19.158-0300][gc,cpu       ] GC(22) User=0.02s Sys=0.02s Real=0.03s
[2021-08-25T18:43:06.907-0300][gc,start     ] GC(23) Pause Young (Allocation Failure)
[2021-08-25T18:43:06.908-0300][gc,task      ] GC(23) Using 4 workers of 4 for evacuation
[2021-08-25T18:43:06.911-0300][gc,heap      ] GC(23) ParNew: 53697K->602K(59008K)
[2021-08-25T18:43:06.911-0300][gc,heap      ] GC(23) CMS: 36316K->36317K(65536K)
[2021-08-25T18:43:06.911-0300][gc,metaspace ] GC(23) Metaspace: 61285K->61285K(1105920K)
[2021-08-25T18:43:06.911-0300][gc           ] GC(23) Pause Young (Allocation Failure) 87M->36M(121M) 3.873ms
[2021-08-25T18:43:06.911-0300][gc,cpu       ] GC(23) User=0.00s Sys=0.00s Real=0.01s
[2021-08-25T18:43:33.276-0300][gc,start     ] GC(24) Pause Young (Allocation Failure)
[2021-08-25T18:43:33.277-0300][gc,task      ] GC(24) Using 4 workers of 4 for evacuation
[2021-08-25T18:43:33.281-0300][gc,heap      ] GC(24) ParNew: 53082K->1011K(59008K)
[2021-08-25T18:43:33.281-0300][gc,heap      ] GC(24) CMS: 36317K->36416K(65536K)
[2021-08-25T18:43:33.281-0300][gc,metaspace ] GC(24) Metaspace: 61423K->61423K(1105920K)
[2021-08-25T18:43:33.281-0300][gc           ] GC(24) Pause Young (Allocation Failure) 87M->36M(121M) 4.738ms
[2021-08-25T18:43:33.281-0300][gc,cpu       ] GC(24) User=0.01s Sys=0.00s Real=0.01s
[2021-08-25T18:44:29.387-0300][gc,start     ] GC(25) Pause Young (Allocation Failure)
[2021-08-25T18:44:29.389-0300][gc,task      ] GC(25) Using 4 workers of 4 for evacuation
[2021-08-25T18:44:29.393-0300][gc,heap      ] GC(25) ParNew: 53491K->2162K(59008K)
[2021-08-25T18:44:29.393-0300][gc,heap      ] GC(25) CMS: 36416K->36430K(65536K)
[2021-08-25T18:44:29.393-0300][gc,metaspace ] GC(25) Metaspace: 61547K->61547K(1105920K)
[2021-08-25T18:44:29.393-0300][gc           ] GC(25) Pause Young (Allocation Failure) 87M->37M(121M) 6.158ms
[2021-08-25T18:44:29.393-0300][gc,cpu       ] GC(25) User=0.01s Sys=0.01s Real=0.01s
[2021-08-25T18:45:23.233-0300][gc,start     ] GC(26) Pause Young (Allocation Failure)
[2021-08-25T18:45:23.234-0300][gc,task      ] GC(26) Using 4 workers of 4 for evacuation
[2021-08-25T18:45:23.240-0300][gc,heap      ] GC(26) ParNew: 54642K->2212K(59008K)
[2021-08-25T18:45:23.240-0300][gc,heap      ] GC(26) CMS: 36430K->36434K(65536K)
[2021-08-25T18:45:23.240-0300][gc,metaspace ] GC(26) Metaspace: 62295K->62295K(1105920K)
[2021-08-25T18:45:23.240-0300][gc           ] GC(26) Pause Young (Allocation Failure) 88M->37M(121M) 6.789ms
[2021-08-25T18:45:23.240-0300][gc,cpu       ] GC(26) User=0.01s Sys=0.01s Real=0.01s
[2021-08-25T18:46:34.091-0300][gc,start     ] GC(27) Pause Young (Allocation Failure)
[2021-08-25T18:46:34.091-0300][gc,task      ] GC(27) Using 4 workers of 4 for evacuation
[2021-08-25T18:46:34.097-0300][gc,heap      ] GC(27) ParNew: 54692K->3971K(59008K)
[2021-08-25T18:46:34.098-0300][gc,heap      ] GC(27) CMS: 36434K->36447K(65536K)
[2021-08-25T18:46:34.098-0300][gc,metaspace ] GC(27) Metaspace: 62653K->62653K(1105920K)
[2021-08-25T18:46:34.098-0300][gc           ] GC(27) Pause Young (Allocation Failure) 88M->39M(121M) 7.137ms
[2021-08-25T18:46:34.098-0300][gc,cpu       ] GC(27) User=0.02s Sys=0.00s Real=0.00s
[2021-08-25T18:48:32.722-0300][gc,start     ] GC(28) Pause Young (Allocation Failure)
[2021-08-25T18:48:32.724-0300][gc,task      ] GC(28) Using 4 workers of 4 for evacuation
[2021-08-25T18:48:32.750-0300][gc,heap      ] GC(28) ParNew: 56451K->4657K(59008K)
[2021-08-25T18:48:32.750-0300][gc,heap      ] GC(28) CMS: 36447K->36500K(65536K)
[2021-08-25T18:48:32.750-0300][gc,metaspace ] GC(28) Metaspace: 63653K->63653K(1107968K)
[2021-08-25T18:48:32.751-0300][gc           ] GC(28) Pause Young (Allocation Failure) 90M->40M(121M) 28.237ms
[2021-08-25T18:48:32.751-0300][gc,cpu       ] GC(28) User=0.02s Sys=0.05s Real=0.03s
[2021-08-25T18:50:43.576-0300][gc,start     ] GC(29) Pause Young (Allocation Failure)
[2021-08-25T18:50:43.578-0300][gc,task      ] GC(29) Using 4 workers of 4 for evacuation
[2021-08-25T18:50:43.588-0300][gc,heap      ] GC(29) ParNew: 57137K->4652K(59008K)
[2021-08-25T18:50:43.588-0300][gc,heap      ] GC(29) CMS: 36500K->36642K(65536K)
[2021-08-25T18:50:43.588-0300][gc,metaspace ] GC(29) Metaspace: 63761K->63761K(1107968K)
[2021-08-25T18:50:43.588-0300][gc           ] GC(29) Pause Young (Allocation Failure) 91M->40M(121M) 11.931ms
[2021-08-25T18:50:43.588-0300][gc,cpu       ] GC(29) User=0.03s Sys=0.01s Real=0.01s
[2021-08-25T18:52:41.046-0300][gc,start     ] GC(30) Pause Young (Allocation Failure)
[2021-08-25T18:52:41.047-0300][gc,task      ] GC(30) Using 4 workers of 4 for evacuation
[2021-08-25T18:52:41.054-0300][gc,heap      ] GC(30) ParNew: 57132K->6185K(59008K)
[2021-08-25T18:52:41.054-0300][gc,heap      ] GC(30) CMS: 36642K->36750K(65536K)
[2021-08-25T18:52:41.054-0300][gc,metaspace ] GC(30) Metaspace: 63826K->63826K(1107968K)
[2021-08-25T18:52:41.054-0300][gc           ] GC(30) Pause Young (Allocation Failure) 91M->41M(121M) 8.536ms
[2021-08-25T18:52:41.054-0300][gc,cpu       ] GC(30) User=0.02s Sys=0.00s Real=0.01s
[2021-08-25T18:52:51.669-0300][gc,start     ] GC(31) Pause Young (Allocation Failure)
[2021-08-25T18:52:51.671-0300][gc,task      ] GC(31) Using 4 workers of 4 for evacuation
[2021-08-25T18:52:51.681-0300][gc,heap      ] GC(31) ParNew: 58665K->5459K(59008K)
[2021-08-25T18:52:51.681-0300][gc,heap      ] GC(31) CMS: 36750K->37548K(65536K)
[2021-08-25T18:52:51.681-0300][gc,metaspace ] GC(31) Metaspace: 63974K->63974K(1107968K)
[2021-08-25T18:52:51.681-0300][gc           ] GC(31) Pause Young (Allocation Failure) 93M->41M(121M) 11.976ms
[2021-08-25T18:52:51.681-0300][gc,cpu       ] GC(31) User=0.03s Sys=0.00s Real=0.02s
[2021-08-25T18:54:53.600-0300][gc,start     ] GC(32) Pause Young (Allocation Failure)
[2021-08-25T18:54:53.602-0300][gc,task      ] GC(32) Using 4 workers of 4 for evacuation
[2021-08-25T18:54:53.625-0300][gc,heap      ] GC(32) ParNew: 57939K->3907K(59008K)
[2021-08-25T18:54:53.625-0300][gc,heap      ] GC(32) CMS: 37548K->39327K(65536K)
[2021-08-25T18:54:53.625-0300][gc,metaspace ] GC(32) Metaspace: 63993K->63993K(1107968K)
[2021-08-25T18:54:53.625-0300][gc           ] GC(32) Pause Young (Allocation Failure) 93M->42M(121M) 25.787ms
[2021-08-25T18:54:53.625-0300][gc,cpu       ] GC(32) User=0.02s Sys=0.03s Real=0.02s
[2021-08-25T18:57:23.888-0300][gc,start     ] GC(33) Pause Young (Allocation Failure)
[2021-08-25T18:57:23.889-0300][gc,task      ] GC(33) Using 4 workers of 4 for evacuation
[2021-08-25T18:57:23.894-0300][gc,heap      ] GC(33) ParNew: 56387K->1349K(59008K)
[2021-08-25T18:57:23.894-0300][gc,heap      ] GC(33) CMS: 39327K->39327K(65536K)
[2021-08-25T18:57:23.894-0300][gc,metaspace ] GC(33) Metaspace: 64033K->64033K(1107968K)
[2021-08-25T18:57:23.894-0300][gc           ] GC(33) Pause Young (Allocation Failure) 93M->39M(121M) 5.722ms
[2021-08-25T18:57:23.894-0300][gc,cpu       ] GC(33) User=0.01s Sys=0.00s Real=0.01s
[2021-08-25T19:00:01.241-0300][gc,start     ] GC(34) Pause Young (Allocation Failure)
[2021-08-25T19:00:01.260-0300][gc,task      ] GC(34) Using 4 workers of 4 for evacuation
[2021-08-25T19:00:01.298-0300][gc,heap      ] GC(34) ParNew: 53829K->619K(59008K)
[2021-08-25T19:00:01.298-0300][gc,heap      ] GC(34) CMS: 39327K->39538K(65536K)
[2021-08-25T19:00:01.298-0300][gc,metaspace ] GC(34) Metaspace: 64036K->64036K(1107968K)
[2021-08-25T19:00:01.299-0300][gc           ] GC(34) Pause Young (Allocation Failure) 90M->39M(121M) 57.635ms
[2021-08-25T19:00:01.299-0300][gc,cpu       ] GC(34) User=0.02s Sys=0.03s Real=0.05s
[2021-08-25T19:02:39.176-0300][gc,start     ] GC(35) Pause Young (Allocation Failure)
[2021-08-25T19:02:39.178-0300][gc,task      ] GC(35) Using 4 workers of 4 for evacuation
[2021-08-25T19:02:39.184-0300][gc,heap      ] GC(35) ParNew: 53099K->415K(59008K)
[2021-08-25T19:02:39.184-0300][gc,heap      ] GC(35) CMS: 39538K->39741K(65536K)
[2021-08-25T19:02:39.184-0300][gc,metaspace ] GC(35) Metaspace: 64040K->64040K(1107968K)
[2021-08-25T19:02:39.184-0300][gc           ] GC(35) Pause Young (Allocation Failure) 90M->39M(121M) 8.329ms
[2021-08-25T19:02:39.184-0300][gc,cpu       ] GC(35) User=0.01s Sys=0.00s Real=0.01s
[2021-08-25T19:05:12.826-0300][gc,start     ] GC(36) Pause Young (Allocation Failure)
[2021-08-25T19:05:12.827-0300][gc,task      ] GC(36) Using 4 workers of 4 for evacuation
[2021-08-25T19:05:12.830-0300][gc,heap      ] GC(36) ParNew: 52895K->294K(59008K)
[2021-08-25T19:05:12.830-0300][gc,heap      ] GC(36) CMS: 39741K->39768K(65536K)
[2021-08-25T19:05:12.830-0300][gc,metaspace ] GC(36) Metaspace: 64049K->64049K(1107968K)
[2021-08-25T19:05:12.830-0300][gc           ] GC(36) Pause Young (Allocation Failure) 90M->39M(121M) 3.994ms
[2021-08-25T19:05:12.830-0300][gc,cpu       ] GC(36) User=0.00s Sys=0.00s Real=0.01s
[2021-08-25T19:07:45.409-0300][gc,start     ] GC(37) Pause Young (Allocation Failure)
[2021-08-25T19:07:45.410-0300][gc,task      ] GC(37) Using 4 workers of 4 for evacuation
[2021-08-25T19:07:45.413-0300][gc,heap      ] GC(37) ParNew: 52774K->142K(59008K)
[2021-08-25T19:07:45.413-0300][gc,heap      ] GC(37) CMS: 39768K->39840K(65536K)
[2021-08-25T19:07:45.413-0300][gc,metaspace ] GC(37) Metaspace: 64055K->64055K(1107968K)
[2021-08-25T19:07:45.413-0300][gc           ] GC(37) Pause Young (Allocation Failure) 90M->39M(121M) 4.347ms
[2021-08-25T19:07:45.413-0300][gc,cpu       ] GC(37) User=0.00s Sys=0.00s Real=0.01s
[2021-08-25T19:10:02.753-0300][gc,start     ] GC(38) Pause Young (Allocation Failure)
[2021-08-25T19:10:02.755-0300][gc,task      ] GC(38) Using 4 workers of 4 for evacuation
[2021-08-25T19:10:02.758-0300][gc,heap      ] GC(38) ParNew: 52622K->200K(59008K)
[2021-08-25T19:10:02.758-0300][gc,heap      ] GC(38) CMS: 39840K->39847K(65536K)
[2021-08-25T19:10:02.758-0300][gc,metaspace ] GC(38) Metaspace: 64109K->64109K(1107968K)
[2021-08-25T19:10:02.758-0300][gc           ] GC(38) Pause Young (Allocation Failure) 90M->39M(121M) 5.030ms
[2021-08-25T19:10:02.758-0300][gc,cpu       ] GC(38) User=0.01s Sys=0.00s Real=0.00s
[2021-08-25T19:12:35.171-0300][gc,start     ] GC(39) Pause Young (Allocation Failure)
[2021-08-25T19:12:35.173-0300][gc,task      ] GC(39) Using 4 workers of 4 for evacuation
[2021-08-25T19:12:35.175-0300][gc,heap      ] GC(39) ParNew: 52680K->191K(59008K)
[2021-08-25T19:12:35.175-0300][gc,heap      ] GC(39) CMS: 39847K->39894K(65536K)
[2021-08-25T19:12:35.175-0300][gc,metaspace ] GC(39) Metaspace: 64123K->64123K(1107968K)
[2021-08-25T19:12:35.175-0300][gc           ] GC(39) Pause Young (Allocation Failure) 90M->39M(121M) 4.775ms
[2021-08-25T19:12:35.175-0300][gc,cpu       ] GC(39) User=0.01s Sys=0.00s Real=0.00s
[2021-08-25T19:15:07.477-0300][gc,start     ] GC(40) Pause Young (Allocation Failure)
[2021-08-25T19:15:07.479-0300][gc,task      ] GC(40) Using 4 workers of 4 for evacuation
[2021-08-25T19:15:07.490-0300][gc,heap      ] GC(40) ParNew: 52671K->161K(59008K)
[2021-08-25T19:15:07.490-0300][gc,heap      ] GC(40) CMS: 39894K->39894K(65536K)
[2021-08-25T19:15:07.490-0300][gc,metaspace ] GC(40) Metaspace: 64140K->64140K(1107968K)
[2021-08-25T19:15:07.490-0300][gc           ] GC(40) Pause Young (Allocation Failure) 90M->39M(121M) 13.152ms
[2021-08-25T19:15:07.490-0300][gc,cpu       ] GC(40) User=0.01s Sys=0.01s Real=0.02s
[2021-08-25T19:17:41.747-0300][gc,start     ] GC(41) Pause Young (Allocation Failure)
[2021-08-25T19:17:41.749-0300][gc,task      ] GC(41) Using 4 workers of 4 for evacuation
[2021-08-25T19:17:41.752-0300][gc,heap      ] GC(41) ParNew: 52641K->197K(59008K)
[2021-08-25T19:17:41.752-0300][gc,heap      ] GC(41) CMS: 39894K->39894K(65536K)
[2021-08-25T19:17:41.752-0300][gc,metaspace ] GC(41) Metaspace: 64158K->64158K(1107968K)
[2021-08-25T19:17:41.752-0300][gc           ] GC(41) Pause Young (Allocation Failure) 90M->39M(121M) 4.621ms
[2021-08-25T19:17:41.752-0300][gc,cpu       ] GC(41) User=0.01s Sys=0.00s Real=0.01s
[2021-08-25T19:20:18.450-0300][gc,start     ] GC(42) Pause Young (Allocation Failure)
[2021-08-25T19:20:18.451-0300][gc,task      ] GC(42) Using 4 workers of 4 for evacuation
[2021-08-25T19:20:18.454-0300][gc,heap      ] GC(42) ParNew: 52677K->233K(59008K)
[2021-08-25T19:20:18.454-0300][gc,heap      ] GC(42) CMS: 39894K->39896K(65536K)
[2021-08-25T19:20:18.454-0300][gc,metaspace ] GC(42) Metaspace: 64159K->64159K(1107968K)
[2021-08-25T19:20:18.454-0300][gc           ] GC(42) Pause Young (Allocation Failure) 90M->39M(121M) 4.454ms
[2021-08-25T19:20:18.454-0300][gc,cpu       ] GC(42) User=0.00s Sys=0.00s Real=0.01s
[2021-08-25T19:21:59.340-0300][gc,start     ] GC(43) Pause Young (Allocation Failure)
[2021-08-25T19:21:59.340-0300][gc,task      ] GC(43) Using 4 workers of 4 for evacuation
[2021-08-25T19:21:59.343-0300][gc,heap      ] GC(43) ParNew: 52713K->485K(59008K)
[2021-08-25T19:21:59.343-0300][gc,heap      ] GC(43) CMS: 39896K->39901K(65536K)
[2021-08-25T19:21:59.343-0300][gc,metaspace ] GC(43) Metaspace: 64374K->64374K(1107968K)
[2021-08-25T19:21:59.343-0300][gc           ] GC(43) Pause Young (Allocation Failure) 90M->39M(121M) 3.416ms
[2021-08-25T19:21:59.344-0300][gc,cpu       ] GC(43) User=0.00s Sys=0.00s Real=0.00s
[2021-08-25T19:22:21.079-0300][gc,start     ] GC(44) Pause Young (Allocation Failure)
[2021-08-25T19:22:21.080-0300][gc,task      ] GC(44) Using 4 workers of 4 for evacuation
[2021-08-25T19:22:21.094-0300][gc,heap      ] GC(44) ParNew: 52965K->2292K(59008K)
[2021-08-25T19:22:21.094-0300][gc,heap      ] GC(44) CMS: 39901K->39940K(65536K)
[2021-08-25T19:22:21.094-0300][gc,metaspace ] GC(44) Metaspace: 64563K->64563K(1107968K)
[2021-08-25T19:22:21.094-0300][gc           ] GC(44) Pause Young (Allocation Failure) 90M->41M(121M) 15.252ms
[2021-08-25T19:22:21.094-0300][gc,cpu       ] GC(44) User=0.02s Sys=0.01s Real=0.02s
[2021-08-25T19:23:32.805-0300][gc,start     ] GC(45) Pause Young (Allocation Failure)
[2021-08-25T19:23:32.807-0300][gc,task      ] GC(45) Using 4 workers of 4 for evacuation
[2021-08-25T19:23:32.815-0300][gc,heap      ] GC(45) ParNew: 54772K->2961K(59008K)
[2021-08-25T19:23:32.815-0300][gc,heap      ] GC(45) CMS: 39940K->39943K(65536K)
[2021-08-25T19:23:32.815-0300][gc,metaspace ] GC(45) Metaspace: 64575K->64575K(1107968K)
[2021-08-25T19:23:32.815-0300][gc           ] GC(45) Pause Young (Allocation Failure) 92M->41M(121M) 10.059ms
[2021-08-25T19:23:32.815-0300][gc,cpu       ] GC(45) User=0.02s Sys=0.02s Real=0.01s
[2021-08-25T19:24:47.977-0300][gc,start     ] GC(46) Pause Young (Allocation Failure)
[2021-08-25T19:24:47.978-0300][gc,task      ] GC(46) Using 4 workers of 4 for evacuation
[2021-08-25T19:24:47.982-0300][gc,heap      ] GC(46) ParNew: 55441K->2944K(59008K)
[2021-08-25T19:24:47.982-0300][gc,heap      ] GC(46) CMS: 39943K->39945K(65536K)
[2021-08-25T19:24:47.982-0300][gc,metaspace ] GC(46) Metaspace: 64583K->64583K(1107968K)
[2021-08-25T19:24:47.983-0300][gc           ] GC(46) Pause Young (Allocation Failure) 93M->41M(121M) 5.778ms
[2021-08-25T19:24:47.983-0300][gc,cpu       ] GC(46) User=0.01s Sys=0.00s Real=0.01s
[2021-08-25T19:26:10.076-0300][gc,start     ] GC(47) Pause Young (Allocation Failure)
[2021-08-25T19:26:10.078-0300][gc,task      ] GC(47) Using 4 workers of 4 for evacuation
[2021-08-25T19:26:10.082-0300][gc,heap      ] GC(47) ParNew: 55424K->2924K(59008K)
[2021-08-25T19:26:10.082-0300][gc,heap      ] GC(47) CMS: 39945K->39979K(65536K)
[2021-08-25T19:26:10.082-0300][gc,metaspace ] GC(47) Metaspace: 64583K->64583K(1107968K)
[2021-08-25T19:26:10.082-0300][gc           ] GC(47) Pause Young (Allocation Failure) 93M->41M(121M) 6.019ms
[2021-08-25T19:26:10.082-0300][gc,cpu       ] GC(47) User=0.01s Sys=0.00s Real=0.01s
[2021-08-25T19:27:21.983-0300][gc,start     ] GC(48) Pause Young (Allocation Failure)
[2021-08-25T19:27:21.985-0300][gc,task      ] GC(48) Using 4 workers of 4 for evacuation
[2021-08-25T19:27:21.990-0300][gc,heap      ] GC(48) ParNew: 55404K->2882K(59008K)
[2021-08-25T19:27:21.990-0300][gc,heap      ] GC(48) CMS: 39979K->39979K(65536K)
[2021-08-25T19:27:21.990-0300][gc,metaspace ] GC(48) Metaspace: 64617K->64617K(1107968K)
[2021-08-25T19:27:21.990-0300][gc           ] GC(48) Pause Young (Allocation Failure) 93M->41M(121M) 7.164ms
[2021-08-25T19:27:21.990-0300][gc,cpu       ] GC(48) User=0.01s Sys=0.01s Real=0.01s
[2021-08-25T19:28:05.115-0300][gc,start     ] GC(49) Pause Young (Allocation Failure)
[2021-08-25T19:28:05.116-0300][gc,task      ] GC(49) Using 4 workers of 4 for evacuation
[2021-08-25T19:28:05.122-0300][gc,heap      ] GC(49) ParNew: 55362K->3998K(59008K)
[2021-08-25T19:28:05.122-0300][gc,heap      ] GC(49) CMS: 39979K->40114K(65536K)
[2021-08-25T19:28:05.122-0300][gc,metaspace ] GC(49) Metaspace: 64784K->64784K(1107968K)
[2021-08-25T19:28:05.122-0300][gc           ] GC(49) Pause Young (Allocation Failure) 93M->43M(121M) 7.248ms
[2021-08-25T19:28:05.122-0300][gc,cpu       ] GC(49) User=0.02s Sys=0.01s Real=0.01s
[2021-08-25T19:28:27.775-0300][gc,start     ] GC(50) Pause Young (Allocation Failure)
[2021-08-25T19:28:27.776-0300][gc,task      ] GC(50) Using 4 workers of 4 for evacuation
[2021-08-25T19:28:27.790-0300][gc,heap      ] GC(50) ParNew: 56478K->2750K(59008K)
[2021-08-25T19:28:27.790-0300][gc,heap      ] GC(50) CMS: 40114K->41808K(65536K)
[2021-08-25T19:28:27.790-0300][gc,metaspace ] GC(50) Metaspace: 64969K->64969K(1110016K)
[2021-08-25T19:28:27.790-0300][gc           ] GC(50) Pause Young (Allocation Failure) 94M->43M(121M) 14.641ms
[2021-08-25T19:28:27.790-0300][gc,cpu       ] GC(50) User=0.04s Sys=0.01s Real=0.02s
[2021-08-25T19:29:15.987-0300][gc,start     ] GC(51) Pause Young (Allocation Failure)
[2021-08-25T19:29:15.989-0300][gc,task      ] GC(51) Using 4 workers of 4 for evacuation
[2021-08-25T19:29:15.994-0300][gc,heap      ] GC(51) ParNew: 55230K->4198K(59008K)
[2021-08-25T19:29:15.994-0300][gc,heap      ] GC(51) CMS: 41808K->41844K(65536K)
[2021-08-25T19:29:15.994-0300][gc,metaspace ] GC(51) Metaspace: 64988K->64988K(1110016K)
[2021-08-25T19:29:15.994-0300][gc           ] GC(51) Pause Young (Allocation Failure) 94M->44M(121M) 7.320ms
[2021-08-25T19:29:15.994-0300][gc,cpu       ] GC(51) User=0.01s Sys=0.00s Real=0.01s
[2021-08-25T19:30:09.783-0300][gc,start     ] GC(52) Pause Young (Allocation Failure)
[2021-08-25T19:30:09.785-0300][gc,task      ] GC(52) Using 4 workers of 4 for evacuation
[2021-08-25T19:30:09.789-0300][gc,heap      ] GC(52) ParNew: 56678K->3178K(59008K)
[2021-08-25T19:30:09.789-0300][gc,heap      ] GC(52) CMS: 41844K->41859K(65536K)
[2021-08-25T19:30:09.789-0300][gc,metaspace ] GC(52) Metaspace: 64990K->64990K(1110016K)
[2021-08-25T19:30:09.789-0300][gc           ] GC(52) Pause Young (Allocation Failure) 96M->43M(121M) 6.399ms
[2021-08-25T19:30:09.789-0300][gc,cpu       ] GC(52) User=0.01s Sys=0.00s Real=0.00s
[2021-08-25T19:31:03.613-0300][gc,start     ] GC(53) Pause Young (Allocation Failure)
[2021-08-25T19:31:03.615-0300][gc,task      ] GC(53) Using 4 workers of 4 for evacuation
[2021-08-25T19:31:03.620-0300][gc,heap      ] GC(53) ParNew: 55658K->3706K(59008K)
[2021-08-25T19:31:03.620-0300][gc,heap      ] GC(53) CMS: 41859K->41859K(65536K)
[2021-08-25T19:31:03.620-0300][gc,metaspace ] GC(53) Metaspace: 64992K->64992K(1110016K)
[2021-08-25T19:31:03.620-0300][gc           ] GC(53) Pause Young (Allocation Failure) 95M->44M(121M) 6.960ms
[2021-08-25T19:31:03.620-0300][gc,cpu       ] GC(53) User=0.01s Sys=0.01s Real=0.01s
[2021-08-25T19:31:57.467-0300][gc,start     ] GC(54) Pause Young (Allocation Failure)
[2021-08-25T19:31:57.467-0300][gc,task      ] GC(54) Using 4 workers of 4 for evacuation
[2021-08-25T19:31:57.473-0300][gc,heap      ] GC(54) ParNew: 56186K->3445K(59008K)
[2021-08-25T19:31:57.473-0300][gc,heap      ] GC(54) CMS: 41859K->41989K(65536K)
[2021-08-25T19:31:57.473-0300][gc,metaspace ] GC(54) Metaspace: 64992K->64992K(1110016K)
[2021-08-25T19:31:57.473-0300][gc           ] GC(54) Pause Young (Allocation Failure) 95M->44M(121M) 5.767ms
[2021-08-25T19:31:57.473-0300][gc,cpu       ] GC(54) User=0.01s Sys=0.00s Real=0.01s
[2021-08-25T19:32:51.225-0300][gc,start     ] GC(55) Pause Young (Allocation Failure)
[2021-08-25T19:32:51.225-0300][gc,task      ] GC(55) Using 4 workers of 4 for evacuation
[2021-08-25T19:32:51.231-0300][gc,heap      ] GC(55) ParNew: 55925K->3370K(59008K)
[2021-08-25T19:32:51.231-0300][gc,heap      ] GC(55) CMS: 41989K->42142K(65536K)
[2021-08-25T19:32:51.231-0300][gc,metaspace ] GC(55) Metaspace: 64992K->64992K(1110016K)
[2021-08-25T19:32:51.231-0300][gc           ] GC(55) Pause Young (Allocation Failure) 95M->44M(121M) 6.682ms
[2021-08-25T19:32:51.231-0300][gc,cpu       ] GC(55) User=0.01s Sys=0.00s Real=0.01s
[2021-08-25T19:33:43.917-0300][gc,start     ] GC(56) Pause Young (Allocation Failure)
[2021-08-25T19:33:43.917-0300][gc,task      ] GC(56) Using 4 workers of 4 for evacuation
[2021-08-25T19:33:43.927-0300][gc,heap      ] GC(56) ParNew: 55850K->2125K(59008K)
[2021-08-25T19:33:43.927-0300][gc,heap      ] GC(56) CMS: 42142K->43913K(65536K)
[2021-08-25T19:33:43.927-0300][gc,metaspace ] GC(56) Metaspace: 64992K->64992K(1110016K)
[2021-08-25T19:33:43.927-0300][gc           ] GC(56) Pause Young (Allocation Failure) 95M->44M(121M) 10.187ms
[2021-08-25T19:33:43.927-0300][gc,cpu       ] GC(56) User=0.03s Sys=0.01s Real=0.01s
[2021-08-25T19:34:37.991-0300][gc,start     ] GC(57) Pause Young (Allocation Failure)
[2021-08-25T19:34:37.992-0300][gc,task      ] GC(57) Using 4 workers of 4 for evacuation
[2021-08-25T19:34:37.996-0300][gc,heap      ] GC(57) ParNew: 54605K->646K(59008K)
[2021-08-25T19:34:37.996-0300][gc,heap      ] GC(57) CMS: 43913K->44179K(65536K)
[2021-08-25T19:34:37.996-0300][gc,metaspace ] GC(57) Metaspace: 64993K->64993K(1110016K)
[2021-08-25T19:34:37.996-0300][gc           ] GC(57) Pause Young (Allocation Failure) 96M->43M(121M) 4.741ms
[2021-08-25T19:34:37.996-0300][gc,cpu       ] GC(57) User=0.01s Sys=0.00s Real=0.00s
[2021-08-25T19:35:31.566-0300][gc,start     ] GC(58) Pause Young (Allocation Failure)
[2021-08-25T19:35:31.567-0300][gc,task      ] GC(58) Using 4 workers of 4 for evacuation
[2021-08-25T19:35:31.571-0300][gc,heap      ] GC(58) ParNew: 53126K->318K(59008K)
[2021-08-25T19:35:31.571-0300][gc,heap      ] GC(58) CMS: 44179K->44181K(65536K)
[2021-08-25T19:35:31.571-0300][gc,metaspace ] GC(58) Metaspace: 64993K->64993K(1110016K)
[2021-08-25T19:35:31.571-0300][gc           ] GC(58) Pause Young (Allocation Failure) 95M->43M(121M) 5.159ms
[2021-08-25T19:35:31.571-0300][gc,cpu       ] GC(58) User=0.01s Sys=0.00s Real=0.01s
[2021-08-25T19:36:24.970-0300][gc,start     ] GC(59) Pause Young (Allocation Failure)
[2021-08-25T19:36:24.972-0300][gc,task      ] GC(59) Using 4 workers of 4 for evacuation
[2021-08-25T19:36:24.975-0300][gc,heap      ] GC(59) ParNew: 52798K->255K(59008K)
[2021-08-25T19:36:24.975-0300][gc,heap      ] GC(59) CMS: 44181K->44186K(65536K)
[2021-08-25T19:36:24.975-0300][gc,metaspace ] GC(59) Metaspace: 64997K->64997K(1110016K)
[2021-08-25T19:36:24.975-0300][gc           ] GC(59) Pause Young (Allocation Failure) 94M->43M(121M) 4.607ms
[2021-08-25T19:36:24.975-0300][gc,cpu       ] GC(59) User=0.01s Sys=0.00s Real=0.00s
[2021-08-25T19:37:20.174-0300][gc,start     ] GC(60) Pause Young (Allocation Failure)
[2021-08-25T19:37:20.174-0300][gc,task      ] GC(60) Using 4 workers of 4 for evacuation
[2021-08-25T19:37:20.176-0300][gc,heap      ] GC(60) ParNew: 52735K->356K(59008K)
[2021-08-25T19:37:20.176-0300][gc,heap      ] GC(60) CMS: 44186K->44186K(65536K)
[2021-08-25T19:37:20.176-0300][gc,metaspace ] GC(60) Metaspace: 64997K->64997K(1110016K)
[2021-08-25T19:37:20.176-0300][gc           ] GC(60) Pause Young (Allocation Failure) 94M->43M(121M) 2.361ms
[2021-08-25T19:37:20.176-0300][gc,cpu       ] GC(60) User=0.00s Sys=0.00s Real=0.00s
[2021-08-25T19:38:15.289-0300][gc,start     ] GC(61) Pause Young (Allocation Failure)
[2021-08-25T19:38:15.291-0300][gc,task      ] GC(61) Using 4 workers of 4 for evacuation
[2021-08-25T19:38:15.294-0300][gc,heap      ] GC(61) ParNew: 52836K->318K(59008K)
[2021-08-25T19:38:15.294-0300][gc,heap      ] GC(61) CMS: 44186K->44186K(65536K)
[2021-08-25T19:38:15.294-0300][gc,metaspace ] GC(61) Metaspace: 65016K->65016K(1110016K)
[2021-08-25T19:38:15.294-0300][gc           ] GC(61) Pause Young (Allocation Failure) 94M->43M(121M) 4.787ms
[2021-08-25T19:38:15.294-0300][gc,cpu       ] GC(61) User=0.00s Sys=0.00s Real=0.01s
[2021-08-25T19:39:10.853-0300][gc,start     ] GC(62) Pause Young (Allocation Failure)
[2021-08-25T19:39:10.855-0300][gc,task      ] GC(62) Using 4 workers of 4 for evacuation
[2021-08-25T19:39:10.859-0300][gc,heap      ] GC(62) ParNew: 52798K->244K(59008K)
[2021-08-25T19:39:10.859-0300][gc,heap      ] GC(62) CMS: 44186K->44299K(65536K)
[2021-08-25T19:39:10.859-0300][gc,metaspace ] GC(62) Metaspace: 65016K->65016K(1110016K)
[2021-08-25T19:39:10.859-0300][gc           ] GC(62) Pause Young (Allocation Failure) 94M->43M(121M) 6.037ms
[2021-08-25T19:39:10.859-0300][gc,cpu       ] GC(62) User=0.01s Sys=0.01s Real=0.00s
[2021-08-25T19:40:05.967-0300][gc,start     ] GC(63) Pause Young (Allocation Failure)
[2021-08-25T19:40:05.967-0300][gc,task      ] GC(63) Using 4 workers of 4 for evacuation
[2021-08-25T19:40:05.969-0300][gc,heap      ] GC(63) ParNew: 52724K->129K(59008K)
[2021-08-25T19:40:05.969-0300][gc,heap      ] GC(63) CMS: 44299K->44301K(65536K)
[2021-08-25T19:40:05.969-0300][gc,metaspace ] GC(63) Metaspace: 65016K->65016K(1110016K)
[2021-08-25T19:40:05.969-0300][gc           ] GC(63) Pause Young (Allocation Failure) 94M->43M(121M) 2.050ms
[2021-08-25T19:40:05.969-0300][gc,cpu       ] GC(63) User=0.00s Sys=0.00s Real=0.00s
[2021-08-25T19:41:01.218-0300][gc,start     ] GC(64) Pause Young (Allocation Failure)
[2021-08-25T19:41:01.220-0300][gc,task      ] GC(64) Using 4 workers of 4 for evacuation
[2021-08-25T19:41:01.222-0300][gc,heap      ] GC(64) ParNew: 52609K->119K(59008K)
[2021-08-25T19:41:01.223-0300][gc,heap      ] GC(64) CMS: 44301K->44304K(65536K)
[2021-08-25T19:41:01.223-0300][gc,metaspace ] GC(64) Metaspace: 65016K->65016K(1110016K)
[2021-08-25T19:41:01.223-0300][gc           ] GC(64) Pause Young (Allocation Failure) 94M->43M(121M) 4.637ms
[2021-08-25T19:41:01.223-0300][gc,cpu       ] GC(64) User=0.01s Sys=0.00s Real=0.01s
[2021-08-25T19:41:56.507-0300][gc,start     ] GC(65) Pause Young (Allocation Failure)
[2021-08-25T19:41:56.514-0300][gc,task      ] GC(65) Using 4 workers of 4 for evacuation
[2021-08-25T19:41:56.515-0300][gc,heap      ] GC(65) ParNew: 52599K->143K(59008K)
[2021-08-25T19:41:56.516-0300][gc,heap      ] GC(65) CMS: 44304K->44306K(65536K)
[2021-08-25T19:41:56.516-0300][gc,metaspace ] GC(65) Metaspace: 65016K->65016K(1110016K)
[2021-08-25T19:41:56.516-0300][gc           ] GC(65) Pause Young (Allocation Failure) 94M->43M(121M) 8.894ms
[2021-08-25T19:41:56.516-0300][gc,cpu       ] GC(65) User=0.00s Sys=0.00s Real=0.01s
[2021-08-25T19:42:51.549-0300][gc,start     ] GC(66) Pause Young (Allocation Failure)
[2021-08-25T19:42:51.551-0300][gc,task      ] GC(66) Using 4 workers of 4 for evacuation
[2021-08-25T19:42:51.553-0300][gc,heap      ] GC(66) ParNew: 52623K->163K(59008K)
[2021-08-25T19:42:51.553-0300][gc,heap      ] GC(66) CMS: 44306K->44311K(65536K)
[2021-08-25T19:42:51.553-0300][gc,metaspace ] GC(66) Metaspace: 65016K->65016K(1110016K)
[2021-08-25T19:42:51.553-0300][gc           ] GC(66) Pause Young (Allocation Failure) 94M->43M(121M) 4.276ms
[2021-08-25T19:42:51.553-0300][gc,cpu       ] GC(66) User=0.01s Sys=0.00s Real=0.01s
[2021-08-25T19:43:46.878-0300][gc,start     ] GC(67) Pause Young (Allocation Failure)
[2021-08-25T19:43:46.880-0300][gc,task      ] GC(67) Using 4 workers of 4 for evacuation
[2021-08-25T19:43:46.882-0300][gc,heap      ] GC(67) ParNew: 52643K->113K(59008K)
[2021-08-25T19:43:46.882-0300][gc,heap      ] GC(67) CMS: 44311K->44314K(65536K)
[2021-08-25T19:43:46.882-0300][gc,metaspace ] GC(67) Metaspace: 65016K->65016K(1110016K)
[2021-08-25T19:43:46.882-0300][gc           ] GC(67) Pause Young (Allocation Failure) 94M->43M(121M) 3.651ms
[2021-08-25T19:43:46.882-0300][gc,cpu       ] GC(67) User=0.00s Sys=0.00s Real=0.01s
[2021-08-25T19:44:41.734-0300][gc,start     ] GC(68) Pause Young (Allocation Failure)
[2021-08-25T19:44:41.735-0300][gc,task      ] GC(68) Using 4 workers of 4 for evacuation
[2021-08-25T19:44:41.736-0300][gc,heap      ] GC(68) ParNew: 52593K->118K(59008K)
[2021-08-25T19:44:41.736-0300][gc,heap      ] GC(68) CMS: 44314K->44315K(65536K)
[2021-08-25T19:44:41.736-0300][gc,metaspace ] GC(68) Metaspace: 65016K->65016K(1110016K)
[2021-08-25T19:44:41.736-0300][gc           ] GC(68) Pause Young (Allocation Failure) 94M->43M(121M) 1.775ms
[2021-08-25T19:44:41.736-0300][gc,cpu       ] GC(68) User=0.01s Sys=0.00s Real=0.00s
[2021-08-25T19:45:36.667-0300][gc,start     ] GC(69) Pause Young (Allocation Failure)
[2021-08-25T19:45:36.672-0300][gc,task      ] GC(69) Using 4 workers of 4 for evacuation
[2021-08-25T19:45:36.674-0300][gc,heap      ] GC(69) ParNew: 52598K->146K(59008K)
[2021-08-25T19:45:36.674-0300][gc,heap      ] GC(69) CMS: 44315K->44315K(65536K)
[2021-08-25T19:45:36.674-0300][gc,metaspace ] GC(69) Metaspace: 65016K->65016K(1110016K)
[2021-08-25T19:45:36.674-0300][gc           ] GC(69) Pause Young (Allocation Failure) 94M->43M(121M) 7.465ms
[2021-08-25T19:45:36.674-0300][gc,cpu       ] GC(69) User=0.00s Sys=0.01s Real=0.01s
[2021-08-25T19:46:31.666-0300][gc,start     ] GC(70) Pause Young (Allocation Failure)
[2021-08-25T19:46:31.668-0300][gc,task      ] GC(70) Using 4 workers of 4 for evacuation
[2021-08-25T19:46:31.670-0300][gc,heap      ] GC(70) ParNew: 52626K->105K(59008K)
[2021-08-25T19:46:31.670-0300][gc,heap      ] GC(70) CMS: 44315K->44315K(65536K)
[2021-08-25T19:46:31.670-0300][gc,metaspace ] GC(70) Metaspace: 65016K->65016K(1110016K)
[2021-08-25T19:46:31.670-0300][gc           ] GC(70) Pause Young (Allocation Failure) 94M->43M(121M) 3.663ms
[2021-08-25T19:46:31.670-0300][gc,cpu       ] GC(70) User=0.01s Sys=0.00s Real=0.01s
[2021-08-25T19:47:26.811-0300][gc,start     ] GC(71) Pause Young (Allocation Failure)
[2021-08-25T19:47:26.814-0300][gc,task      ] GC(71) Using 4 workers of 4 for evacuation
[2021-08-25T19:47:26.815-0300][gc,heap      ] GC(71) ParNew: 52585K->134K(59008K)
[2021-08-25T19:47:26.815-0300][gc,heap      ] GC(71) CMS: 44315K->44315K(65536K)
[2021-08-25T19:47:26.815-0300][gc,metaspace ] GC(71) Metaspace: 65017K->65017K(1110016K)
[2021-08-25T19:47:26.815-0300][gc           ] GC(71) Pause Young (Allocation Failure) 94M->43M(121M) 4.382ms
[2021-08-25T19:47:26.815-0300][gc,cpu       ] GC(71) User=0.00s Sys=0.00s Real=0.00s
[2021-08-25T19:48:21.995-0300][gc,start     ] GC(72) Pause Young (Allocation Failure)
[2021-08-25T19:48:21.995-0300][gc,task      ] GC(72) Using 4 workers of 4 for evacuation
[2021-08-25T19:48:21.998-0300][gc,heap      ] GC(72) ParNew: 52614K->124K(59008K)
[2021-08-25T19:48:21.998-0300][gc,heap      ] GC(72) CMS: 44315K->44315K(65536K)
[2021-08-25T19:48:21.998-0300][gc,metaspace ] GC(72) Metaspace: 65018K->65018K(1110016K)
[2021-08-25T19:48:21.998-0300][gc           ] GC(72) Pause Young (Allocation Failure) 94M->43M(121M) 2.931ms
[2021-08-25T19:48:21.998-0300][gc,cpu       ] GC(72) User=0.01s Sys=0.00s Real=0.00s
[2021-08-25T19:49:17.589-0300][gc,start     ] GC(73) Pause Young (Allocation Failure)
[2021-08-25T19:49:17.591-0300][gc,task      ] GC(73) Using 4 workers of 4 for evacuation
[2021-08-25T19:49:17.593-0300][gc,heap      ] GC(73) ParNew: 52604K->127K(59008K)
[2021-08-25T19:49:17.593-0300][gc,heap      ] GC(73) CMS: 44315K->44315K(65536K)
[2021-08-25T19:49:17.593-0300][gc,metaspace ] GC(73) Metaspace: 65018K->65018K(1110016K)
[2021-08-25T19:49:17.593-0300][gc           ] GC(73) Pause Young (Allocation Failure) 94M->43M(121M) 4.309ms
[2021-08-25T19:49:17.593-0300][gc,cpu       ] GC(73) User=0.00s Sys=0.00s Real=0.01s
[2021-08-25T19:50:12.575-0300][gc,start     ] GC(74) Pause Young (Allocation Failure)
[2021-08-25T19:50:12.577-0300][gc,task      ] GC(74) Using 4 workers of 4 for evacuation
[2021-08-25T19:50:12.588-0300][gc,heap      ] GC(74) ParNew: 52607K->106K(59008K)
[2021-08-25T19:50:12.588-0300][gc,heap      ] GC(74) CMS: 44315K->44315K(65536K)
[2021-08-25T19:50:12.588-0300][gc,metaspace ] GC(74) Metaspace: 65018K->65018K(1110016K)
[2021-08-25T19:50:12.588-0300][gc           ] GC(74) Pause Young (Allocation Failure) 94M->43M(121M) 12.636ms
[2021-08-25T19:50:12.588-0300][gc,cpu       ] GC(74) User=0.01s Sys=0.02s Real=0.01s
[2021-08-25T19:51:07.654-0300][gc,start     ] GC(75) Pause Young (Allocation Failure)
[2021-08-25T19:51:07.656-0300][gc,task      ] GC(75) Using 4 workers of 4 for evacuation
[2021-08-25T19:51:07.657-0300][gc,heap      ] GC(75) ParNew: 52586K->106K(59008K)
[2021-08-25T19:51:07.657-0300][gc,heap      ] GC(75) CMS: 44315K->44315K(65536K)
[2021-08-25T19:51:07.657-0300][gc,metaspace ] GC(75) Metaspace: 65018K->65018K(1110016K)
[2021-08-25T19:51:07.658-0300][gc           ] GC(75) Pause Young (Allocation Failure) 94M->43M(121M) 3.327ms
[2021-08-25T19:51:07.658-0300][gc,cpu       ] GC(75) User=0.01s Sys=0.00s Real=0.00s
[2021-08-25T19:52:02.668-0300][gc,start     ] GC(76) Pause Young (Allocation Failure)
[2021-08-25T19:52:02.670-0300][gc,task      ] GC(76) Using 4 workers of 4 for evacuation
[2021-08-25T19:52:02.672-0300][gc,heap      ] GC(76) ParNew: 52586K->128K(59008K)
[2021-08-25T19:52:02.672-0300][gc,heap      ] GC(76) CMS: 44315K->44315K(65536K)
[2021-08-25T19:52:02.672-0300][gc,metaspace ] GC(76) Metaspace: 65018K->65018K(1110016K)
[2021-08-25T19:52:02.673-0300][gc           ] GC(76) Pause Young (Allocation Failure) 94M->43M(121M) 4.305ms
[2021-08-25T19:52:02.673-0300][gc,cpu       ] GC(76) User=0.00s Sys=0.00s Real=0.01s
[2021-08-25T19:52:50.750-0300][gc,start     ] GC(77) Pause Young (Allocation Failure)
[2021-08-25T19:52:50.752-0300][gc,task      ] GC(77) Using 4 workers of 4 for evacuation
[2021-08-25T19:52:50.755-0300][gc,heap      ] GC(77) ParNew: 52608K->186K(59008K)
[2021-08-25T19:52:50.755-0300][gc,heap      ] GC(77) CMS: 44315K->44315K(65536K)
[2021-08-25T19:52:50.755-0300][gc,metaspace ] GC(77) Metaspace: 65045K->65045K(1110016K)
[2021-08-25T19:52:50.755-0300][gc           ] GC(77) Pause Young (Allocation Failure) 94M->43M(121M) 4.788ms
[2021-08-25T19:52:50.755-0300][gc,cpu       ] GC(77) User=0.01s Sys=0.00s Real=0.00s
[2021-08-25T19:53:41.583-0300][gc,start     ] GC(78) Pause Young (Allocation Failure)
[2021-08-25T19:53:41.585-0300][gc,task      ] GC(78) Using 4 workers of 4 for evacuation
[2021-08-25T19:53:41.591-0300][gc,heap      ] GC(78) ParNew: 52666K->416K(59008K)
[2021-08-25T19:53:41.591-0300][gc,heap      ] GC(78) CMS: 44315K->44315K(65536K)
[2021-08-25T19:53:41.591-0300][gc,metaspace ] GC(78) Metaspace: 65068K->65068K(1110016K)
[2021-08-25T19:53:41.592-0300][gc           ] GC(78) Pause Young (Allocation Failure) 94M->43M(121M) 8.121ms
[2021-08-25T19:53:41.592-0300][gc,cpu       ] GC(78) User=0.00s Sys=0.01s Real=0.01s
[2021-08-25T19:54:31.509-0300][gc,start     ] GC(79) Pause Young (Allocation Failure)
[2021-08-25T19:54:31.511-0300][gc,task      ] GC(79) Using 4 workers of 4 for evacuation
[2021-08-25T19:54:31.514-0300][gc,heap      ] GC(79) ParNew: 52896K->518K(59008K)
[2021-08-25T19:54:31.514-0300][gc,heap      ] GC(79) CMS: 44315K->44315K(65536K)
[2021-08-25T19:54:31.514-0300][gc,metaspace ] GC(79) Metaspace: 65093K->65093K(1110016K)
[2021-08-25T19:54:31.514-0300][gc           ] GC(79) Pause Young (Allocation Failure) 94M->43M(121M) 5.275ms
[2021-08-25T19:54:31.514-0300][gc,cpu       ] GC(79) User=0.01s Sys=0.00s Real=0.01s
[2021-08-25T19:55:25.327-0300][gc,start     ] GC(80) Pause Young (Allocation Failure)
[2021-08-25T19:55:25.327-0300][gc,task      ] GC(80) Using 4 workers of 4 for evacuation
[2021-08-25T19:55:25.329-0300][gc,heap      ] GC(80) ParNew: 52998K->628K(59008K)
[2021-08-25T19:55:25.329-0300][gc,heap      ] GC(80) CMS: 44315K->44315K(65536K)
[2021-08-25T19:55:25.329-0300][gc,metaspace ] GC(80) Metaspace: 65093K->65093K(1110016K)
[2021-08-25T19:55:25.329-0300][gc           ] GC(80) Pause Young (Allocation Failure) 95M->43M(121M) 2.047ms
[2021-08-25T19:55:25.329-0300][gc,cpu       ] GC(80) User=0.01s Sys=0.00s Real=0.00s
[2021-08-25T19:56:18.992-0300][gc,start     ] GC(81) Pause Young (Allocation Failure)
[2021-08-25T19:56:18.994-0300][gc,task      ] GC(81) Using 4 workers of 4 for evacuation
[2021-08-25T19:56:18.996-0300][gc,heap      ] GC(81) ParNew: 53108K->671K(59008K)
[2021-08-25T19:56:18.996-0300][gc,heap      ] GC(81) CMS: 44315K->44315K(65536K)
[2021-08-25T19:56:18.996-0300][gc,metaspace ] GC(81) Metaspace: 65093K->65093K(1110016K)
[2021-08-25T19:56:18.996-0300][gc           ] GC(81) Pause Young (Allocation Failure) 95M->43M(121M) 4.005ms
[2021-08-25T19:56:18.996-0300][gc,cpu       ] GC(81) User=0.01s Sys=0.00s Real=0.00s
[2021-08-25T19:57:06.631-0300][gc,start     ] GC(82) Pause Young (Allocation Failure)
[2021-08-25T19:57:06.631-0300][gc,task      ] GC(82) Using 4 workers of 4 for evacuation
[2021-08-25T19:57:06.634-0300][gc,heap      ] GC(82) ParNew: 53151K->380K(59008K)
[2021-08-25T19:57:06.634-0300][gc,heap      ] GC(82) CMS: 44315K->44315K(65536K)
[2021-08-25T19:57:06.634-0300][gc,metaspace ] GC(82) Metaspace: 65111K->65111K(1110016K)
[2021-08-25T19:57:06.634-0300][gc           ] GC(82) Pause Young (Allocation Failure) 95M->43M(121M) 3.103ms
[2021-08-25T19:57:06.634-0300][gc,cpu       ] GC(82) User=0.01s Sys=0.00s Real=0.00s
[2021-08-25T19:58:00.011-0300][gc,start     ] GC(83) Pause Young (Allocation Failure)
[2021-08-25T19:58:00.012-0300][gc,task      ] GC(83) Using 4 workers of 4 for evacuation
[2021-08-25T19:58:00.014-0300][gc,heap      ] GC(83) ParNew: 52860K->389K(59008K)
[2021-08-25T19:58:00.014-0300][gc,heap      ] GC(83) CMS: 44315K->44359K(65536K)
[2021-08-25T19:58:00.014-0300][gc,metaspace ] GC(83) Metaspace: 65115K->65115K(1110016K)
[2021-08-25T19:58:00.014-0300][gc           ] GC(83) Pause Young (Allocation Failure) 94M->43M(121M) 2.631ms
[2021-08-25T19:58:00.014-0300][gc,cpu       ] GC(83) User=0.01s Sys=0.00s Real=0.00s
[2021-08-25T19:58:53.473-0300][gc,start     ] GC(84) Pause Young (Allocation Failure)
[2021-08-25T19:58:53.475-0300][gc,task      ] GC(84) Using 4 workers of 4 for evacuation
[2021-08-25T19:58:53.477-0300][gc,heap      ] GC(84) ParNew: 52869K->336K(59008K)
[2021-08-25T19:58:53.477-0300][gc,heap      ] GC(84) CMS: 44359K->44401K(65536K)
[2021-08-25T19:58:53.477-0300][gc,metaspace ] GC(84) Metaspace: 65124K->65124K(1110016K)
[2021-08-25T19:58:53.477-0300][gc           ] GC(84) Pause Young (Allocation Failure) 94M->43M(121M) 4.155ms
[2021-08-25T19:58:53.477-0300][gc,cpu       ] GC(84) User=0.01s Sys=0.00s Real=0.00s
[2021-08-25T19:59:41.060-0300][gc,start     ] GC(85) Pause Young (Allocation Failure)
[2021-08-25T19:59:41.060-0300][gc,task      ] GC(85) Using 4 workers of 4 for evacuation
[2021-08-25T19:59:41.065-0300][gc,heap      ] GC(85) ParNew: 52816K->531K(59008K)
[2021-08-25T19:59:41.066-0300][gc,heap      ] GC(85) CMS: 44401K->44429K(65536K)
[2021-08-25T19:59:41.066-0300][gc,metaspace ] GC(85) Metaspace: 65144K->65144K(1110016K)
[2021-08-25T19:59:41.066-0300][gc           ] GC(85) Pause Young (Allocation Failure) 94M->43M(121M) 5.829ms
[2021-08-25T19:59:41.066-0300][gc,cpu       ] GC(85) User=0.01s Sys=0.00s Real=0.00s
[2021-08-25T19:59:52.467-0300][gc,start     ] GC(86) Pause Young (Allocation Failure)
[2021-08-25T19:59:52.467-0300][gc,task      ] GC(86) Using 4 workers of 4 for evacuation
[2021-08-25T19:59:52.471-0300][gc,heap      ] GC(86) ParNew: 53011K->1142K(59008K)
[2021-08-25T19:59:52.471-0300][gc,heap      ] GC(86) CMS: 44429K->44434K(65536K)
[2021-08-25T19:59:52.471-0300][gc,metaspace ] GC(86) Metaspace: 65240K->65240K(1110016K)
[2021-08-25T19:59:52.471-0300][gc           ] GC(86) Pause Young (Allocation Failure) 95M->44M(121M) 4.486ms
[2021-08-25T19:59:52.471-0300][gc,cpu       ] GC(86) User=0.01s Sys=0.01s Real=0.01s
[2021-08-25T20:00:23.602-0300][gc,start     ] GC(87) Pause Young (Allocation Failure)
[2021-08-25T20:00:23.604-0300][gc,task      ] GC(87) Using 4 workers of 4 for evacuation
[2021-08-25T20:00:23.611-0300][gc,heap      ] GC(87) ParNew: 53622K->2541K(59008K)
[2021-08-25T20:00:23.611-0300][gc,heap      ] GC(87) CMS: 44434K->44453K(65536K)
[2021-08-25T20:00:23.611-0300][gc,metaspace ] GC(87) Metaspace: 65266K->65266K(1110016K)
[2021-08-25T20:00:23.611-0300][gc           ] GC(87) Pause Young (Allocation Failure) 95M->45M(121M) 8.640ms
[2021-08-25T20:00:23.611-0300][gc,cpu       ] GC(87) User=0.02s Sys=0.01s Real=0.01s
[2021-08-25T20:01:04.938-0300][gc,start     ] GC(88) Pause Young (Allocation Failure)
[2021-08-25T20:01:04.938-0300][gc,task      ] GC(88) Using 4 workers of 4 for evacuation
[2021-08-25T20:01:04.945-0300][gc,heap      ] GC(88) ParNew: 55021K->2908K(59008K)
[2021-08-25T20:01:04.945-0300][gc,heap      ] GC(88) CMS: 44453K->44555K(65536K)
[2021-08-25T20:01:04.945-0300][gc,metaspace ] GC(88) Metaspace: 65266K->65266K(1110016K)
[2021-08-25T20:01:04.945-0300][gc           ] GC(88) Pause Young (Allocation Failure) 97M->46M(121M) 7.028ms
[2021-08-25T20:01:04.945-0300][gc,cpu       ] GC(88) User=0.01s Sys=0.00s Real=0.01s
[2021-08-25T20:01:40.936-0300][gc,start     ] GC(89) Pause Young (Allocation Failure)
[2021-08-25T20:01:40.937-0300][gc,task      ] GC(89) Using 4 workers of 4 for evacuation
[2021-08-25T20:01:40.940-0300][gc,heap      ] GC(89) ParNew: 55388K->1808K(59008K)
[2021-08-25T20:01:40.940-0300][gc,heap      ] GC(89) CMS: 44555K->44560K(65536K)
[2021-08-25T20:01:40.940-0300][gc,metaspace ] GC(89) Metaspace: 65269K->65269K(1110016K)
[2021-08-25T20:01:40.941-0300][gc           ] GC(89) Pause Young (Allocation Failure) 97M->45M(121M) 4.478ms
[2021-08-25T20:01:40.941-0300][gc,cpu       ] GC(89) User=0.01s Sys=0.00s Real=0.01s
[2021-08-25T20:02:35.061-0300][gc,start     ] GC(90) Pause Young (Allocation Failure)
[2021-08-25T20:02:35.062-0300][gc,task      ] GC(90) Using 4 workers of 4 for evacuation
[2021-08-25T20:02:35.064-0300][gc,heap      ] GC(90) ParNew: 54288K->492K(59008K)
[2021-08-25T20:02:35.064-0300][gc,heap      ] GC(90) CMS: 44560K->44569K(65536K)
[2021-08-25T20:02:35.064-0300][gc,metaspace ] GC(90) Metaspace: 65279K->65279K(1110016K)
[2021-08-25T20:02:35.064-0300][gc           ] GC(90) Pause Young (Allocation Failure) 96M->44M(121M) 3.144ms
[2021-08-25T20:02:35.064-0300][gc,cpu       ] GC(90) User=0.01s Sys=0.00s Real=0.00s
[2021-08-25T20:03:30.123-0300][gc,start     ] GC(91) Pause Young (Allocation Failure)
[2021-08-25T20:03:30.123-0300][gc,task      ] GC(91) Using 4 workers of 4 for evacuation
[2021-08-25T20:03:30.125-0300][gc,heap      ] GC(91) ParNew: 52972K->274K(59008K)
[2021-08-25T20:03:30.125-0300][gc,heap      ] GC(91) CMS: 44569K->44627K(65536K)
[2021-08-25T20:03:30.125-0300][gc,metaspace ] GC(91) Metaspace: 65295K->65295K(1110016K)
[2021-08-25T20:03:30.125-0300][gc           ] GC(91) Pause Young (Allocation Failure) 95M->43M(121M) 2.299ms
[2021-08-25T20:03:30.125-0300][gc,cpu       ] GC(91) User=0.01s Sys=0.00s Real=0.00s
[2021-08-25T20:04:24.955-0300][gc,start     ] GC(92) Pause Young (Allocation Failure)
[2021-08-25T20:04:24.957-0300][gc,task      ] GC(92) Using 4 workers of 4 for evacuation
[2021-08-25T20:04:24.958-0300][gc,heap      ] GC(92) ParNew: 52754K->176K(59008K)
[2021-08-25T20:04:24.958-0300][gc,heap      ] GC(92) CMS: 44627K->44687K(65536K)
[2021-08-25T20:04:24.958-0300][gc,metaspace ] GC(92) Metaspace: 65295K->65295K(1110016K)
[2021-08-25T20:04:24.958-0300][gc           ] GC(92) Pause Young (Allocation Failure) 95M->43M(121M) 3.806ms
[2021-08-25T20:04:24.959-0300][gc,cpu       ] GC(92) User=0.01s Sys=0.00s Real=0.00s
[2021-08-25T21:57:18.054-0300][gc,start     ] GC(93) Pause Young (Allocation Failure)
[2021-08-25T21:57:18.056-0300][gc,task      ] GC(93) Using 4 workers of 4 for evacuation
[2021-08-25T21:57:18.065-0300][gc,heap      ] GC(93) ParNew: 52656K->231K(59008K)
[2021-08-25T21:57:18.065-0300][gc,heap      ] GC(93) CMS: 44687K->44718K(65536K)
[2021-08-25T21:57:18.065-0300][gc,metaspace ] GC(93) Metaspace: 65301K->65301K(1110016K)
[2021-08-25T21:57:18.065-0300][gc           ] GC(93) Pause Young (Allocation Failure) 95M->43M(121M) 10.384ms
[2021-08-25T21:57:18.065-0300][gc,cpu       ] GC(93) User=0.01s Sys=0.01s Real=0.01s
[2021-08-25T21:58:13.248-0300][gc,start     ] GC(94) Pause Young (Allocation Failure)
[2021-08-25T21:58:13.248-0300][gc,task      ] GC(94) Using 4 workers of 4 for evacuation
[2021-08-25T21:58:13.250-0300][gc,heap      ] GC(94) ParNew: 52711K->234K(59008K)
[2021-08-25T21:58:13.250-0300][gc,heap      ] GC(94) CMS: 44718K->44719K(65536K)
[2021-08-25T21:58:13.250-0300][gc,metaspace ] GC(94) Metaspace: 65301K->65301K(1110016K)
[2021-08-25T21:58:13.250-0300][gc           ] GC(94) Pause Young (Allocation Failure) 95M->43M(121M) 2.222ms
[2021-08-25T21:58:13.250-0300][gc,cpu       ] GC(94) User=0.00s Sys=0.00s Real=0.01s
[2021-08-25T21:59:08.321-0300][gc,start     ] GC(95) Pause Young (Allocation Failure)
[2021-08-25T21:59:08.321-0300][gc,task      ] GC(95) Using 4 workers of 4 for evacuation
[2021-08-25T21:59:08.323-0300][gc,heap      ] GC(95) ParNew: 52714K->283K(59008K)
[2021-08-25T21:59:08.323-0300][gc,heap      ] GC(95) CMS: 44719K->44725K(65536K)
[2021-08-25T21:59:08.323-0300][gc,metaspace ] GC(95) Metaspace: 65305K->65305K(1110016K)
[2021-08-25T21:59:08.323-0300][gc           ] GC(95) Pause Young (Allocation Failure) 95M->43M(121M) 2.484ms
[2021-08-25T21:59:08.323-0300][gc,cpu       ] GC(95) User=0.00s Sys=0.00s Real=0.00s
[2021-08-25T21:59:18.656-0300][gc,heap,exit ] Heap
[2021-08-25T21:59:18.656-0300][gc,heap,exit ]  par new generation   total 59008K, used 51418K [0x0000000740000000, 0x0000000744000000, 0x00000007a0000000)
[2021-08-25T21:59:18.656-0300][gc,heap,exit ]   eden space 52480K,  97% used [0x0000000740000000, 0x00000007431efe40, 0x0000000743340000)
[2021-08-25T21:59:18.656-0300][gc,heap,exit ]   from space 6528K,   4% used [0x0000000743340000, 0x0000000743386c78, 0x00000007439a0000)
[2021-08-25T21:59:18.657-0300][gc,heap,exit ]   to   space 6528K,   0% used [0x00000007439a0000, 0x00000007439a0000, 0x0000000744000000)
[2021-08-25T21:59:18.657-0300][gc,heap,exit ]  concurrent mark-sweep generation total 65536K, used 44725K [0x00000007a0000000, 0x00000007a4000000, 0x0000000800000000)
[2021-08-25T21:59:18.657-0300][gc,heap,exit ]  Metaspace       used 65491K, capacity 69058K, committed 69236K, reserved 1110016K
[2021-08-25T21:59:18.657-0300][gc,heap,exit ]   class space    used 7880K, capacity 9201K, committed 9240K, reserved 1048576K
