[2021-08-26T21:06:07.832-0300][gc] Using Concurrent Mark Sweep
[2021-08-26T21:06:07.832-0300][gc,heap,coops] Heap address: 0x0000000740000000, size: 3072 MB, Compressed Oops mode: Zero based, Oop shift amount: 3
[2021-08-26T21:06:10.805-0300][gc,start     ] GC(0) Pause Young (Allocation Failure)
[2021-08-26T21:06:10.805-0300][gc,task      ] GC(0) Using 2 workers of 4 for evacuation
[2021-08-26T21:06:10.840-0300][gc,heap      ] GC(0) ParNew: 52480K->6526K(59008K)
[2021-08-26T21:06:10.841-0300][gc,heap      ] GC(0) CMS: 0K->10334K(65536K)
[2021-08-26T21:06:10.841-0300][gc,metaspace ] GC(0) Metaspace: 6157K->6157K(1056768K)
[2021-08-26T21:06:10.841-0300][gc           ] GC(0) Pause Young (Allocation Failure) 51M->16M(121M) 35.543ms
[2021-08-26T21:06:10.841-0300][gc,cpu       ] GC(0) User=0.05s Sys=0.01s Real=0.04s
[2021-08-26T21:06:12.569-0300][gc,start     ] GC(1) Pause Young (Allocation Failure)
[2021-08-26T21:06:12.569-0300][gc,task      ] GC(1) Using 2 workers of 4 for evacuation
[2021-08-26T21:06:12.584-0300][gc,heap      ] GC(1) ParNew: 59006K->2353K(59008K)
[2021-08-26T21:06:12.584-0300][gc,heap      ] GC(1) CMS: 10334K->16837K(65536K)
[2021-08-26T21:06:12.584-0300][gc,metaspace ] GC(1) Metaspace: 12223K->12223K(1060864K)
[2021-08-26T21:06:12.584-0300][gc           ] GC(1) Pause Young (Allocation Failure) 67M->18M(121M) 15.156ms
[2021-08-26T21:06:12.584-0300][gc,cpu       ] GC(1) User=0.02s Sys=0.00s Real=0.02s
[2021-08-26T21:06:14.487-0300][gc,start     ] GC(2) Pause Young (Allocation Failure)
[2021-08-26T21:06:14.488-0300][gc,task      ] GC(2) Using 4 workers of 4 for evacuation
[2021-08-26T21:06:14.494-0300][gc,heap      ] GC(2) ParNew: 54833K->4907K(59008K)
[2021-08-26T21:06:14.494-0300][gc,heap      ] GC(2) CMS: 16837K->16837K(65536K)
[2021-08-26T21:06:14.494-0300][gc,metaspace ] GC(2) Metaspace: 20859K->20859K(1069056K)
[2021-08-26T21:06:14.494-0300][gc           ] GC(2) Pause Young (Allocation Failure) 69M->21M(121M) 6.516ms
[2021-08-26T21:06:14.494-0300][gc,cpu       ] GC(2) User=0.01s Sys=0.00s Real=0.01s
[2021-08-26T21:06:14.504-0300][gc,start     ] GC(3) Pause Initial Mark
[2021-08-26T21:06:14.506-0300][gc           ] GC(3) Pause Initial Mark 21M->21M(121M) 1.515ms
[2021-08-26T21:06:14.506-0300][gc,cpu       ] GC(3) User=0.01s Sys=0.00s Real=0.00s
[2021-08-26T21:06:14.510-0300][gc           ] GC(3) Concurrent Mark
[2021-08-26T21:06:14.545-0300][gc           ] GC(3) Concurrent Mark 35.528ms
[2021-08-26T21:06:14.545-0300][gc,cpu       ] GC(3) User=0.04s Sys=0.01s Real=0.03s
[2021-08-26T21:06:14.545-0300][gc           ] GC(3) Concurrent Preclean
[2021-08-26T21:06:14.546-0300][gc           ] GC(3) Concurrent Preclean 1.061ms
[2021-08-26T21:06:14.546-0300][gc,cpu       ] GC(3) User=0.00s Sys=0.00s Real=0.00s
[2021-08-26T21:06:14.546-0300][gc           ] GC(3) Concurrent Abortable Preclean
[2021-08-26T21:06:15.104-0300][gc           ] GC(3) Concurrent Abortable Preclean 557.117ms
[2021-08-26T21:06:15.104-0300][gc,cpu       ] GC(3) User=0.82s Sys=0.06s Real=0.56s
[2021-08-26T21:06:15.104-0300][gc,start     ] GC(3) Pause Remark
[2021-08-26T21:06:15.104-0300][gc,start     ] GC(4) Pause Young (CMS Final Remark)
[2021-08-26T21:06:15.104-0300][gc,task      ] GC(4) Using 4 workers of 4 for evacuation
[2021-08-26T21:06:15.118-0300][gc,heap      ] GC(4) ParNew: 32902K->4792K(59008K)
[2021-08-26T21:06:15.118-0300][gc,heap      ] GC(4) CMS: 16837K->18460K(65536K)
[2021-08-26T21:06:15.118-0300][gc,metaspace ] GC(4) Metaspace: 25679K->25679K(1073152K)
[2021-08-26T21:06:15.118-0300][gc           ] GC(4) Pause Young (CMS Final Remark) 48M->22M(121M) 14.253ms
[2021-08-26T21:06:15.118-0300][gc,cpu       ] GC(4) User=0.03s Sys=0.00s Real=0.01s
[2021-08-26T21:06:15.125-0300][gc           ] GC(3) Pause Remark 48M->22M(121M) 21.120ms
[2021-08-26T21:06:15.125-0300][gc,cpu       ] GC(3) User=0.04s Sys=0.00s Real=0.02s
[2021-08-26T21:06:15.126-0300][gc           ] GC(3) Concurrent Sweep
[2021-08-26T21:06:15.129-0300][gc           ] GC(3) Concurrent Sweep 3.587ms
[2021-08-26T21:06:15.129-0300][gc,cpu       ] GC(3) User=0.01s Sys=0.00s Real=0.00s
[2021-08-26T21:06:15.129-0300][gc           ] GC(3) Concurrent Reset
[2021-08-26T21:06:15.132-0300][gc           ] GC(3) Concurrent Reset 2.713ms
[2021-08-26T21:06:15.132-0300][gc,cpu       ] GC(3) User=0.00s Sys=0.00s Real=0.01s
[2021-08-26T21:06:15.132-0300][gc,heap      ] GC(3) Old: 16837K->18415K(65536K)
[2021-08-26T21:06:16.191-0300][gc,start     ] GC(5) Pause Young (Allocation Failure)
[2021-08-26T21:06:16.191-0300][gc,task      ] GC(5) Using 4 workers of 4 for evacuation
[2021-08-26T21:06:16.196-0300][gc,heap      ] GC(5) ParNew: 57272K->5265K(59008K)
[2021-08-26T21:06:16.196-0300][gc,heap      ] GC(5) CMS: 18415K->18415K(65536K)
[2021-08-26T21:06:16.196-0300][gc,metaspace ] GC(5) Metaspace: 29780K->29780K(1077248K)
[2021-08-26T21:06:16.196-0300][gc           ] GC(5) Pause Young (Allocation Failure) 73M->23M(121M) 4.866ms
[2021-08-26T21:06:16.196-0300][gc,cpu       ] GC(5) User=0.02s Sys=0.00s Real=0.00s
[2021-08-26T21:06:17.204-0300][gc,start     ] GC(6) Pause Young (Allocation Failure)
[2021-08-26T21:06:17.205-0300][gc,task      ] GC(6) Using 4 workers of 4 for evacuation
[2021-08-26T21:06:17.215-0300][gc,heap      ] GC(6) ParNew: 57745K->5634K(59008K)
[2021-08-26T21:06:17.215-0300][gc,heap      ] GC(6) CMS: 18415K->20580K(65536K)
[2021-08-26T21:06:17.215-0300][gc,metaspace ] GC(6) Metaspace: 32400K->32400K(1079296K)
[2021-08-26T21:06:17.215-0300][gc           ] GC(6) Pause Young (Allocation Failure) 74M->25M(121M) 10.892ms
[2021-08-26T21:06:17.215-0300][gc,cpu       ] GC(6) User=0.03s Sys=0.00s Real=0.01s
[2021-08-26T21:06:19.132-0300][gc,start     ] GC(7) Pause Young (Allocation Failure)
[2021-08-26T21:06:19.132-0300][gc,task      ] GC(7) Using 4 workers of 4 for evacuation
[2021-08-26T21:06:19.139-0300][gc,heap      ] GC(7) ParNew: 58114K->6345K(59008K)
[2021-08-26T21:06:19.139-0300][gc,heap      ] GC(7) CMS: 20580K->21345K(65536K)
[2021-08-26T21:06:19.139-0300][gc,metaspace ] GC(7) Metaspace: 37790K->37790K(1083392K)
[2021-08-26T21:06:19.139-0300][gc           ] GC(7) Pause Young (Allocation Failure) 76M->27M(121M) 7.143ms
[2021-08-26T21:06:19.140-0300][gc,cpu       ] GC(7) User=0.02s Sys=0.00s Real=0.01s
[2021-08-26T21:06:20.586-0300][gc,start     ] GC(8) Pause Young (Allocation Failure)
[2021-08-26T21:06:20.586-0300][gc,task      ] GC(8) Using 4 workers of 4 for evacuation
[2021-08-26T21:06:20.594-0300][gc,heap      ] GC(8) ParNew: 58825K->6226K(59008K)
[2021-08-26T21:06:20.594-0300][gc,heap      ] GC(8) CMS: 21345K->22457K(65536K)
[2021-08-26T21:06:20.594-0300][gc,metaspace ] GC(8) Metaspace: 43150K->43150K(1089536K)
[2021-08-26T21:06:20.594-0300][gc           ] GC(8) Pause Young (Allocation Failure) 78M->28M(121M) 8.152ms
[2021-08-26T21:06:20.594-0300][gc,cpu       ] GC(8) User=0.03s Sys=0.00s Real=0.01s
[2021-08-26T21:06:20.595-0300][gc,start     ] GC(9) Pause Initial Mark
[2021-08-26T21:06:20.597-0300][gc           ] GC(9) Pause Initial Mark 28M->28M(121M) 2.461ms
[2021-08-26T21:06:20.597-0300][gc,cpu       ] GC(9) User=0.01s Sys=0.00s Real=0.00s
[2021-08-26T21:06:20.608-0300][gc           ] GC(9) Concurrent Mark
[2021-08-26T21:06:20.636-0300][gc           ] GC(9) Concurrent Mark 28.921ms
[2021-08-26T21:06:20.637-0300][gc,cpu       ] GC(9) User=0.06s Sys=0.00s Real=0.03s
[2021-08-26T21:06:20.637-0300][gc           ] GC(9) Concurrent Preclean
[2021-08-26T21:06:20.637-0300][gc           ] GC(9) Concurrent Preclean 0.626ms
[2021-08-26T21:06:20.637-0300][gc,cpu       ] GC(9) User=0.00s Sys=0.00s Real=0.00s
[2021-08-26T21:06:20.637-0300][gc,start     ] GC(9) Pause Remark
[2021-08-26T21:06:20.637-0300][gc,start     ] GC(10) Pause Young (CMS Final Remark)
[2021-08-26T21:06:20.637-0300][gc,task      ] GC(10) Using 4 workers of 4 for evacuation
[2021-08-26T21:06:20.652-0300][gc,heap      ] GC(10) ParNew: 7901K->4636K(59008K)
[2021-08-26T21:06:20.652-0300][gc,heap      ] GC(10) CMS: 22457K->25711K(65536K)
[2021-08-26T21:06:20.652-0300][gc,metaspace ] GC(10) Metaspace: 43271K->43271K(1089536K)
[2021-08-26T21:06:20.652-0300][gc           ] GC(10) Pause Young (CMS Final Remark) 29M->29M(121M) 14.648ms
[2021-08-26T21:06:20.652-0300][gc,cpu       ] GC(10) User=0.04s Sys=0.01s Real=0.02s
[2021-08-26T21:06:20.663-0300][gc           ] GC(9) Pause Remark 29M->29M(121M) 26.131ms
[2021-08-26T21:06:20.664-0300][gc,cpu       ] GC(9) User=0.06s Sys=0.01s Real=0.03s
[2021-08-26T21:06:20.664-0300][gc           ] GC(9) Concurrent Sweep
[2021-08-26T21:06:20.672-0300][gc           ] GC(9) Concurrent Sweep 7.861ms
[2021-08-26T21:06:20.672-0300][gc,cpu       ] GC(9) User=0.01s Sys=0.00s Real=0.01s
[2021-08-26T21:06:20.672-0300][gc           ] GC(9) Concurrent Reset
[2021-08-26T21:06:20.673-0300][gc           ] GC(9) Concurrent Reset 1.124ms
[2021-08-26T21:06:20.673-0300][gc,cpu       ] GC(9) User=0.01s Sys=0.00s Real=0.00s
[2021-08-26T21:06:20.673-0300][gc,heap      ] GC(9) Old: 22457K->25601K(65536K)
[2021-08-26T21:06:21.892-0300][gc,start     ] GC(11) Pause Young (Allocation Failure)
[2021-08-26T21:06:21.892-0300][gc,task      ] GC(11) Using 4 workers of 4 for evacuation
[2021-08-26T21:06:21.901-0300][gc,heap      ] GC(11) ParNew: 57116K->3145K(59008K)
[2021-08-26T21:06:21.901-0300][gc,heap      ] GC(11) CMS: 25601K->25601K(65536K)
[2021-08-26T21:06:21.901-0300][gc,metaspace ] GC(11) Metaspace: 47135K->47135K(1091584K)
[2021-08-26T21:06:21.901-0300][gc           ] GC(11) Pause Young (Allocation Failure) 80M->28M(121M) 8.450ms
[2021-08-26T21:06:21.901-0300][gc,cpu       ] GC(11) User=0.02s Sys=0.00s Real=0.01s
[2021-08-26T21:06:23.413-0300][gc,start     ] GC(12) Pause Young (Allocation Failure)
[2021-08-26T21:06:23.413-0300][gc,task      ] GC(12) Using 4 workers of 4 for evacuation
[2021-08-26T21:06:23.422-0300][gc,heap      ] GC(12) ParNew: 55625K->6528K(59008K)
[2021-08-26T21:06:23.422-0300][gc,heap      ] GC(12) CMS: 25601K->25630K(65536K)
[2021-08-26T21:06:23.422-0300][gc,metaspace ] GC(12) Metaspace: 49458K->49458K(1093632K)
[2021-08-26T21:06:23.422-0300][gc           ] GC(12) Pause Young (Allocation Failure) 79M->31M(121M) 8.520ms
[2021-08-26T21:06:23.422-0300][gc,cpu       ] GC(12) User=0.03s Sys=0.00s Real=0.01s
[2021-08-26T21:06:24.921-0300][gc,start     ] GC(13) Pause Young (Allocation Failure)
[2021-08-26T21:06:24.922-0300][gc,task      ] GC(13) Using 4 workers of 4 for evacuation
[2021-08-26T21:06:24.957-0300][gc,heap      ] GC(13) ParNew: 59008K->6528K(59008K)
[2021-08-26T21:06:24.957-0300][gc,heap      ] GC(13) CMS: 25630K->29227K(65536K)
[2021-08-26T21:06:24.957-0300][gc,metaspace ] GC(13) Metaspace: 49658K->49658K(1093632K)
[2021-08-26T21:06:24.957-0300][gc           ] GC(13) Pause Young (Allocation Failure) 82M->34M(121M) 35.185ms
[2021-08-26T21:06:24.957-0300][gc,cpu       ] GC(13) User=0.05s Sys=0.01s Real=0.03s
[2021-08-26T21:06:26.050-0300][gc,start     ] GC(14) Pause Young (Allocation Failure)
[2021-08-26T21:06:26.050-0300][gc,task      ] GC(14) Using 4 workers of 4 for evacuation
[2021-08-26T21:06:26.074-0300][gc,heap      ] GC(14) ParNew: 59008K->5813K(59008K)
[2021-08-26T21:06:26.074-0300][gc,heap      ] GC(14) CMS: 29227K->35831K(65536K)
[2021-08-26T21:06:26.074-0300][gc,metaspace ] GC(14) Metaspace: 52323K->52323K(1097728K)
[2021-08-26T21:06:26.074-0300][gc           ] GC(14) Pause Young (Allocation Failure) 86M->40M(121M) 24.378ms
[2021-08-26T21:06:26.075-0300][gc,cpu       ] GC(14) User=0.06s Sys=0.01s Real=0.02s
[2021-08-26T21:06:34.519-0300][gc,start     ] GC(15) Pause Young (Allocation Failure)
[2021-08-26T21:06:34.519-0300][gc,task      ] GC(15) Using 4 workers of 4 for evacuation
[2021-08-26T21:06:34.531-0300][gc,heap      ] GC(15) ParNew: 58293K->5697K(59008K)
[2021-08-26T21:06:34.532-0300][gc,heap      ] GC(15) CMS: 35831K->35831K(65536K)
[2021-08-26T21:06:34.532-0300][gc,metaspace ] GC(15) Metaspace: 57354K->57354K(1101824K)
[2021-08-26T21:06:34.532-0300][gc           ] GC(15) Pause Young (Allocation Failure) 91M->40M(121M) 12.699ms
[2021-08-26T21:06:34.532-0300][gc,cpu       ] GC(15) User=0.03s Sys=0.00s Real=0.02s
[2021-08-26T21:07:04.673-0300][gc,start     ] GC(16) Pause Young (Allocation Failure)
[2021-08-26T21:07:04.674-0300][gc,task      ] GC(16) Using 4 workers of 4 for evacuation
[2021-08-26T21:07:04.697-0300][gc,heap      ] GC(16) ParNew: 58177K->4884K(59008K)
[2021-08-26T21:07:04.697-0300][gc,heap      ] GC(16) CMS: 35831K->38386K(65536K)
[2021-08-26T21:07:04.697-0300][gc,metaspace ] GC(16) Metaspace: 57872K->57872K(1101824K)
[2021-08-26T21:07:04.697-0300][gc           ] GC(16) Pause Young (Allocation Failure) 91M->42M(121M) 23.244ms
[2021-08-26T21:07:04.697-0300][gc,cpu       ] GC(16) User=0.04s Sys=0.01s Real=0.02s
[2021-08-26T21:07:40.162-0300][gc,start     ] GC(17) Pause Young (Allocation Failure)
[2021-08-26T21:07:40.162-0300][gc,task      ] GC(17) Using 4 workers of 4 for evacuation
[2021-08-26T21:07:40.193-0300][gc,heap      ] GC(17) ParNew: 57364K->3154K(59008K)
[2021-08-26T21:07:40.193-0300][gc,heap      ] GC(17) CMS: 38386K->38386K(65536K)
[2021-08-26T21:07:40.193-0300][gc,metaspace ] GC(17) Metaspace: 58002K->58002K(1101824K)
[2021-08-26T21:07:40.194-0300][gc           ] GC(17) Pause Young (Allocation Failure) 93M->40M(121M) 31.953ms
[2021-08-26T21:07:40.194-0300][gc,cpu       ] GC(17) User=0.02s Sys=0.01s Real=0.03s
[2021-08-26T21:08:16.473-0300][gc,start     ] GC(18) Pause Young (Allocation Failure)
[2021-08-26T21:08:16.475-0300][gc,task      ] GC(18) Using 4 workers of 4 for evacuation
[2021-08-26T21:08:16.485-0300][gc,heap      ] GC(18) ParNew: 55634K->2706K(59008K)
[2021-08-26T21:08:16.485-0300][gc,heap      ] GC(18) CMS: 38386K->38386K(65536K)
[2021-08-26T21:08:16.485-0300][gc,metaspace ] GC(18) Metaspace: 58023K->58023K(1101824K)
[2021-08-26T21:08:16.485-0300][gc           ] GC(18) Pause Young (Allocation Failure) 91M->40M(121M) 11.344ms
[2021-08-26T21:08:16.485-0300][gc,cpu       ] GC(18) User=0.02s Sys=0.01s Real=0.01s
[2021-08-26T21:08:42.912-0300][gc,start     ] GC(19) Pause Young (Allocation Failure)
[2021-08-26T21:08:42.914-0300][gc,task      ] GC(19) Using 4 workers of 4 for evacuation
[2021-08-26T21:08:42.922-0300][gc,heap      ] GC(19) ParNew: 55186K->3780K(59008K)
[2021-08-26T21:08:42.922-0300][gc,heap      ] GC(19) CMS: 38386K->38386K(65536K)
[2021-08-26T21:08:42.922-0300][gc,metaspace ] GC(19) Metaspace: 58800K->58800K(1101824K)
[2021-08-26T21:08:42.922-0300][gc           ] GC(19) Pause Young (Allocation Failure) 91M->41M(121M) 9.425ms
[2021-08-26T21:08:42.922-0300][gc,cpu       ] GC(19) User=0.02s Sys=0.01s Real=0.01s
[2021-08-26T21:09:00.082-0300][gc,start     ] GC(20) Pause Young (Allocation Failure)
[2021-08-26T21:09:00.083-0300][gc,task      ] GC(20) Using 4 workers of 4 for evacuation
[2021-08-26T21:09:00.097-0300][gc,heap      ] GC(20) ParNew: 56260K->5211K(59008K)
[2021-08-26T21:09:00.097-0300][gc,heap      ] GC(20) CMS: 38386K->38386K(65536K)
[2021-08-26T21:09:00.097-0300][gc,metaspace ] GC(20) Metaspace: 59528K->59528K(1103872K)
[2021-08-26T21:09:00.097-0300][gc           ] GC(20) Pause Young (Allocation Failure) 92M->42M(121M) 15.265ms
[2021-08-26T21:09:00.098-0300][gc,cpu       ] GC(20) User=0.03s Sys=0.01s Real=0.01s
[2021-08-26T21:09:18.282-0300][gc,start     ] GC(21) Pause Young (Allocation Failure)
[2021-08-26T21:09:18.283-0300][gc,task      ] GC(21) Using 4 workers of 4 for evacuation
[2021-08-26T21:09:18.303-0300][gc,heap      ] GC(21) ParNew: 57691K->3684K(59008K)
[2021-08-26T21:09:18.303-0300][gc,heap      ] GC(21) CMS: 38386K->40294K(65536K)
[2021-08-26T21:09:18.303-0300][gc,metaspace ] GC(21) Metaspace: 60231K->60231K(1103872K)
[2021-08-26T21:09:18.303-0300][gc           ] GC(21) Pause Young (Allocation Failure) 93M->42M(121M) 20.947ms
[2021-08-26T21:09:18.303-0300][gc,cpu       ] GC(21) User=0.03s Sys=0.01s Real=0.02s
[2021-08-26T21:09:28.442-0300][gc,start     ] GC(22) Pause Young (Allocation Failure)
[2021-08-26T21:09:28.444-0300][gc,task      ] GC(22) Using 4 workers of 4 for evacuation
[2021-08-26T21:09:28.449-0300][gc,heap      ] GC(22) ParNew: 56164K->1931K(59008K)
[2021-08-26T21:09:28.449-0300][gc,heap      ] GC(22) CMS: 40294K->40584K(65536K)
[2021-08-26T21:09:28.449-0300][gc,metaspace ] GC(22) Metaspace: 60312K->60312K(1103872K)
[2021-08-26T21:09:28.449-0300][gc           ] GC(22) Pause Young (Allocation Failure) 94M->41M(121M) 6.554ms
[2021-08-26T21:09:28.449-0300][gc,cpu       ] GC(22) User=0.01s Sys=0.00s Real=0.00s
[2021-08-26T21:10:01.885-0300][gc,start     ] GC(23) Pause Young (Allocation Failure)
[2021-08-26T21:10:01.886-0300][gc,task      ] GC(23) Using 4 workers of 4 for evacuation
[2021-08-26T21:10:01.925-0300][gc,heap      ] GC(23) ParNew: 54411K->1512K(59008K)
[2021-08-26T21:10:01.925-0300][gc,heap      ] GC(23) CMS: 40584K->40604K(65536K)
[2021-08-26T21:10:01.925-0300][gc,metaspace ] GC(23) Metaspace: 60326K->60326K(1103872K)
[2021-08-26T21:10:01.926-0300][gc           ] GC(23) Pause Young (Allocation Failure) 92M->41M(121M) 40.544ms
[2021-08-26T21:10:01.926-0300][gc,cpu       ] GC(23) User=0.01s Sys=0.01s Real=0.04s
[2021-08-26T21:10:19.240-0300][gc,start     ] GC(24) Pause Young (Allocation Failure)
[2021-08-26T21:10:19.241-0300][gc,task      ] GC(24) Using 4 workers of 4 for evacuation
[2021-08-26T21:10:19.250-0300][gc,heap      ] GC(24) ParNew: 53992K->3813K(59008K)
[2021-08-26T21:10:19.250-0300][gc,heap      ] GC(24) CMS: 40604K->40612K(65536K)
[2021-08-26T21:10:19.250-0300][gc,metaspace ] GC(24) Metaspace: 60407K->60407K(1103872K)
[2021-08-26T21:10:19.250-0300][gc           ] GC(24) Pause Young (Allocation Failure) 92M->43M(121M) 10.617ms
[2021-08-26T21:10:19.250-0300][gc,cpu       ] GC(24) User=0.02s Sys=0.01s Real=0.01s
[2021-08-26T21:10:47.422-0300][gc,start     ] GC(25) Pause Young (Allocation Failure)
[2021-08-26T21:10:47.422-0300][gc,task      ] GC(25) Using 4 workers of 4 for evacuation
[2021-08-26T21:10:47.436-0300][gc,heap      ] GC(25) ParNew: 56293K->4418K(59008K)
[2021-08-26T21:10:47.436-0300][gc,heap      ] GC(25) CMS: 40612K->41142K(65536K)
[2021-08-26T21:10:47.436-0300][gc,metaspace ] GC(25) Metaspace: 60457K->60457K(1103872K)
[2021-08-26T21:10:47.436-0300][gc           ] GC(25) Pause Young (Allocation Failure) 94M->44M(121M) 14.471ms
[2021-08-26T21:10:47.436-0300][gc,cpu       ] GC(25) User=0.02s Sys=0.03s Real=0.01s
[2021-08-26T21:11:12.471-0300][gc,start     ] GC(26) Pause Young (Allocation Failure)
[2021-08-26T21:11:12.471-0300][gc,task      ] GC(26) Using 4 workers of 4 for evacuation
[2021-08-26T21:11:12.475-0300][gc,heap      ] GC(26) ParNew: 56898K->1556K(59008K)
[2021-08-26T21:11:12.475-0300][gc,heap      ] GC(26) CMS: 41142K->41341K(65536K)
[2021-08-26T21:11:12.475-0300][gc,metaspace ] GC(26) Metaspace: 60549K->60549K(1103872K)
[2021-08-26T21:11:12.475-0300][gc           ] GC(26) Pause Young (Allocation Failure) 95M->41M(121M) 4.741ms
[2021-08-26T21:11:12.475-0300][gc,cpu       ] GC(26) User=0.01s Sys=0.00s Real=0.00s
[2021-08-26T21:11:40.823-0300][gc,start     ] GC(27) Pause Young (Allocation Failure)
[2021-08-26T21:11:40.824-0300][gc,task      ] GC(27) Using 4 workers of 4 for evacuation
[2021-08-26T21:11:40.829-0300][gc,heap      ] GC(27) ParNew: 54036K->1441K(59008K)
[2021-08-26T21:11:40.829-0300][gc,heap      ] GC(27) CMS: 41341K->41710K(65536K)
[2021-08-26T21:11:40.829-0300][gc,metaspace ] GC(27) Metaspace: 60685K->60685K(1103872K)
[2021-08-26T21:11:40.829-0300][gc           ] GC(27) Pause Young (Allocation Failure) 93M->42M(121M) 5.975ms
[2021-08-26T21:11:40.829-0300][gc,cpu       ] GC(27) User=0.01s Sys=0.00s Real=0.00s
[2021-08-26T21:12:14.880-0300][gc,start     ] GC(28) Pause Young (Allocation Failure)
[2021-08-26T21:12:14.881-0300][gc,task      ] GC(28) Using 4 workers of 4 for evacuation
[2021-08-26T21:12:14.884-0300][gc,heap      ] GC(28) ParNew: 53921K->1610K(59008K)
[2021-08-26T21:12:14.884-0300][gc,heap      ] GC(28) CMS: 41710K->41766K(65536K)
[2021-08-26T21:12:14.884-0300][gc,metaspace ] GC(28) Metaspace: 60709K->60709K(1103872K)
[2021-08-26T21:12:14.885-0300][gc           ] GC(28) Pause Young (Allocation Failure) 93M->42M(121M) 4.775ms
[2021-08-26T21:12:14.885-0300][gc,cpu       ] GC(28) User=0.01s Sys=0.00s Real=0.00s
[2021-08-26T21:12:31.716-0300][gc,start     ] GC(29) Pause Young (Allocation Failure)
[2021-08-26T21:12:31.716-0300][gc,task      ] GC(29) Using 4 workers of 4 for evacuation
[2021-08-26T21:12:31.721-0300][gc,heap      ] GC(29) ParNew: 54090K->3679K(59008K)
[2021-08-26T21:12:31.721-0300][gc,heap      ] GC(29) CMS: 41766K->41766K(65536K)
[2021-08-26T21:12:31.721-0300][gc,metaspace ] GC(29) Metaspace: 60759K->60759K(1103872K)
[2021-08-26T21:12:31.721-0300][gc           ] GC(29) Pause Young (Allocation Failure) 93M->44M(121M) 5.487ms
[2021-08-26T21:12:31.721-0300][gc,cpu       ] GC(29) User=0.02s Sys=0.01s Real=0.01s
[2021-08-26T21:13:00.192-0300][gc,start     ] GC(30) Pause Young (Allocation Failure)
[2021-08-26T21:13:00.194-0300][gc,task      ] GC(30) Using 4 workers of 4 for evacuation
[2021-08-26T21:13:00.199-0300][gc,heap      ] GC(30) ParNew: 56159K->4182K(59008K)
[2021-08-26T21:13:00.199-0300][gc,heap      ] GC(30) CMS: 41766K->41982K(65536K)
[2021-08-26T21:13:00.199-0300][gc,metaspace ] GC(30) Metaspace: 60792K->60792K(1103872K)
[2021-08-26T21:13:00.199-0300][gc           ] GC(30) Pause Young (Allocation Failure) 95M->45M(121M) 7.068ms
[2021-08-26T21:13:00.199-0300][gc,cpu       ] GC(30) User=0.01s Sys=0.00s Real=0.00s
[2021-08-26T21:13:25.317-0300][gc,start     ] GC(31) Pause Young (Allocation Failure)
[2021-08-26T21:13:25.319-0300][gc,task      ] GC(31) Using 4 workers of 4 for evacuation
[2021-08-26T21:13:25.323-0300][gc,heap      ] GC(31) ParNew: 56662K->2547K(59008K)
[2021-08-26T21:13:25.323-0300][gc,heap      ] GC(31) CMS: 41982K->41985K(65536K)
[2021-08-26T21:13:25.323-0300][gc,metaspace ] GC(31) Metaspace: 60949K->60949K(1105920K)
[2021-08-26T21:13:25.323-0300][gc           ] GC(31) Pause Young (Allocation Failure) 96M->43M(121M) 6.056ms
[2021-08-26T21:13:25.323-0300][gc,cpu       ] GC(31) User=0.02s Sys=0.00s Real=0.01s
[2021-08-26T21:13:59.155-0300][gc,start     ] GC(32) Pause Young (Allocation Failure)
[2021-08-26T21:13:59.157-0300][gc,task      ] GC(32) Using 4 workers of 4 for evacuation
[2021-08-26T21:13:59.162-0300][gc,heap      ] GC(32) ParNew: 55027K->1650K(59008K)
[2021-08-26T21:13:59.162-0300][gc,heap      ] GC(32) CMS: 41985K->42209K(65536K)
[2021-08-26T21:13:59.162-0300][gc,metaspace ] GC(32) Metaspace: 60979K->60979K(1105920K)
[2021-08-26T21:13:59.162-0300][gc           ] GC(32) Pause Young (Allocation Failure) 94M->42M(121M) 7.006ms
[2021-08-26T21:13:59.162-0300][gc,cpu       ] GC(32) User=0.01s Sys=0.00s Real=0.01s
[2021-08-26T21:14:27.015-0300][gc,start     ] GC(33) Pause Young (Allocation Failure)
[2021-08-26T21:14:27.016-0300][gc,task      ] GC(33) Using 4 workers of 4 for evacuation
[2021-08-26T21:14:27.022-0300][gc,heap      ] GC(33) ParNew: 54130K->1300K(59008K)
[2021-08-26T21:14:27.022-0300][gc,heap      ] GC(33) CMS: 42209K->42887K(65536K)
[2021-08-26T21:14:27.022-0300][gc,metaspace ] GC(33) Metaspace: 61088K->61088K(1105920K)
[2021-08-26T21:14:27.022-0300][gc           ] GC(33) Pause Young (Allocation Failure) 94M->43M(121M) 6.646ms
[2021-08-26T21:14:27.022-0300][gc,cpu       ] GC(33) User=0.01s Sys=0.00s Real=0.01s
[2021-08-26T21:14:41.441-0300][gc,start     ] GC(34) Pause Young (Allocation Failure)
[2021-08-26T21:14:41.441-0300][gc,task      ] GC(34) Using 4 workers of 4 for evacuation
[2021-08-26T21:14:41.446-0300][gc,heap      ] GC(34) ParNew: 53780K->1023K(59008K)
[2021-08-26T21:14:41.446-0300][gc,heap      ] GC(34) CMS: 42887K->42904K(65536K)
[2021-08-26T21:14:41.446-0300][gc,metaspace ] GC(34) Metaspace: 61205K->61205K(1105920K)
[2021-08-26T21:14:41.446-0300][gc           ] GC(34) Pause Young (Allocation Failure) 94M->42M(121M) 4.538ms
[2021-08-26T21:14:41.446-0300][gc,cpu       ] GC(34) User=0.01s Sys=0.00s Real=0.00s
[2021-08-26T21:15:24.601-0300][gc,start     ] GC(35) Pause Young (Allocation Failure)
[2021-08-26T21:15:24.601-0300][gc,task      ] GC(35) Using 4 workers of 4 for evacuation
[2021-08-26T21:15:24.605-0300][gc,heap      ] GC(35) ParNew: 53503K->1311K(59008K)
[2021-08-26T21:15:24.605-0300][gc,heap      ] GC(35) CMS: 42904K->42957K(65536K)
[2021-08-26T21:15:24.605-0300][gc,metaspace ] GC(35) Metaspace: 61318K->61318K(1105920K)
[2021-08-26T21:15:24.605-0300][gc           ] GC(35) Pause Young (Allocation Failure) 94M->43M(121M) 3.559ms
[2021-08-26T21:15:24.605-0300][gc,cpu       ] GC(35) User=0.01s Sys=0.00s Real=0.00s
[2021-08-26T21:20:59.556-0300][gc,start     ] GC(36) Pause Young (Allocation Failure)
[2021-08-26T21:20:59.556-0300][gc,task      ] GC(36) Using 4 workers of 4 for evacuation
[2021-08-26T21:20:59.570-0300][gc,heap      ] GC(36) ParNew: 53791K->1742K(59008K)
[2021-08-26T21:20:59.570-0300][gc,heap      ] GC(36) CMS: 42957K->42959K(65536K)
[2021-08-26T21:20:59.570-0300][gc,metaspace ] GC(36) Metaspace: 61413K->61413K(1105920K)
[2021-08-26T21:20:59.570-0300][gc           ] GC(36) Pause Young (Allocation Failure) 94M->43M(121M) 14.490ms
[2021-08-26T21:20:59.570-0300][gc,cpu       ] GC(36) User=0.02s Sys=0.02s Real=0.02s
[2021-08-26T21:22:47.796-0300][gc,start     ] GC(37) Pause Young (Allocation Failure)
[2021-08-26T21:22:47.798-0300][gc,task      ] GC(37) Using 4 workers of 4 for evacuation
[2021-08-26T21:22:47.807-0300][gc,heap      ] GC(37) ParNew: 54222K->3097K(59008K)
[2021-08-26T21:22:47.807-0300][gc,heap      ] GC(37) CMS: 42959K->43216K(65536K)
[2021-08-26T21:22:47.807-0300][gc,metaspace ] GC(37) Metaspace: 61503K->61503K(1105920K)
[2021-08-26T21:22:47.807-0300][gc           ] GC(37) Pause Young (Allocation Failure) 94M->45M(121M) 10.811ms
[2021-08-26T21:22:47.807-0300][gc,cpu       ] GC(37) User=0.02s Sys=0.01s Real=0.01s
[2021-08-26T22:33:37.993-0300][gc,start     ] GC(38) Pause Young (Allocation Failure)
[2021-08-26T22:33:37.993-0300][gc,task      ] GC(38) Using 4 workers of 4 for evacuation
[2021-08-26T22:33:38.033-0300][gc,heap      ] GC(38) ParNew: 55577K->2082K(59008K)
[2021-08-26T22:33:38.033-0300][gc,heap      ] GC(38) CMS: 43216K->43225K(65536K)
[2021-08-26T22:33:38.033-0300][gc,metaspace ] GC(38) Metaspace: 61609K->61609K(1105920K)
[2021-08-26T22:33:38.033-0300][gc           ] GC(38) Pause Young (Allocation Failure) 96M->44M(121M) 40.736ms
[2021-08-26T22:33:38.033-0300][gc,cpu       ] GC(38) User=0.01s Sys=0.05s Real=0.04s
[2021-08-26T22:35:15.683-0300][gc,start     ] GC(39) Pause Young (Allocation Failure)
[2021-08-26T22:35:15.685-0300][gc,task      ] GC(39) Using 4 workers of 4 for evacuation
[2021-08-26T22:35:15.724-0300][gc,heap      ] GC(39) ParNew: 54562K->2764K(59008K)
[2021-08-26T22:35:15.724-0300][gc,heap      ] GC(39) CMS: 43225K->43307K(65536K)
[2021-08-26T22:35:15.724-0300][gc,metaspace ] GC(39) Metaspace: 61702K->61702K(1105920K)
[2021-08-26T22:35:15.724-0300][gc           ] GC(39) Pause Young (Allocation Failure) 95M->44M(121M) 41.565ms
[2021-08-26T22:35:15.724-0300][gc,cpu       ] GC(39) User=0.03s Sys=0.10s Real=0.04s
[2021-08-26T22:37:57.807-0300][gc,start     ] GC(40) Pause Young (Allocation Failure)
[2021-08-26T22:37:57.807-0300][gc,task      ] GC(40) Using 4 workers of 4 for evacuation
[2021-08-26T22:37:57.816-0300][gc,heap      ] GC(40) ParNew: 55244K->3539K(59008K)
[2021-08-26T22:37:57.816-0300][gc,heap      ] GC(40) CMS: 43307K->43583K(65536K)
[2021-08-26T22:37:57.816-0300][gc,metaspace ] GC(40) Metaspace: 61746K->61746K(1105920K)
[2021-08-26T22:37:57.816-0300][gc           ] GC(40) Pause Young (Allocation Failure) 96M->46M(121M) 8.783ms
[2021-08-26T22:37:57.816-0300][gc,cpu       ] GC(40) User=0.01s Sys=0.00s Real=0.01s
[2021-08-26T22:39:20.289-0300][gc,start     ] GC(41) Pause Young (Allocation Failure)
[2021-08-26T22:39:20.289-0300][gc,task      ] GC(41) Using 4 workers of 4 for evacuation
[2021-08-26T22:39:20.296-0300][gc,heap      ] GC(41) ParNew: 56019K->2647K(59008K)
[2021-08-26T22:39:20.296-0300][gc,heap      ] GC(41) CMS: 43583K->43775K(65536K)
[2021-08-26T22:39:20.296-0300][gc,metaspace ] GC(41) Metaspace: 62403K->62403K(1105920K)
[2021-08-26T22:39:20.296-0300][gc           ] GC(41) Pause Young (Allocation Failure) 97M->45M(121M) 7.322ms
[2021-08-26T22:39:20.296-0300][gc,cpu       ] GC(41) User=0.02s Sys=0.00s Real=0.01s
[2021-08-26T22:40:14.692-0300][gc,start     ] GC(42) Pause Young (Allocation Failure)
[2021-08-26T22:40:14.692-0300][gc,task      ] GC(42) Using 4 workers of 4 for evacuation
[2021-08-26T22:40:14.697-0300][gc,heap      ] GC(42) ParNew: 55127K->2779K(59008K)
[2021-08-26T22:40:14.697-0300][gc,heap      ] GC(42) CMS: 43775K->43984K(65536K)
[2021-08-26T22:40:14.697-0300][gc,metaspace ] GC(42) Metaspace: 62607K->62607K(1105920K)
[2021-08-26T22:40:14.697-0300][gc           ] GC(42) Pause Young (Allocation Failure) 96M->45M(121M) 5.152ms
[2021-08-26T22:40:14.697-0300][gc,cpu       ] GC(42) User=0.01s Sys=0.00s Real=0.00s
[2021-08-26T22:42:11.103-0300][gc,start     ] GC(43) Pause Young (Allocation Failure)
[2021-08-26T22:42:11.103-0300][gc,task      ] GC(43) Using 4 workers of 4 for evacuation
[2021-08-26T22:42:11.108-0300][gc,heap      ] GC(43) ParNew: 55259K->3186K(59008K)
[2021-08-26T22:42:11.108-0300][gc,heap      ] GC(43) CMS: 43984K->44003K(65536K)
[2021-08-26T22:42:11.108-0300][gc,metaspace ] GC(43) Metaspace: 62626K->62626K(1105920K)
[2021-08-26T22:42:11.108-0300][gc           ] GC(43) Pause Young (Allocation Failure) 96M->46M(121M) 5.352ms
[2021-08-26T22:42:11.108-0300][gc,cpu       ] GC(43) User=0.01s Sys=0.00s Real=0.00s
[2021-08-26T22:43:20.454-0300][gc,start     ] GC(44) Pause Young (Allocation Failure)
[2021-08-26T22:43:20.455-0300][gc,task      ] GC(44) Using 4 workers of 4 for evacuation
[2021-08-26T22:43:20.458-0300][gc,heap      ] GC(44) ParNew: 55666K->1989K(59008K)
[2021-08-26T22:43:20.458-0300][gc,heap      ] GC(44) CMS: 44003K->44063K(65536K)
[2021-08-26T22:43:20.458-0300][gc,metaspace ] GC(44) Metaspace: 62716K->62716K(1105920K)
[2021-08-26T22:43:20.458-0300][gc           ] GC(44) Pause Young (Allocation Failure) 97M->44M(121M) 3.809ms
[2021-08-26T22:43:20.458-0300][gc,cpu       ] GC(44) User=0.01s Sys=0.00s Real=0.00s
[2021-08-26T22:43:47.796-0300][gc,start     ] GC(45) Pause Young (Allocation Failure)
[2021-08-26T22:43:47.796-0300][gc,task      ] GC(45) Using 4 workers of 4 for evacuation
[2021-08-26T22:43:47.799-0300][gc,heap      ] GC(45) ParNew: 54469K->2039K(59008K)
[2021-08-26T22:43:47.799-0300][gc,heap      ] GC(45) CMS: 44063K->44107K(65536K)
[2021-08-26T22:43:47.799-0300][gc,metaspace ] GC(45) Metaspace: 62862K->62862K(1107968K)
[2021-08-26T22:43:47.799-0300][gc           ] GC(45) Pause Young (Allocation Failure) 96M->45M(121M) 3.513ms
[2021-08-26T22:43:47.800-0300][gc,cpu       ] GC(45) User=0.01s Sys=0.00s Real=0.01s
[2021-08-26T22:46:56.450-0300][gc,heap,exit ] Heap
[2021-08-26T22:46:56.450-0300][gc,heap,exit ]  par new generation   total 59008K, used 48367K [0x0000000740000000, 0x0000000744000000, 0x00000007a0000000)
[2021-08-26T22:46:56.450-0300][gc,heap,exit ]   eden space 52480K,  88% used [0x0000000740000000, 0x0000000742d3dff0, 0x0000000743340000)
[2021-08-26T22:46:56.451-0300][gc,heap,exit ]   from space 6528K,  31% used [0x0000000743340000, 0x000000074353de90, 0x00000007439a0000)
[2021-08-26T22:46:56.451-0300][gc,heap,exit ]   to   space 6528K,   0% used [0x00000007439a0000, 0x00000007439a0000, 0x0000000744000000)
[2021-08-26T22:46:56.451-0300][gc,heap,exit ]  concurrent mark-sweep generation total 65536K, used 44107K [0x00000007a0000000, 0x00000007a4000000, 0x0000000800000000)
[2021-08-26T22:46:56.451-0300][gc,heap,exit ]  Metaspace       used 63093K, capacity 66239K, committed 66484K, reserved 1107968K
[2021-08-26T22:46:56.451-0300][gc,heap,exit ]   class space    used 7589K, capacity 8777K, committed 8780K, reserved 1048576K
