[2021-08-26T20:32:01.945-0300][gc,heap] Heap region size: 1M
[2021-08-26T20:32:01.951-0300][gc     ] Using G1
[2021-08-26T20:32:01.951-0300][gc,heap,coops] Heap address: 0x00000007e0000000, size: 512 MB, Compressed Oops mode: Zero based, Oop shift amount: 3
[2021-08-26T20:32:01.952-0300][gc,cds       ] Mark closed archive regions in map: [0x00000007fff00000, 0x00000007fff76ff8]
[2021-08-26T20:32:01.952-0300][gc,cds       ] Mark open archive regions in map: [0x00000007ffe00000, 0x00000007ffe46ff8]
[2021-08-26T20:32:01.985-0300][gc           ] Periodic GC disabled
[2021-08-26T20:32:03.649-0300][gc,start     ] GC(0) Pause Young (Normal) (G1 Evacuation Pause)
[2021-08-26T20:32:03.649-0300][gc,task      ] GC(0) Using 4 workers of 4 for evacuation
[2021-08-26T20:32:03.665-0300][gc,phases    ] GC(0)   Pre Evacuate Collection Set: 0.0ms
[2021-08-26T20:32:03.665-0300][gc,phases    ] GC(0)   Evacuate Collection Set: 13.8ms
[2021-08-26T20:32:03.665-0300][gc,phases    ] GC(0)   Post Evacuate Collection Set: 1.5ms
[2021-08-26T20:32:03.665-0300][gc,phases    ] GC(0)   Other: 0.8ms
[2021-08-26T20:32:03.665-0300][gc,heap      ] GC(0) Eden regions: 25->0(21)
[2021-08-26T20:32:03.665-0300][gc,heap      ] GC(0) Survivor regions: 0->4(4)
[2021-08-26T20:32:03.665-0300][gc,heap      ] GC(0) Old regions: 0->13
[2021-08-26T20:32:03.665-0300][gc,heap      ] GC(0) Archive regions: 2->2
[2021-08-26T20:32:03.665-0300][gc,heap      ] GC(0) Humongous regions: 2->2
[2021-08-26T20:32:03.665-0300][gc,metaspace ] GC(0) Metaspace: 900K->900K(1056768K)
[2021-08-26T20:32:03.665-0300][gc           ] GC(0) Pause Young (Normal) (G1 Evacuation Pause) 27M->19M(512M) 16.521ms
[2021-08-26T20:32:03.665-0300][gc,cpu       ] GC(0) User=0.03s Sys=0.01s Real=0.02s
[2021-08-26T20:32:05.139-0300][gc,start     ] GC(1) Pause Young (Normal) (G1 Evacuation Pause)
[2021-08-26T20:32:05.139-0300][gc,task      ] GC(1) Using 4 workers of 4 for evacuation
[2021-08-26T20:32:05.150-0300][gc,phases    ] GC(1)   Pre Evacuate Collection Set: 0.0ms
[2021-08-26T20:32:05.150-0300][gc,phases    ] GC(1)   Evacuate Collection Set: 11.0ms
[2021-08-26T20:32:05.151-0300][gc,phases    ] GC(1)   Post Evacuate Collection Set: 0.4ms
[2021-08-26T20:32:05.151-0300][gc,phases    ] GC(1)   Other: 0.3ms
[2021-08-26T20:32:05.151-0300][gc,heap      ] GC(1) Eden regions: 21->0(21)
[2021-08-26T20:32:05.151-0300][gc,heap      ] GC(1) Survivor regions: 4->4(4)
[2021-08-26T20:32:05.151-0300][gc,heap      ] GC(1) Old regions: 13->21
[2021-08-26T20:32:05.151-0300][gc,heap      ] GC(1) Archive regions: 2->2
[2021-08-26T20:32:05.151-0300][gc,heap      ] GC(1) Humongous regions: 5->4
[2021-08-26T20:32:05.151-0300][gc,metaspace ] GC(1) Metaspace: 5502K->5502K(1056768K)
[2021-08-26T20:32:05.151-0300][gc           ] GC(1) Pause Young (Normal) (G1 Evacuation Pause) 43M->28M(512M) 12.043ms
[2021-08-26T20:32:05.151-0300][gc,cpu       ] GC(1) User=0.03s Sys=0.01s Real=0.02s
[2021-08-26T20:37:00.693-0300][gc,start     ] GC(2) Pause Young (Normal) (G1 Evacuation Pause)
[2021-08-26T20:37:00.694-0300][gc,task      ] GC(2) Using 4 workers of 4 for evacuation
[2021-08-26T20:37:00.738-0300][gc,mmu       ] GC(2) MMU target violated: 21.0ms (20.0ms/21.0ms)
[2021-08-26T20:37:00.738-0300][gc,phases    ] GC(2)   Pre Evacuate Collection Set: 0.1ms
[2021-08-26T20:37:00.738-0300][gc,phases    ] GC(2)   Evacuate Collection Set: 42.4ms
[2021-08-26T20:37:00.738-0300][gc,phases    ] GC(2)   Post Evacuate Collection Set: 0.8ms
[2021-08-26T20:37:00.738-0300][gc,phases    ] GC(2)   Other: 2.0ms
[2021-08-26T20:37:00.738-0300][gc,heap      ] GC(2) Eden regions: 21->0(23)
[2021-08-26T20:37:00.738-0300][gc,heap      ] GC(2) Survivor regions: 4->2(4)
[2021-08-26T20:37:00.738-0300][gc,heap      ] GC(2) Old regions: 21->25
[2021-08-26T20:37:00.738-0300][gc,heap      ] GC(2) Archive regions: 2->2
[2021-08-26T20:37:00.738-0300][gc,heap      ] GC(2) Humongous regions: 4->4
[2021-08-26T20:37:00.738-0300][gc,metaspace ] GC(2) Metaspace: 8186K->8186K(1056768K)
[2021-08-26T20:37:00.738-0300][gc           ] GC(2) Pause Young (Normal) (G1 Evacuation Pause) 49M->30M(512M) 45.314ms
[2021-08-26T20:37:00.738-0300][gc,cpu       ] GC(2) User=0.02s Sys=0.05s Real=0.04s
