[2021-08-25T16:45:12.848-0300][gc,heap] Heap region size: 1M
[2021-08-25T16:45:12.855-0300][gc     ] Using G1
[2021-08-25T16:45:12.855-0300][gc,heap,coops] Heap address: 0x00000007e0000000, size: 512 MB, Compressed Oops mode: Zero based, Oop shift amount: 3
[2021-08-25T16:45:12.855-0300][gc,cds       ] Mark closed archive regions in map: [0x00000007fff00000, 0x00000007fff76ff8]
[2021-08-25T16:45:12.855-0300][gc,cds       ] Mark open archive regions in map: [0x00000007ffe00000, 0x00000007ffe46ff8]
[2021-08-25T16:45:12.876-0300][gc           ] Periodic GC disabled
[2021-08-25T16:45:13.306-0300][gc,start     ] GC(0) Pause Young (Normal) (G1 Evacuation Pause)
[2021-08-25T16:45:13.306-0300][gc,task      ] GC(0) Using 4 workers of 4 for evacuation
[2021-08-25T16:45:13.320-0300][gc,phases    ] GC(0)   Pre Evacuate Collection Set: 0.0ms
[2021-08-25T16:45:13.320-0300][gc,phases    ] GC(0)   Evacuate Collection Set: 13.0ms
[2021-08-25T16:45:13.320-0300][gc,phases    ] GC(0)   Post Evacuate Collection Set: 0.3ms
[2021-08-25T16:45:13.320-0300][gc,phases    ] GC(0)   Other: 0.4ms
[2021-08-25T16:45:13.320-0300][gc,heap      ] GC(0) Eden regions: 25->0(21)
[2021-08-25T16:45:13.320-0300][gc,heap      ] GC(0) Survivor regions: 0->4(4)
[2021-08-25T16:45:13.320-0300][gc,heap      ] GC(0) Old regions: 0->13
[2021-08-25T16:45:13.320-0300][gc,heap      ] GC(0) Archive regions: 2->2
[2021-08-25T16:45:13.320-0300][gc,heap      ] GC(0) Humongous regions: 2->2
[2021-08-25T16:45:13.320-0300][gc,metaspace ] GC(0) Metaspace: 868K->868K(1056768K)
[2021-08-25T16:45:13.320-0300][gc           ] GC(0) Pause Young (Normal) (G1 Evacuation Pause) 27M->19M(512M) 14.034ms
[2021-08-25T16:45:13.320-0300][gc,cpu       ] GC(0) User=0.03s Sys=0.01s Real=0.02s
[2021-08-25T16:45:13.727-0300][gc,start     ] GC(1) Pause Young (Normal) (G1 Evacuation Pause)
[2021-08-25T16:45:13.727-0300][gc,task      ] GC(1) Using 4 workers of 4 for evacuation
[2021-08-25T16:45:13.739-0300][gc,phases    ] GC(1)   Pre Evacuate Collection Set: 0.0ms
[2021-08-25T16:45:13.740-0300][gc,phases    ] GC(1)   Evacuate Collection Set: 12.4ms
[2021-08-25T16:45:13.740-0300][gc,phases    ] GC(1)   Post Evacuate Collection Set: 0.3ms
[2021-08-25T16:45:13.740-0300][gc,phases    ] GC(1)   Other: 0.2ms
[2021-08-25T16:45:13.740-0300][gc,heap      ] GC(1) Eden regions: 21->0(21)
[2021-08-25T16:45:13.740-0300][gc,heap      ] GC(1) Survivor regions: 4->4(4)
[2021-08-25T16:45:13.740-0300][gc,heap      ] GC(1) Old regions: 13->21
[2021-08-25T16:45:13.740-0300][gc,heap      ] GC(1) Archive regions: 2->2
[2021-08-25T16:45:13.740-0300][gc,heap      ] GC(1) Humongous regions: 5->4
[2021-08-25T16:45:13.740-0300][gc,metaspace ] GC(1) Metaspace: 5495K->5495K(1056768K)
[2021-08-25T16:45:13.740-0300][gc           ] GC(1) Pause Young (Normal) (G1 Evacuation Pause) 43M->28M(512M) 13.106ms
[2021-08-25T16:45:13.740-0300][gc,cpu       ] GC(1) User=0.04s Sys=0.00s Real=0.02s
[2021-08-25T16:51:38.699-0300][gc,start     ] GC(2) Pause Young (Normal) (G1 Evacuation Pause)
[2021-08-25T16:51:38.699-0300][gc,task      ] GC(2) Using 4 workers of 4 for evacuation
[2021-08-25T16:51:38.728-0300][gc,mmu       ] GC(2) MMU target violated: 21.0ms (20.0ms/21.0ms)
[2021-08-25T16:51:38.728-0300][gc,phases    ] GC(2)   Pre Evacuate Collection Set: 0.1ms
[2021-08-25T16:51:38.728-0300][gc,phases    ] GC(2)   Evacuate Collection Set: 26.9ms
[2021-08-25T16:51:38.728-0300][gc,phases    ] GC(2)   Post Evacuate Collection Set: 0.7ms
[2021-08-25T16:51:38.728-0300][gc,phases    ] GC(2)   Other: 1.4ms
[2021-08-25T16:51:38.728-0300][gc,heap      ] GC(2) Eden regions: 21->0(23)
[2021-08-25T16:51:38.728-0300][gc,heap      ] GC(2) Survivor regions: 4->2(4)
[2021-08-25T16:51:38.728-0300][gc,heap      ] GC(2) Old regions: 21->25
[2021-08-25T16:51:38.728-0300][gc,heap      ] GC(2) Archive regions: 2->2
[2021-08-25T16:51:38.728-0300][gc,heap      ] GC(2) Humongous regions: 4->4
[2021-08-25T16:51:38.728-0300][gc,metaspace ] GC(2) Metaspace: 8183K->8183K(1056768K)
[2021-08-25T16:51:38.728-0300][gc           ] GC(2) Pause Young (Normal) (G1 Evacuation Pause) 49M->30M(512M) 29.099ms
[2021-08-25T16:51:38.728-0300][gc,cpu       ] GC(2) User=0.02s Sys=0.06s Real=0.03s
[2021-08-25T19:14:48.812-0300][gc,start     ] GC(3) Pause Young (Normal) (G1 Evacuation Pause)
[2021-08-25T19:14:48.813-0300][gc,task      ] GC(3) Using 4 workers of 4 for evacuation
[2021-08-25T19:14:48.844-0300][gc,mmu       ] GC(3) MMU target violated: 21.0ms (20.0ms/21.0ms)
[2021-08-25T19:14:48.844-0300][gc,phases    ] GC(3)   Pre Evacuate Collection Set: 0.1ms
[2021-08-25T19:14:48.844-0300][gc,phases    ] GC(3)   Evacuate Collection Set: 25.8ms
[2021-08-25T19:14:48.844-0300][gc,phases    ] GC(3)   Post Evacuate Collection Set: 0.4ms
[2021-08-25T19:14:48.844-0300][gc,phases    ] GC(3)   Other: 5.5ms
[2021-08-25T19:14:48.844-0300][gc,heap      ] GC(3) Eden regions: 23->0(23)
[2021-08-25T19:14:48.844-0300][gc,heap      ] GC(3) Survivor regions: 2->2(4)
[2021-08-25T19:14:48.844-0300][gc,heap      ] GC(3) Old regions: 25->25
[2021-08-25T19:14:48.844-0300][gc,heap      ] GC(3) Archive regions: 2->2
[2021-08-25T19:14:48.844-0300][gc,heap      ] GC(3) Humongous regions: 4->4
[2021-08-25T19:14:48.844-0300][gc,metaspace ] GC(3) Metaspace: 8209K->8209K(1056768K)
[2021-08-25T19:14:48.844-0300][gc           ] GC(3) Pause Young (Normal) (G1 Evacuation Pause) 53M->30M(512M) 31.885ms
[2021-08-25T19:14:48.844-0300][gc,cpu       ] GC(3) User=0.01s Sys=0.04s Real=0.03s
[2021-08-25T21:59:18.222-0300][gc,heap,exit ] Heap
[2021-08-25T21:59:18.225-0300][gc,heap,exit ]  garbage-first heap   total 524288K, used 44850K [0x00000007e0000000, 0x0000000800000000)
[2021-08-25T21:59:18.226-0300][gc,heap,exit ]   region size 1024K, 16 young (16384K), 2 survivors (2048K)
[2021-08-25T21:59:18.226-0300][gc,heap,exit ]  Metaspace       used 8214K, capacity 8520K, committed 8704K, reserved 1056768K
[2021-08-25T21:59:18.226-0300][gc,heap,exit ]   class space    used 865K, capacity 970K, committed 1024K, reserved 1048576K
