[2021-08-26T21:00:16.924-0300][gc,heap] Heap region size: 1M
[2021-08-26T21:00:16.930-0300][gc     ] Using G1
[2021-08-26T21:00:16.930-0300][gc,heap,coops] Heap address: 0x00000007e0000000, size: 512 MB, Compressed Oops mode: Zero based, Oop shift amount: 3
[2021-08-26T21:00:16.930-0300][gc,cds       ] Mark closed archive regions in map: [0x00000007fff00000, 0x00000007fff76ff8]
[2021-08-26T21:00:16.930-0300][gc,cds       ] Mark open archive regions in map: [0x00000007ffe00000, 0x00000007ffe46ff8]
[2021-08-26T21:00:16.950-0300][gc           ] Periodic GC disabled
[2021-08-26T21:00:17.446-0300][gc,start     ] GC(0) Pause Young (Normal) (G1 Evacuation Pause)
[2021-08-26T21:00:17.447-0300][gc,task      ] GC(0) Using 4 workers of 4 for evacuation
[2021-08-26T21:00:17.477-0300][gc,mmu       ] GC(0) MMU target violated: 21.0ms (20.0ms/21.0ms)
[2021-08-26T21:00:17.477-0300][gc,phases    ] GC(0)   Pre Evacuate Collection Set: 0.0ms
[2021-08-26T21:00:17.477-0300][gc,phases    ] GC(0)   Evacuate Collection Set: 26.4ms
[2021-08-26T21:00:17.477-0300][gc,phases    ] GC(0)   Post Evacuate Collection Set: 3.4ms
[2021-08-26T21:00:17.477-0300][gc,phases    ] GC(0)   Other: 1.1ms
[2021-08-26T21:00:17.477-0300][gc,heap      ] GC(0) Eden regions: 25->0(21)
[2021-08-26T21:00:17.477-0300][gc,heap      ] GC(0) Survivor regions: 0->4(4)
[2021-08-26T21:00:17.477-0300][gc,heap      ] GC(0) Old regions: 0->13
[2021-08-26T21:00:17.477-0300][gc,heap      ] GC(0) Archive regions: 2->2
[2021-08-26T21:00:17.477-0300][gc,heap      ] GC(0) Humongous regions: 2->2
[2021-08-26T21:00:17.477-0300][gc,metaspace ] GC(0) Metaspace: 887K->887K(1056768K)
[2021-08-26T21:00:17.477-0300][gc           ] GC(0) Pause Young (Normal) (G1 Evacuation Pause) 27M->19M(512M) 31.121ms
[2021-08-26T21:00:17.477-0300][gc,cpu       ] GC(0) User=0.06s Sys=0.01s Real=0.03s
[2021-08-26T21:00:18.186-0300][gc,start     ] GC(1) Pause Young (Normal) (G1 Evacuation Pause)
[2021-08-26T21:00:18.186-0300][gc,task      ] GC(1) Using 4 workers of 4 for evacuation
[2021-08-26T21:00:18.200-0300][gc,phases    ] GC(1)   Pre Evacuate Collection Set: 0.0ms
[2021-08-26T21:00:18.201-0300][gc,phases    ] GC(1)   Evacuate Collection Set: 13.3ms
[2021-08-26T21:00:18.201-0300][gc,phases    ] GC(1)   Post Evacuate Collection Set: 0.6ms
[2021-08-26T21:00:18.201-0300][gc,phases    ] GC(1)   Other: 0.3ms
[2021-08-26T21:00:18.201-0300][gc,heap      ] GC(1) Eden regions: 21->0(21)
[2021-08-26T21:00:18.201-0300][gc,heap      ] GC(1) Survivor regions: 4->4(4)
[2021-08-26T21:00:18.201-0300][gc,heap      ] GC(1) Old regions: 13->21
[2021-08-26T21:00:18.201-0300][gc,heap      ] GC(1) Archive regions: 2->2
[2021-08-26T21:00:18.201-0300][gc,heap      ] GC(1) Humongous regions: 5->4
[2021-08-26T21:00:18.201-0300][gc,metaspace ] GC(1) Metaspace: 5284K->5284K(1056768K)
[2021-08-26T21:00:18.201-0300][gc           ] GC(1) Pause Young (Normal) (G1 Evacuation Pause) 43M->29M(512M) 14.581ms
[2021-08-26T21:00:18.201-0300][gc,cpu       ] GC(1) User=0.03s Sys=0.01s Real=0.02s
[2021-08-26T21:00:18.701-0300][gc,heap,exit ] Heap
[2021-08-26T21:00:18.701-0300][gc,heap,exit ]  garbage-first heap   total 524288K, used 38950K [0x00000007e0000000, 0x0000000800000000)
[2021-08-26T21:00:18.701-0300][gc,heap,exit ]   region size 1024K, 15 young (15360K), 4 survivors (4096K)
[2021-08-26T21:00:18.701-0300][gc,heap,exit ]  Metaspace       used 6650K, capacity 6904K, committed 7040K, reserved 1056768K
[2021-08-26T21:00:18.701-0300][gc,heap,exit ]   class space    used 751K, capacity 839K, committed 896K, reserved 1048576K
