[2021-08-27T22:21:50.983-0300][gc,heap] Heap region size: 1M
[2021-08-27T22:21:50.990-0300][gc     ] Using G1
[2021-08-27T22:21:50.990-0300][gc,heap,coops] Heap address: 0x00000007e0000000, size: 512 MB, Compressed Oops mode: Zero based, Oop shift amount: 3
[2021-08-27T22:21:50.991-0300][gc,cds       ] Mark closed archive regions in map: [0x00000007fff00000, 0x00000007fff76ff8]
[2021-08-27T22:21:50.991-0300][gc,cds       ] Mark open archive regions in map: [0x00000007ffe00000, 0x00000007ffe46ff8]
[2021-08-27T22:21:51.016-0300][gc           ] Periodic GC disabled
[2021-08-27T22:21:52.935-0300][gc,start     ] GC(0) Pause Young (Normal) (G1 Evacuation Pause)
[2021-08-27T22:21:52.935-0300][gc,task      ] GC(0) Using 4 workers of 4 for evacuation
[2021-08-27T22:21:52.952-0300][gc,phases    ] GC(0)   Pre Evacuate Collection Set: 0.0ms
[2021-08-27T22:21:52.952-0300][gc,phases    ] GC(0)   Evacuate Collection Set: 16.4ms
[2021-08-27T22:21:52.952-0300][gc,phases    ] GC(0)   Post Evacuate Collection Set: 0.4ms
[2021-08-27T22:21:52.952-0300][gc,phases    ] GC(0)   Other: 0.6ms
[2021-08-27T22:21:52.952-0300][gc,heap      ] GC(0) Eden regions: 25->0(21)
[2021-08-27T22:21:52.952-0300][gc,heap      ] GC(0) Survivor regions: 0->4(4)
[2021-08-27T22:21:52.952-0300][gc,heap      ] GC(0) Old regions: 0->13
[2021-08-27T22:21:52.952-0300][gc,heap      ] GC(0) Archive regions: 2->2
[2021-08-27T22:21:52.952-0300][gc,heap      ] GC(0) Humongous regions: 2->2
[2021-08-27T22:21:52.952-0300][gc,metaspace ] GC(0) Metaspace: 889K->889K(1056768K)
[2021-08-27T22:21:52.952-0300][gc           ] GC(0) Pause Young (Normal) (G1 Evacuation Pause) 27M->19M(512M) 17.548ms
[2021-08-27T22:21:52.952-0300][gc,cpu       ] GC(0) User=0.03s Sys=0.01s Real=0.02s
[2021-08-27T22:21:54.009-0300][gc,start     ] GC(1) Pause Young (Normal) (G1 Evacuation Pause)
[2021-08-27T22:21:54.009-0300][gc,task      ] GC(1) Using 4 workers of 4 for evacuation
[2021-08-27T22:21:54.020-0300][gc,phases    ] GC(1)   Pre Evacuate Collection Set: 0.0ms
[2021-08-27T22:21:54.020-0300][gc,phases    ] GC(1)   Evacuate Collection Set: 10.9ms
[2021-08-27T22:21:54.020-0300][gc,phases    ] GC(1)   Post Evacuate Collection Set: 0.3ms
[2021-08-27T22:21:54.020-0300][gc,phases    ] GC(1)   Other: 0.2ms
[2021-08-27T22:21:54.020-0300][gc,heap      ] GC(1) Eden regions: 21->0(21)
[2021-08-27T22:21:54.020-0300][gc,heap      ] GC(1) Survivor regions: 4->4(4)
[2021-08-27T22:21:54.020-0300][gc,heap      ] GC(1) Old regions: 13->21
[2021-08-27T22:21:54.020-0300][gc,heap      ] GC(1) Archive regions: 2->2
[2021-08-27T22:21:54.020-0300][gc,heap      ] GC(1) Humongous regions: 5->4
[2021-08-27T22:21:54.020-0300][gc,metaspace ] GC(1) Metaspace: 5327K->5327K(1056768K)
[2021-08-27T22:21:54.020-0300][gc           ] GC(1) Pause Young (Normal) (G1 Evacuation Pause) 43M->29M(512M) 11.724ms
[2021-08-27T22:21:54.021-0300][gc,cpu       ] GC(1) User=0.03s Sys=0.01s Real=0.02s
[2021-08-27T22:26:20.523-0300][gc,start     ] GC(2) Pause Young (Normal) (G1 Evacuation Pause)
[2021-08-27T22:26:20.524-0300][gc,task      ] GC(2) Using 4 workers of 4 for evacuation
[2021-08-27T22:26:20.556-0300][gc,mmu       ] GC(2) MMU target violated: 21.0ms (20.0ms/21.0ms)
[2021-08-27T22:26:20.556-0300][gc,phases    ] GC(2)   Pre Evacuate Collection Set: 0.1ms
[2021-08-27T22:26:20.556-0300][gc,phases    ] GC(2)   Evacuate Collection Set: 30.7ms
[2021-08-27T22:26:20.556-0300][gc,phases    ] GC(2)   Post Evacuate Collection Set: 0.5ms
[2021-08-27T22:26:20.556-0300][gc,phases    ] GC(2)   Other: 1.7ms
[2021-08-27T22:26:20.556-0300][gc,heap      ] GC(2) Eden regions: 21->0(23)
[2021-08-27T22:26:20.556-0300][gc,heap      ] GC(2) Survivor regions: 4->2(4)
[2021-08-27T22:26:20.556-0300][gc,heap      ] GC(2) Old regions: 21->25
[2021-08-27T22:26:20.556-0300][gc,heap      ] GC(2) Archive regions: 2->2
[2021-08-27T22:26:20.556-0300][gc,heap      ] GC(2) Humongous regions: 4->4
[2021-08-27T22:26:20.556-0300][gc,metaspace ] GC(2) Metaspace: 8204K->8204K(1056768K)
[2021-08-27T22:26:20.556-0300][gc           ] GC(2) Pause Young (Normal) (G1 Evacuation Pause) 50M->30M(512M) 33.135ms
[2021-08-27T22:26:20.556-0300][gc,cpu       ] GC(2) User=0.02s Sys=0.06s Real=0.03s
[2021-08-28T00:34:36.876-0300][gc,start     ] GC(3) Pause Young (Normal) (G1 Evacuation Pause)
[2021-08-28T00:34:36.878-0300][gc,task      ] GC(3) Using 4 workers of 4 for evacuation
[2021-08-28T00:34:36.908-0300][gc,mmu       ] GC(3) MMU target violated: 21.0ms (20.0ms/21.0ms)
[2021-08-28T00:34:36.908-0300][gc,phases    ] GC(3)   Pre Evacuate Collection Set: 0.1ms
[2021-08-28T00:34:36.908-0300][gc,phases    ] GC(3)   Evacuate Collection Set: 25.0ms
[2021-08-28T00:34:36.908-0300][gc,phases    ] GC(3)   Post Evacuate Collection Set: 0.4ms
[2021-08-28T00:34:36.908-0300][gc,phases    ] GC(3)   Other: 6.1ms
[2021-08-28T00:34:36.908-0300][gc,heap      ] GC(3) Eden regions: 23->0(23)
[2021-08-28T00:34:36.908-0300][gc,heap      ] GC(3) Survivor regions: 2->2(4)
[2021-08-28T00:34:36.908-0300][gc,heap      ] GC(3) Old regions: 25->25
[2021-08-28T00:34:36.908-0300][gc,heap      ] GC(3) Archive regions: 2->2
[2021-08-28T00:34:36.908-0300][gc,heap      ] GC(3) Humongous regions: 4->4
[2021-08-28T00:34:36.908-0300][gc,metaspace ] GC(3) Metaspace: 8234K->8234K(1056768K)
[2021-08-28T00:34:36.908-0300][gc           ] GC(3) Pause Young (Normal) (G1 Evacuation Pause) 53M->31M(512M) 31.646ms
[2021-08-28T00:34:36.908-0300][gc,cpu       ] GC(3) User=0.01s Sys=0.04s Real=0.03s
[2021-08-28T00:43:10.481-0300][gc,heap,exit ] Heap
[2021-08-28T00:43:10.485-0300][gc,heap,exit ]  garbage-first heap   total 524288K, used 33799K [0x00000007e0000000, 0x0000000800000000)
[2021-08-28T00:43:10.485-0300][gc,heap,exit ]   region size 1024K, 5 young (5120K), 2 survivors (2048K)
[2021-08-28T00:43:10.485-0300][gc,heap,exit ]  Metaspace       used 8238K, capacity 8520K, committed 8704K, reserved 1056768K
[2021-08-28T00:43:10.485-0300][gc,heap,exit ]   class space    used 865K, capacity 970K, committed 1024K, reserved 1048576K
