[2021-08-26T21:03:57.650-0300][gc,heap] Heap region size: 1M
[2021-08-26T21:03:57.656-0300][gc     ] Using G1
[2021-08-26T21:03:57.656-0300][gc,heap,coops] Heap address: 0x00000007e0000000, size: 512 MB, Compressed Oops mode: Zero based, Oop shift amount: 3
[2021-08-26T21:03:57.657-0300][gc,cds       ] Mark closed archive regions in map: [0x00000007fff00000, 0x00000007fff76ff8]
[2021-08-26T21:03:57.657-0300][gc,cds       ] Mark open archive regions in map: [0x00000007ffe00000, 0x00000007ffe46ff8]
[2021-08-26T21:03:57.677-0300][gc           ] Periodic GC disabled
[2021-08-26T21:03:58.244-0300][gc,start     ] GC(0) Pause Young (Normal) (G1 Evacuation Pause)
[2021-08-26T21:03:58.244-0300][gc,task      ] GC(0) Using 4 workers of 4 for evacuation
[2021-08-26T21:03:58.256-0300][gc,phases    ] GC(0)   Pre Evacuate Collection Set: 0.0ms
[2021-08-26T21:03:58.256-0300][gc,phases    ] GC(0)   Evacuate Collection Set: 11.7ms
[2021-08-26T21:03:58.256-0300][gc,phases    ] GC(0)   Post Evacuate Collection Set: 0.4ms
[2021-08-26T21:03:58.256-0300][gc,phases    ] GC(0)   Other: 0.4ms
[2021-08-26T21:03:58.256-0300][gc,heap      ] GC(0) Eden regions: 25->0(21)
[2021-08-26T21:03:58.256-0300][gc,heap      ] GC(0) Survivor regions: 0->4(4)
[2021-08-26T21:03:58.256-0300][gc,heap      ] GC(0) Old regions: 0->13
[2021-08-26T21:03:58.256-0300][gc,heap      ] GC(0) Archive regions: 2->2
[2021-08-26T21:03:58.256-0300][gc,heap      ] GC(0) Humongous regions: 2->2
[2021-08-26T21:03:58.256-0300][gc,metaspace ] GC(0) Metaspace: 858K->858K(1056768K)
[2021-08-26T21:03:58.256-0300][gc           ] GC(0) Pause Young (Normal) (G1 Evacuation Pause) 27M->18M(512M) 12.767ms
[2021-08-26T21:03:58.256-0300][gc,cpu       ] GC(0) User=0.03s Sys=0.01s Real=0.01s
[2021-08-26T21:03:59.062-0300][gc,start     ] GC(1) Pause Young (Normal) (G1 Evacuation Pause)
[2021-08-26T21:03:59.063-0300][gc,task      ] GC(1) Using 4 workers of 4 for evacuation
[2021-08-26T21:03:59.074-0300][gc,phases    ] GC(1)   Pre Evacuate Collection Set: 0.0ms
[2021-08-26T21:03:59.074-0300][gc,phases    ] GC(1)   Evacuate Collection Set: 10.8ms
[2021-08-26T21:03:59.074-0300][gc,phases    ] GC(1)   Post Evacuate Collection Set: 0.4ms
[2021-08-26T21:03:59.074-0300][gc,phases    ] GC(1)   Other: 0.2ms
[2021-08-26T21:03:59.074-0300][gc,heap      ] GC(1) Eden regions: 21->0(21)
[2021-08-26T21:03:59.074-0300][gc,heap      ] GC(1) Survivor regions: 4->4(4)
[2021-08-26T21:03:59.074-0300][gc,heap      ] GC(1) Old regions: 13->21
[2021-08-26T21:03:59.074-0300][gc,heap      ] GC(1) Archive regions: 2->2
[2021-08-26T21:03:59.074-0300][gc,heap      ] GC(1) Humongous regions: 5->4
[2021-08-26T21:03:59.074-0300][gc,metaspace ] GC(1) Metaspace: 5473K->5473K(1056768K)
[2021-08-26T21:03:59.074-0300][gc           ] GC(1) Pause Young (Normal) (G1 Evacuation Pause) 42M->29M(512M) 11.661ms
[2021-08-26T21:03:59.074-0300][gc,cpu       ] GC(1) User=0.04s Sys=0.00s Real=0.01s
[2021-08-26T21:07:21.253-0300][gc,start     ] GC(2) Pause Young (Normal) (G1 Evacuation Pause)
[2021-08-26T21:07:21.259-0300][gc,task      ] GC(2) Using 4 workers of 4 for evacuation
[2021-08-26T21:07:21.340-0300][gc,mmu       ] GC(2) MMU target violated: 21.0ms (20.0ms/21.0ms)
[2021-08-26T21:07:21.340-0300][gc,phases    ] GC(2)   Pre Evacuate Collection Set: 2.1ms
[2021-08-26T21:07:21.340-0300][gc,phases    ] GC(2)   Evacuate Collection Set: 73.4ms
[2021-08-26T21:07:21.340-0300][gc,phases    ] GC(2)   Post Evacuate Collection Set: 1.0ms
[2021-08-26T21:07:21.340-0300][gc,phases    ] GC(2)   Other: 10.6ms
[2021-08-26T21:07:21.340-0300][gc,heap      ] GC(2) Eden regions: 21->0(23)
[2021-08-26T21:07:21.340-0300][gc,heap      ] GC(2) Survivor regions: 4->2(4)
[2021-08-26T21:07:21.340-0300][gc,heap      ] GC(2) Old regions: 21->25
[2021-08-26T21:07:21.340-0300][gc,heap      ] GC(2) Archive regions: 2->2
[2021-08-26T21:07:21.340-0300][gc,heap      ] GC(2) Humongous regions: 4->4
[2021-08-26T21:07:21.340-0300][gc,metaspace ] GC(2) Metaspace: 8159K->8159K(1056768K)
[2021-08-26T21:07:21.340-0300][gc           ] GC(2) Pause Young (Normal) (G1 Evacuation Pause) 50M->30M(512M) 86.650ms
[2021-08-26T21:07:21.340-0300][gc,cpu       ] GC(2) User=0.02s Sys=0.07s Real=0.09s
[2021-08-26T23:41:51.645-0300][gc,start     ] GC(3) Pause Young (Normal) (G1 Evacuation Pause)
[2021-08-26T23:41:51.648-0300][gc,task      ] GC(3) Using 4 workers of 4 for evacuation
[2021-08-26T23:41:51.772-0300][gc,mmu       ] GC(3) MMU target violated: 21.0ms (20.0ms/21.0ms)
[2021-08-26T23:41:51.773-0300][gc,phases    ] GC(3)   Pre Evacuate Collection Set: 1.3ms
[2021-08-26T23:41:51.773-0300][gc,phases    ] GC(3)   Evacuate Collection Set: 114.0ms
[2021-08-26T23:41:51.773-0300][gc,phases    ] GC(3)   Post Evacuate Collection Set: 2.2ms
[2021-08-26T23:41:51.773-0300][gc,phases    ] GC(3)   Other: 10.7ms
[2021-08-26T23:41:51.773-0300][gc,heap      ] GC(3) Eden regions: 23->0(23)
[2021-08-26T23:41:51.773-0300][gc,heap      ] GC(3) Survivor regions: 2->2(4)
[2021-08-26T23:41:51.773-0300][gc,heap      ] GC(3) Old regions: 25->25
[2021-08-26T23:41:51.773-0300][gc,heap      ] GC(3) Archive regions: 2->2
[2021-08-26T23:41:51.773-0300][gc,heap      ] GC(3) Humongous regions: 4->4
[2021-08-26T23:41:51.773-0300][gc,metaspace ] GC(3) Metaspace: 8258K->8258K(1056768K)
[2021-08-26T23:41:51.773-0300][gc           ] GC(3) Pause Young (Normal) (G1 Evacuation Pause) 53M->30M(512M) 127.670ms
[2021-08-26T23:41:51.773-0300][gc,cpu       ] GC(3) User=0.01s Sys=0.09s Real=0.13s
