[2021-09-09T21:43:12.603-0300][gc,heap] Heap region size: 1M
[2021-09-09T21:43:12.608-0300][gc     ] Using G1
[2021-09-09T21:43:12.608-0300][gc,heap,coops] Heap address: 0x00000007e0000000, size: 512 MB, Compressed Oops mode: Zero based, Oop shift amount: 3
[2021-09-09T21:43:12.609-0300][gc,cds       ] Mark closed archive regions in map: [0x00000007fff00000, 0x00000007fff76ff8]
[2021-09-09T21:43:12.609-0300][gc,cds       ] Mark open archive regions in map: [0x00000007ffe00000, 0x00000007ffe46ff8]
[2021-09-09T21:43:12.629-0300][gc           ] Periodic GC disabled
[2021-09-09T21:43:14.129-0300][gc,start     ] GC(0) Pause Young (Normal) (G1 Evacuation Pause)
[2021-09-09T21:43:14.130-0300][gc,task      ] GC(0) Using 4 workers of 4 for evacuation
[2021-09-09T21:43:14.148-0300][gc,phases    ] GC(0)   Pre Evacuate Collection Set: 0.0ms
[2021-09-09T21:43:14.148-0300][gc,phases    ] GC(0)   Evacuate Collection Set: 17.6ms
[2021-09-09T21:43:14.148-0300][gc,phases    ] GC(0)   Post Evacuate Collection Set: 0.5ms
[2021-09-09T21:43:14.148-0300][gc,phases    ] GC(0)   Other: 0.7ms
[2021-09-09T21:43:14.148-0300][gc,heap      ] GC(0) Eden regions: 25->0(21)
[2021-09-09T21:43:14.148-0300][gc,heap      ] GC(0) Survivor regions: 0->4(4)
[2021-09-09T21:43:14.148-0300][gc,heap      ] GC(0) Old regions: 0->13
[2021-09-09T21:43:14.148-0300][gc,heap      ] GC(0) Archive regions: 2->2
[2021-09-09T21:43:14.148-0300][gc,heap      ] GC(0) Humongous regions: 2->2
[2021-09-09T21:43:14.148-0300][gc,metaspace ] GC(0) Metaspace: 900K->900K(1056768K)
[2021-09-09T21:43:14.148-0300][gc           ] GC(0) Pause Young (Normal) (G1 Evacuation Pause) 27M->18M(512M) 19.018ms
[2021-09-09T21:43:14.148-0300][gc,cpu       ] GC(0) User=0.02s Sys=0.01s Real=0.02s
[2021-09-09T21:43:15.094-0300][gc,start     ] GC(1) Pause Young (Normal) (G1 Evacuation Pause)
[2021-09-09T21:43:15.094-0300][gc,task      ] GC(1) Using 4 workers of 4 for evacuation
[2021-09-09T21:43:15.108-0300][gc,phases    ] GC(1)   Pre Evacuate Collection Set: 0.0ms
[2021-09-09T21:43:15.108-0300][gc,phases    ] GC(1)   Evacuate Collection Set: 13.2ms
[2021-09-09T21:43:15.108-0300][gc,phases    ] GC(1)   Post Evacuate Collection Set: 0.3ms
[2021-09-09T21:43:15.108-0300][gc,phases    ] GC(1)   Other: 0.2ms
[2021-09-09T21:43:15.108-0300][gc,heap      ] GC(1) Eden regions: 21->0(21)
[2021-09-09T21:43:15.108-0300][gc,heap      ] GC(1) Survivor regions: 4->4(4)
[2021-09-09T21:43:15.108-0300][gc,heap      ] GC(1) Old regions: 13->22
[2021-09-09T21:43:15.108-0300][gc,heap      ] GC(1) Archive regions: 2->2
[2021-09-09T21:43:15.108-0300][gc,heap      ] GC(1) Humongous regions: 5->4
[2021-09-09T21:43:15.108-0300][gc,metaspace ] GC(1) Metaspace: 5315K->5315K(1056768K)
[2021-09-09T21:43:15.108-0300][gc           ] GC(1) Pause Young (Normal) (G1 Evacuation Pause) 42M->29M(512M) 13.902ms
[2021-09-09T21:43:15.108-0300][gc,cpu       ] GC(1) User=0.03s Sys=0.01s Real=0.01s
[2021-09-09T21:44:44.276-0300][gc,start     ] GC(2) Pause Young (Normal) (G1 Evacuation Pause)
[2021-09-09T21:44:44.277-0300][gc,task      ] GC(2) Using 4 workers of 4 for evacuation
[2021-09-09T21:44:44.284-0300][gc,phases    ] GC(2)   Pre Evacuate Collection Set: 0.0ms
[2021-09-09T21:44:44.284-0300][gc,phases    ] GC(2)   Evacuate Collection Set: 6.5ms
[2021-09-09T21:44:44.284-0300][gc,phases    ] GC(2)   Post Evacuate Collection Set: 0.3ms
[2021-09-09T21:44:44.284-0300][gc,phases    ] GC(2)   Other: 0.9ms
[2021-09-09T21:44:44.284-0300][gc,heap      ] GC(2) Eden regions: 21->0(23)
[2021-09-09T21:44:44.284-0300][gc,heap      ] GC(2) Survivor regions: 4->2(4)
[2021-09-09T21:44:44.284-0300][gc,heap      ] GC(2) Old regions: 22->25
[2021-09-09T21:44:44.284-0300][gc,heap      ] GC(2) Archive regions: 2->2
[2021-09-09T21:44:44.284-0300][gc,heap      ] GC(2) Humongous regions: 4->4
[2021-09-09T21:44:44.284-0300][gc,metaspace ] GC(2) Metaspace: 8158K->8158K(1056768K)
[2021-09-09T21:44:44.284-0300][gc           ] GC(2) Pause Young (Normal) (G1 Evacuation Pause) 50M->31M(512M) 7.956ms
[2021-09-09T21:44:44.284-0300][gc,cpu       ] GC(2) User=0.01s Sys=0.00s Real=0.01s
[2021-09-09T21:45:49.990-0300][gc,heap,exit ] Heap
[2021-09-09T21:45:49.990-0300][gc,heap,exit ]  garbage-first heap   total 524288K, used 33956K [0x00000007e0000000, 0x0000000800000000)
[2021-09-09T21:45:49.990-0300][gc,heap,exit ]   region size 1024K, 5 young (5120K), 2 survivors (2048K)
[2021-09-09T21:45:49.990-0300][gc,heap,exit ]  Metaspace       used 8163K, capacity 8391K, committed 8704K, reserved 1056768K
[2021-09-09T21:45:49.990-0300][gc,heap,exit ]   class space    used 865K, capacity 970K, committed 1024K, reserved 1048576K
